Labdig/Exp7t/simulation/qsim/CircuitoTemporizador.msim.vcd
$comment
	File created using the following command:
		vcd file CircuitoTemporizador.msim.vcd -direction
$end
$date
	Mon May 04 02:12:22 2020
$end
$version
	ModelSim Version 10.5b
$end
$timescale
	1ps
$end

$scope module circuitotemporizador_vhd_vec_tst $end
$var wire 1 ! c1m $end
$var wire 1 " c1s $end
$var wire 1 # c5s $end
$var wire 1 $ clock $end
$var wire 1 % cout $end

$scope module i1 $end
$var wire 1 & gnd $end
$var wire 1 ' vcc $end
$var wire 1 ( unknown $end
$var wire 1 ) devoe $end
$var wire 1 * devclrn $end
$var wire 1 + devpor $end
$var wire 1 , ww_devoe $end
$var wire 1 - ww_devclrn $end
$var wire 1 . ww_devpor $end
$var wire 1 / ww_c1s $end
$var wire 1 0 ww_c5s $end
$var wire 1 1 ww_c1m $end
$var wire 1 2 ww_clock $end
$var wire 1 3 ww_cout $end
$var wire 1 4 \cout~output_o\ $end
$var wire 1 5 \clock~input_o\ $end
$var wire 1 6 \Add0~81_sumout\ $end
$var wire 1 7 \cc1[0]~0_combout\ $end
$var wire 1 8 \Add0~82\ $end
$var wire 1 9 \Add0~93_sumout\ $end
$var wire 1 : \Add0~94\ $end
$var wire 1 ; \Add0~97_sumout\ $end
$var wire 1 < \Add0~98\ $end
$var wire 1 = \Add0~101_sumout\ $end
$var wire 1 > \Add0~102\ $end
$var wire 1 ? \Add0~105_sumout\ $end
$var wire 1 @ \Add0~106\ $end
$var wire 1 A \Add0~109_sumout\ $end
$var wire 1 B \Add0~110\ $end
$var wire 1 C \Add0~113_sumout\ $end
$var wire 1 D \Add0~114\ $end
$var wire 1 E \Add0~89_sumout\ $end
$var wire 1 F \Add0~90\ $end
$var wire 1 G \Add0~117_sumout\ $end
$var wire 1 H \Add0~118\ $end
$var wire 1 I \Add0~121_sumout\ $end
$var wire 1 J \Add0~122\ $end
$var wire 1 K \Add0~125_sumout\ $end
$var wire 1 L \Add0~126\ $end
$var wire 1 M \Add0~57_sumout\ $end
$var wire 1 N \Add0~58\ $end
$var wire 1 O \Add0~61_sumout\ $end
$var wire 1 P \Add0~62\ $end
$var wire 1 Q \Add0~65_sumout\ $end
$var wire 1 R \Add0~66\ $end
$var wire 1 S \Add0~69_sumout\ $end
$var wire 1 T \Add0~70\ $end
$var wire 1 U \Add0~73_sumout\ $end
$var wire 1 V \Add0~74\ $end
$var wire 1 W \Add0~77_sumout\ $end
$var wire 1 X \Add0~78\ $end
$var wire 1 Y \Add0~33_sumout\ $end
$var wire 1 Z \Add0~34\ $end
$var wire 1 [ \Add0~37_sumout\ $end
$var wire 1 \ \Add0~38\ $end
$var wire 1 ] \Add0~41_sumout\ $end
$var wire 1 ^ \Add0~42\ $end
$var wire 1 _ \Add0~45_sumout\ $end
$var wire 1 ` \Add0~46\ $end
$var wire 1 a \Add0~49_sumout\ $end
$var wire 1 b \Add0~50\ $end
$var wire 1 c \Add0~53_sumout\ $end
$var wire 1 d \Add0~54\ $end
$var wire 1 e \Add0~9_sumout\ $end
$var wire 1 f \Add0~10\ $end
$var wire 1 g \Add0~13_sumout\ $end
$var wire 1 h \Add0~14\ $end
$var wire 1 i \Add0~17_sumout\ $end
$var wire 1 j \Add0~18\ $end
$var wire 1 k \Add0~21_sumout\ $end
$var wire 1 l \Add0~22\ $end
$var wire 1 m \Add0~25_sumout\ $end
$var wire 1 n \Add0~26\ $end
$var wire 1 o \Add0~29_sumout\ $end
$var wire 1 p \Add0~30\ $end
$var wire 1 q \Add0~1_sumout\ $end
$var wire 1 r \Add0~2\ $end
$var wire 1 s \Add0~5_sumout\ $end
$var wire 1 t \Equal0~0_combout\ $end
$var wire 1 u \Equal0~1_combout\ $end
$var wire 1 v \Equal0~2_combout\ $end
$var wire 1 w \Equal0~3_combout\ $end
$var wire 1 x \Add0~6\ $end
$var wire 1 y \Add0~85_sumout\ $end
$var wire 1 z \Equal0~4_combout\ $end
$var wire 1 { \Equal0~5_combout\ $end
$var wire 1 | \Equal0~6_combout\ $end
$var wire 1 } \temp1s~0_combout\ $end
$var wire 1 ~ \temp1s~q\ $end
$var wire 1 !! \c5s~input_o\ $end
$var wire 1 "! \conter:0:INITC:Ci|Q~q\ $end
$var wire 1 #! \d2~combout\ $end
$var wire 1 $! \conter:2:CO2:Ci|QI~q\ $end
$var wire 1 %! \d0~combout\ $end
$var wire 1 &! \conter:0:INITC:Ci|QI~0_combout\ $end
$var wire 1 '! \conter:0:INITC:Ci|QI~q\ $end
$var wire 1 (! \conter:1:CO1:Ci|QI~0_combout\ $end
$var wire 1 )! \conter:1:CO1:Ci|QI~q\ $end
$var wire 1 *! \d1~combout\ $end
$var wire 1 +! \conter:1:CO1:Ci|Q~q\ $end
$var wire 1 ,! \conter:3:CO3:Ci|Q~q\ $end
$var wire 1 -! \c1m~input_o\ $end
$var wire 1 .! \c1s~input_o\ $end
$var wire 1 /! \Add1~81_sumout\ $end
$var wire 1 0! \cc60[0]~0_combout\ $end
$var wire 1 1! \Add1~82\ $end
$var wire 1 2! \Add1~77_sumout\ $end
$var wire 1 3! \Add1~78\ $end
$var wire 1 4! \Add1~5_sumout\ $end
$var wire 1 5! \Add1~6\ $end
$var wire 1 6! \Add1~1_sumout\ $end
$var wire 1 7! \Equal1~0_combout\ $end
$var wire 1 8! \Add1~2\ $end
$var wire 1 9! \Add1~29_sumout\ $end
$var wire 1 :! \Add1~30\ $end
$var wire 1 ;! \Add1~25_sumout\ $end
$var wire 1 <! \Add1~26\ $end
$var wire 1 =! \Add1~21_sumout\ $end
$var wire 1 >! \Add1~22\ $end
$var wire 1 ?! \Add1~17_sumout\ $end
$var wire 1 @! \Add1~18\ $end
$var wire 1 A! \Add1~13_sumout\ $end
$var wire 1 B! \Add1~14\ $end
$var wire 1 C! \Add1~9_sumout\ $end
$var wire 1 D! \Equal1~1_combout\ $end
$var wire 1 E! \Add1~10\ $end
$var wire 1 F! \Add1~53_sumout\ $end
$var wire 1 G! \Add1~54\ $end
$var wire 1 H! \Add1~49_sumout\ $end
$var wire 1 I! \Add1~50\ $end
$var wire 1 J! \Add1~45_sumout\ $end
$var wire 1 K! \Add1~46\ $end
$var wire 1 L! \Add1~41_sumout\ $end
$var wire 1 M! \Add1~42\ $end
$var wire 1 N! \Add1~37_sumout\ $end
$var wire 1 O! \Add1~38\ $end
$var wire 1 P! \Add1~33_sumout\ $end
$var wire 1 Q! \Equal1~2_combout\ $end
$var wire 1 R! \Add1~34\ $end
$var wire 1 S! \Add1~117_sumout\ $end
$var wire 1 T! \Add1~118\ $end
$var wire 1 U! \Add1~73_sumout\ $end
$var wire 1 V! \Add1~74\ $end
$var wire 1 W! \Add1~69_sumout\ $end
$var wire 1 X! \Add1~70\ $end
$var wire 1 Y! \Add1~65_sumout\ $end
$var wire 1 Z! \Add1~66\ $end
$var wire 1 [! \Add1~61_sumout\ $end
$var wire 1 \! \Add1~62\ $end
$var wire 1 ]! \Add1~57_sumout\ $end
$var wire 1 ^! \Equal1~3_combout\ $end
$var wire 1 _! \Add1~58\ $end
$var wire 1 `! \Add1~125_sumout\ $end
$var wire 1 a! \Add1~126\ $end
$var wire 1 b! \Add1~121_sumout\ $end
$var wire 1 c! \Add1~122\ $end
$var wire 1 d! \Add1~85_sumout\ $end
$var wire 1 e! \Add1~86\ $end
$var wire 1 f! \Add1~113_sumout\ $end
$var wire 1 g! \Add1~114\ $end
$var wire 1 h! \Add1~109_sumout\ $end
$var wire 1 i! \Add1~110\ $end
$var wire 1 j! \Add1~105_sumout\ $end
$var wire 1 k! \Add1~106\ $end
$var wire 1 l! \Add1~101_sumout\ $end
$var wire 1 m! \Add1~102\ $end
$var wire 1 n! \Add1~97_sumout\ $end
$var wire 1 o! \Add1~98\ $end
$var wire 1 p! \Add1~93_sumout\ $end
$var wire 1 q! \Add1~94\ $end
$var wire 1 r! \Add1~89_sumout\ $end
$var wire 1 s! \Equal1~4_combout\ $end
$var wire 1 t! \Equal1~5_combout\ $end
$var wire 1 u! \Equal1~6_combout\ $end
$var wire 1 v! \temp1m~0_combout\ $end
$var wire 1 w! \temp1m~q\ $end
$var wire 1 x! \cout~0_combout\ $end
$var wire 1 y! cc1 [31] $end
$var wire 1 z! cc1 [30] $end
$var wire 1 {! cc1 [29] $end
$var wire 1 |! cc1 [28] $end
$var wire 1 }! cc1 [27] $end
$var wire 1 ~! cc1 [26] $end
$var wire 1 !" cc1 [25] $end
$var wire 1 "" cc1 [24] $end
$var wire 1 #" cc1 [23] $end
$var wire 1 $" cc1 [22] $end
$var wire 1 %" cc1 [21] $end
$var wire 1 &" cc1 [20] $end
$var wire 1 '" cc1 [19] $end
$var wire 1 (" cc1 [18] $end
$var wire 1 )" cc1 [17] $end
$var wire 1 *" cc1 [16] $end
$var wire 1 +" cc1 [15] $end
$var wire 1 ," cc1 [14] $end
$var wire 1 -" cc1 [13] $end
$var wire 1 ." cc1 [12] $end
$var wire 1 /" cc1 [11] $end
$var wire 1 0" cc1 [10] $end
$var wire 1 1" cc1 [9] $end
$var wire 1 2" cc1 [8] $end
$var wire 1 3" cc1 [7] $end
$var wire 1 4" cc1 [6] $end
$var wire 1 5" cc1 [5] $end
$var wire 1 6" cc1 [4] $end
$var wire 1 7" cc1 [3] $end
$var wire 1 8" cc1 [2] $end
$var wire 1 9" cc1 [1] $end
$var wire 1 :" cc1 [0] $end
$var wire 1 ;" cc60 [31] $end
$var wire 1 <" cc60 [30] $end
$var wire 1 =" cc60 [29] $end
$var wire 1 >" cc60 [28] $end
$var wire 1 ?" cc60 [27] $end
$var wire 1 @" cc60 [26] $end
$var wire 1 A" cc60 [25] $end
$var wire 1 B" cc60 [24] $end
$var wire 1 C" cc60 [23] $end
$var wire 1 D" cc60 [22] $end
$var wire 1 E" cc60 [21] $end
$var wire 1 F" cc60 [20] $end
$var wire 1 G" cc60 [19] $end
$var wire 1 H" cc60 [18] $end
$var wire 1 I" cc60 [17] $end
$var wire 1 J" cc60 [16] $end
$var wire 1 K" cc60 [15] $end
$var wire 1 L" cc60 [14] $end
$var wire 1 M" cc60 [13] $end
$var wire 1 N" cc60 [12] $end
$var wire 1 O" cc60 [11] $end
$var wire 1 P" cc60 [10] $end
$var wire 1 Q" cc60 [9] $end
$var wire 1 R" cc60 [8] $end
$var wire 1 S" cc60 [7] $end
$var wire 1 T" cc60 [6] $end
$var wire 1 U" cc60 [5] $end
$var wire 1 V" cc60 [4] $end
$var wire 1 W" cc60 [3] $end
$var wire 1 X" cc60 [2] $end
$var wire 1 Y" cc60 [1] $end
$var wire 1 Z" cc60 [0] $end
$var wire 1 [" ALT_INV_cc60 [31] $end
$var wire 1 \" ALT_INV_cc60 [30] $end
$var wire 1 ]" ALT_INV_cc60 [29] $end
$var wire 1 ^" ALT_INV_cc60 [28] $end
$var wire 1 _" ALT_INV_cc60 [27] $end
$var wire 1 `" ALT_INV_cc60 [26] $end
$var wire 1 a" ALT_INV_cc60 [25] $end
$var wire 1 b" ALT_INV_cc60 [24] $end
$var wire 1 c" ALT_INV_cc60 [23] $end
$var wire 1 d" ALT_INV_cc60 [22] $end
$var wire 1 e" ALT_INV_cc60 [21] $end
$var wire 1 f" ALT_INV_cc60 [20] $end
$var wire 1 g" ALT_INV_cc60 [19] $end
$var wire 1 h" ALT_INV_cc60 [18] $end
$var wire 1 i" ALT_INV_cc60 [17] $end
$var wire 1 j" ALT_INV_cc60 [16] $end
$var wire 1 k" ALT_INV_cc60 [15] $end
$var wire 1 l" ALT_INV_cc60 [14] $end
$var wire 1 m" ALT_INV_cc60 [13] $end
$var wire 1 n" ALT_INV_cc60 [12] $end
$var wire 1 o" ALT_INV_cc60 [11] $end
$var wire 1 p" ALT_INV_cc60 [10] $end
$var wire 1 q" ALT_INV_cc60 [9] $end
$var wire 1 r" ALT_INV_cc60 [8] $end
$var wire 1 s" ALT_INV_cc60 [7] $end
$var wire 1 t" ALT_INV_cc60 [6] $end
$var wire 1 u" ALT_INV_cc60 [5] $end
$var wire 1 v" ALT_INV_cc60 [4] $end
$var wire 1 w" ALT_INV_cc60 [3] $end
$var wire 1 x" ALT_INV_cc60 [2] $end
$var wire 1 y" ALT_INV_cc60 [1] $end
$var wire 1 z" ALT_INV_cc60 [0] $end
$var wire 1 {" ALT_INV_cc1 [31] $end
$var wire 1 |" ALT_INV_cc1 [30] $end
$var wire 1 }" ALT_INV_cc1 [29] $end
$var wire 1 ~" ALT_INV_cc1 [28] $end
$var wire 1 !# ALT_INV_cc1 [27] $end
$var wire 1 "# ALT_INV_cc1 [26] $end
$var wire 1 ## ALT_INV_cc1 [25] $end
$var wire 1 $# ALT_INV_cc1 [24] $end
$var wire 1 %# ALT_INV_cc1 [23] $end
$var wire 1 &# ALT_INV_cc1 [22] $end
$var wire 1 '# ALT_INV_cc1 [21] $end
$var wire 1 (# ALT_INV_cc1 [20] $end
$var wire 1 )# ALT_INV_cc1 [19] $end
$var wire 1 *# ALT_INV_cc1 [18] $end
$var wire 1 +# ALT_INV_cc1 [17] $end
$var wire 1 ,# ALT_INV_cc1 [16] $end
$var wire 1 -# ALT_INV_cc1 [15] $end
$var wire 1 .# ALT_INV_cc1 [14] $end
$var wire 1 /# ALT_INV_cc1 [13] $end
$var wire 1 0# ALT_INV_cc1 [12] $end
$var wire 1 1# ALT_INV_cc1 [11] $end
$var wire 1 2# ALT_INV_cc1 [10] $end
$var wire 1 3# ALT_INV_cc1 [9] $end
$var wire 1 4# ALT_INV_cc1 [8] $end
$var wire 1 5# ALT_INV_cc1 [7] $end
$var wire 1 6# ALT_INV_cc1 [6] $end
$var wire 1 7# ALT_INV_cc1 [5] $end
$var wire 1 8# ALT_INV_cc1 [4] $end
$var wire 1 9# ALT_INV_cc1 [3] $end
$var wire 1 :# ALT_INV_cc1 [2] $end
$var wire 1 ;# ALT_INV_cc1 [1] $end
$var wire 1 <# ALT_INV_cc1 [0] $end
$var wire 1 =# \conter:2:CO2:Ci|ALT_INV_QI~q\ $end
$var wire 1 ># \ALT_INV_d1~combout\ $end
$var wire 1 ?# \conter:1:CO1:Ci|ALT_INV_QI~q\ $end
$var wire 1 @# \conter:0:INITC:Ci|ALT_INV_Q~q\ $end
$var wire 1 A# \conter:0:INITC:Ci|ALT_INV_QI~q\ $end
$var wire 1 B# \ALT_INV_Equal1~6_combout\ $end
$var wire 1 C# \ALT_INV_Equal1~5_combout\ $end
$var wire 1 D# \ALT_INV_Equal1~4_combout\ $end
$var wire 1 E# \ALT_INV_Equal1~3_combout\ $end
$var wire 1 F# \ALT_INV_Equal1~2_combout\ $end
$var wire 1 G# \ALT_INV_Equal1~1_combout\ $end
$var wire 1 H# \ALT_INV_Equal1~0_combout\ $end
$var wire 1 I# \ALT_INV_Equal0~6_combout\ $end
$var wire 1 J# \ALT_INV_Equal0~5_combout\ $end
$var wire 1 K# \ALT_INV_Equal0~4_combout\ $end
$var wire 1 L# \ALT_INV_Equal0~3_combout\ $end
$var wire 1 M# \ALT_INV_Equal0~2_combout\ $end
$var wire 1 N# \ALT_INV_Equal0~1_combout\ $end
$var wire 1 O# \ALT_INV_Equal0~0_combout\ $end
$var wire 1 P# \conter:3:CO3:Ci|ALT_INV_Q~q\ $end
$var wire 1 Q# \conter:1:CO1:Ci|ALT_INV_Q~q\ $end
$var wire 1 R# \ALT_INV_temp1m~q\ $end
$var wire 1 S# \ALT_INV_temp1s~q\ $end
$var wire 1 T# \ALT_INV_Add1~81_sumout\ $end
$var wire 1 U# \ALT_INV_Add0~81_sumout\ $end
$var wire 1 V# \ALT_INV_c1m~input_o\ $end
$var wire 1 W# \ALT_INV_c5s~input_o\ $end
$var wire 1 X# \ALT_INV_c1s~input_o\ $end
$var wire 1 Y# \ALT_INV_d0~combout\ $end
$upscope $end
$upscope $end
$enddefinitions $end
#0
$dumpvars
0!
1"
0#
0$
0%
0&
1'
x(
1)
1*
1+
1,
1-
1.
1/
00
01
02
03
04
05
06
17
18
19
0:
0;
0<
0=
0>
0?
0@
0A
0B
0C
0D
0E
0F
0G
0H
0I
0J
0K
0L
0M
0N
0O
0P
0Q
0R
0S
0T
0U
0V
0W
0X
0Y
0Z
0[
0\
0]
0^
0_
0`
0a
0b
0c
0d
0e
0f
0g
0h
0i
0j
0k
0l
0m
0n
0o
0p
0q
0r
0s
1t
1u
1v
1w
0x
0y
0z
1{
0|
0}
0~
0!!
0"!
1#!
0$!
0%!
1&!
0'!
1(!
0)!
0*!
0+!
0,!
0-!
1.!
0/!
10!
11!
12!
03!
04!
05!
06!
07!
08!
09!
0:!
0;!
0<!
0=!
0>!
0?!
0@!
0A!
0B!
0C!
0D!
0E!
0F!
0G!
0H!
0I!
0J!
0K!
0L!
0M!
0N!
0O!
0P!
1Q!
0R!
0S!
0T!
0U!
0V!
0W!
0X!
0Y!
0Z!
0[!
0\!
0]!
0^!
0_!
0`!
0a!
0b!
0c!
0d!
0e!
0f!
0g!
0h!
0i!
0j!
0k!
0l!
0m!
0n!
0o!
0p!
0q!
0r!
0s!
1t!
0u!
0v!
0w!
0x!
1=#
1>#
1?#
1@#
1A#
1B#
0C#
1D#
1E#
0F#
1G#
1H#
1I#
0J#
1K#
0L#
0M#
0N#
0O#
1P#
1Q#
1R#
1S#
1T#
1U#
1V#
1W#
0X#
1Y#
0y!
0z!
0{!
0|!
0}!
0~!
0!"
0""
0#"
0$"
0%"
0&"
0'"
0("
0)"
0*"
0+"
0,"
0-"
0."
0/"
00"
01"
02"
03"
04"
05"
06"
07"
08"
09"
0:"
0;"
0<"
0="
0>"
0?"
0@"
0A"
0B"
0C"
0D"
0E"
0F"
0G"
0H"
0I"
0J"
0K"
0L"
0M"
0N"
0O"
0P"
0Q"
0R"
0S"
0T"
0U"
0V"
0W"
0X"
0Y"
0Z"
1["
1\"
1]"
1^"
1_"
1`"
1a"
1b"
1c"
1d"
1e"
1f"
1g"
1h"
1i"
1j"
1k"
1l"
1m"
1n"
1o"
1p"
1q"
1r"
1s"
1t"
1u"
1v"
1w"
1x"
1y"
1z"
1{"
1|"
1}"
1~"
1!#
1"#
1##
1$#
1%#
1&#
1'#
1(#
1)#
1*#
1+#
1,#
1-#
1.#
1/#
10#
11#
12#
13#
14#
15#
16#
17#
18#
19#
1:#
1;#
1<#
$end
#5000
1$
12
15
1:"
19"
0;#
0<#
16
08
09
1:
1z
0K#
0U#
1;
19
0:
07
1|
0;
0I#
1}
#10000
0$
02
05
#15000
1$
12
15
0:"
09"
1~
0S#
1;#
1<#
06
18
09
0z
0}
1x!
1K#
1U#
19
17
0|
1I#
14
1}
13
1%
#20000
0$
02
05
#25000
1$
12
15
1:"
19"
0;#
0<#
16
08
09
1:
1z
0K#
0U#
1;
19
0:
07
1|
0;
0I#
0}
#30000
0$
02
05
#35000
1$
12
15
0:"
09"
0~
1S#
1;#
1<#
06
18
09
0z
1}
0x!
1K#
1U#
19
17
0|
1I#
04
0}
03
0%
#40000
0$
02
05
#45000
1$
12
15
1:"
19"
0;#
0<#
16
08
09
1:
1z
0K#
0U#
1;
19
0:
07
1|
0;
0I#
1}
#50000
0$
02
05
#55000
1$
12
15
0:"
09"
1~
0S#
1;#
1<#
06
18
09
0z
0}
1x!
1K#
1U#
19
17
0|
1I#
14
1}
13
1%
#60000
0$
02
05
#65000
1$
12
15
1:"
19"
0;#
0<#
16
08
09
1:
1z
0K#
0U#
1;
19
0:
07
1|
0;
0I#
0}
#70000
0$
02
05
#75000
1$
12
15
0:"
09"
0~
1S#
1;#
1<#
06
18
09
0z
1}
0x!
1K#
1U#
19
17
0|
1I#
04
0}
03
0%
#80000
0$
0"
1#
02
0/
10
1!!
0.!
05
1X#
0W#
#85000
1$
12
15
1:"
19"
0;#
0<#
16
08
09
1:
1z
0K#
0U#
1;
19
0:
07
1|
0;
0I#
1}
#90000
0$
02
05
#95000
1$
12
15
0:"
09"
1~
0S#
1;#
1<#
1$!
1'!
1)!
06
18
09
0z
0}
0?#
0A#
0=#
1K#
1U#
1%!
19
17
0|
0Y#
1I#
0&!
1}
#100000
0$
02
05
#105000
1$
12
15
1:"
19"
0;#
0<#
16
08
09
1:
1z
0K#
0U#
1;
19
0:
07
1|
0;
0I#
0}
#110000
0$
02
05
#115000
1$
12
15
0:"
09"
0~
1S#
1;#
1<#
06
18
09
0z
1}
1K#
1U#
19
17
0|
1I#
0}
#120000
0$
02
05
#125000
1$
12
15
1:"
19"
0;#
0<#
16
08
09
1:
1z
0K#
0U#
1;
19
0:
07
1|
0;
0I#
1}
#130000
0$
02
05
#135000
1$
12
15
0:"
09"
1~
0S#
1;#
1<#
1"!
0'!
06
18
09
0z
0}
1A#
0@#
1K#
1U#
0%!
1*!
19
17
0|
0>#
1Y#
1I#
1&!
0(!
1}
#140000
0$
02
05
#145000
1$
12
15
1:"
19"
0;#
0<#
16
08
09
1:
1z
0K#
0U#
1;
19
0:
07
1|
0;
0I#
0}
#150000
0$
02
05
#155000
1$
12
15
0:"
09"
0~
1S#
1;#
1<#
06
18
09
0z
1}
1K#
1U#
19
17
0|
1I#
0}
#160000
0$
02
05
#165000
1$
12
15
1:"
19"
0;#
0<#
16
08
09
1:
1z
0K#
0U#
1;
19
0:
07
1|
0;
0I#
1}
#170000
0$
02
05
#175000
1$
12
15
0:"
09"
1~
0S#
1;#
1<#
0"!
1'!
0)!
1+!
06
18
09
0z
0}
0Q#
1?#
0A#
1@#
1K#
1U#
1%!
1x!
19
17
0|
0Y#
1I#
0&!
1}
14
13
1%
#180000
0$
02
05
#185000
1$
12
15
1:"
19"
0;#
0<#
16
08
09
1:
1z
0K#
0U#
1;
19
0:
07
1|
0;
0I#
0}
#190000
0$
02
05
#195000
1$
12
15
0:"
09"
0~
1S#
1;#
1<#
06
18
09
0z
1}
1K#
1U#
19
17
0|
1I#
0}
#200000
0$
02
05
#205000
1$
12
15
1:"
19"
0;#
0<#
16
08
09
1:
1z
0K#
0U#
1;
19
0:
07
1|
0;
0I#
1}
#210000
0$
02
05
#215000
1$
12
15
0:"
09"
1~
0S#
1;#
1<#
1"!
0'!
1,!
06
18
09
0z
0}
0P#
1A#
0@#
1K#
1U#
0#!
0%!
0*!
19
17
0|
1>#
1Y#
1I#
1&!
1(!
1}
#220000
0$
02
05
#225000
1$
12
15
1:"
19"
0;#
0<#
16
08
09
1:
1z
0K#
0U#
1;
19
0:
07
1|
0;
0I#
0}
#230000
0$
02
05
#235000
1$
12
15
0:"
09"
0~
1S#
1;#
1<#
06
18
09
0z
1}
1K#
1U#
19
17
0|
1I#
0}
#240000
0$
02
05
#245000
1$
12
15
1:"
19"
0;#
0<#
16
08
09
1:
1z
0K#
0U#
1;
19
0:
07
1|
0;
0I#
1}
#250000
0$
02
05
#255000
1$
12
15
0:"
09"
1~
0S#
1;#
1<#
0"!
0$!
1'!
1)!
0+!
06
18
09
0z
0}
1Q#
0?#
0A#
1=#
1@#
1K#
1U#
1#!
19
17
0|
1I#
1}
#260000
0$
02
05
#265000
1$
12
15
1:"
19"
0;#
0<#
16
08
09
1:
1z
0K#
0U#
1;
19
0:
07
1|
0;
0I#
0}
#270000
0$
02
05
#275000
1$
12
15
0:"
09"
0~
1S#
1;#
1<#
06
18
09
0z
1}
1K#
1U#
19
17
0|
1I#
0}
#280000
0$
02
05
#285000
1$
12
15
1:"
19"
0;#
0<#
16
08
09
1:
1z
0K#
0U#
1;
19
0:
07
1|
0;
0I#
1}
#290000
0$
02
05
#295000
1$
12
15
0:"
09"
1~
0S#
1;#
1<#
1$!
0,!
06
18
09
0z
0}
1P#
0=#
1K#
1U#
1%!
0x!
19
17
0|
0Y#
1I#
0&!
1}
04
03
0%
#300000
0$
02
05
#305000
1$
12
15
1:"
19"
0;#
0<#
16
08
09
1:
1z
0K#
0U#
1;
19
0:
07
1|
0;
0I#
0}
#310000
0$
02
05
#315000
1$
12
15
0:"
09"
0~
1S#
1;#
1<#
06
18
09
0z
1}
1K#
1U#
19
17
0|
1I#
0}
#320000
0$
02
05
#325000
1$
12
15
1:"
19"
0;#
0<#
16
08
09
1:
1z
0K#
0U#
1;
19
0:
07
1|
0;
0I#
1}
#330000
0$
02
05
#335000
1$
12
15
0:"
09"
1~
0S#
1;#
1<#
1"!
0'!
06
18
09
0z
0}
1A#
0@#
1K#
1U#
0%!
1*!
19
17
0|
0>#
1Y#
1I#
1&!
0(!
1}
#340000
0$
02
05
#345000
1$
12
15
1:"
19"
0;#
0<#
16
08
09
1:
1z
0K#
0U#
1;
19
0:
07
1|
0;
0I#
0}
#350000
0$
02
05
#355000
1$
12
15
0:"
09"
0~
1S#
1;#
1<#
06
18
09
0z
1}
1K#
1U#
19
17
0|
1I#
0}
#360000
0$
02
05
#365000
1$
12
15
1:"
19"
0;#
0<#
16
08
09
1:
1z
0K#
0U#
1;
19
0:
07
1|
0;
0I#
1}
#370000
0$
02
05
#375000
1$
12
15
0:"
09"
1~
0S#
1;#
1<#
0"!
1'!
0)!
1+!
06
18
09
0z
0}
0Q#
1?#
0A#
1@#
1K#
1U#
1%!
1x!
19
17
0|
0Y#
1I#
0&!
1}
14
13
1%
#380000
0$
02
05
#385000
1$
12
15
1:"
19"
0;#
0<#
16
08
09
1:
1z
0K#
0U#
1;
19
0:
07
1|
0;
0I#
0}
#390000
0$
02
05
#395000
1$
12
15
0:"
09"
0~
1S#
1;#
1<#
06
18
09
0z
1}
1K#
1U#
19
17
0|
1I#
0}
#400000
0$
02
05
#405000
1$
12
15
1:"
19"
0;#
0<#
16
08
09
1:
1z
0K#
0U#
1;
19
0:
07
1|
0;
0I#
1}
#410000
0$
02
05
#415000
1$
12
15
0:"
09"
1~
0S#
1;#
1<#
1"!
0'!
1,!
06
18
09
0z
0}
0P#
1A#
0@#
1K#
1U#
0#!
0%!
0*!
19
17
0|
1>#
1Y#
1I#
1&!
1(!
1}
#420000
0$
02
05
#425000
1$
12
15
1:"
19"
0;#
0<#
16
08
09
1:
1z
0K#
0U#
1;
19
0:
07
1|
0;
0I#
0}
#430000
0$
02
05
#435000
1$
12
15
0:"
09"
0~
1S#
1;#
1<#
06
18
09
0z
1}
1K#
1U#
19
17
0|
1I#
0}
#440000
0$
02
05
#445000
1$
12
15
1:"
19"
0;#
0<#
16
08
09
1:
1z
0K#
0U#
1;
19
0:
07
1|
0;
0I#
1}
#450000
0$
02
05
#455000
1$
12
15
0:"
09"
1~
0S#
1;#
1<#
0"!
0$!
1'!
1)!
0+!
06
18
09
0z
0}
1Q#
0?#
0A#
1=#
1@#
1K#
1U#
1#!
19
17
0|
1I#
1}
#460000
0$
02
05
#465000
1$
12
15
1:"
19"
0;#
0<#
16
08
09
1:
1z
0K#
0U#
1;
19
0:
07
1|
0;
0I#
0}
#470000
0$
02
05
#475000
1$
12
15
0:"
09"
0~
1S#
1;#
1<#
06
18
09
0z
1}
1K#
1U#
19
17
0|
1I#
0}
#480000
0$
02
05
#485000
1$
12
15
1:"
19"
0;#
0<#
16
08
09
1:
1z
0K#
0U#
1;
19
0:
07
1|
0;
0I#
1}
#490000
0$
02
05
#495000
1$
12
15
0:"
09"
1~
0S#
1;#
1<#
1$!
0,!
06
18
09
0z
0}
1P#
0=#
1K#
1U#
1%!
0x!
19
17
0|
0Y#
1I#
0&!
1}
04
03
0%
#500000
0$
02
05
#505000
1$
12
15
1:"
19"
0;#
0<#
16
08
09
1:
1z
0K#
0U#
1;
19
0:
07
1|
0;
0I#
0}
#510000
0$
02
05
#515000
1$
12
15
0:"
09"
0~
1S#
1;#
1<#
06
18
09
0z
1}
1K#
1U#
19
17
0|
1I#
0}
#520000
0$
02
05
#525000
1$
12
15
1:"
19"
0;#
0<#
16
08
09
1:
1z
0K#
0U#
1;
19
0:
07
1|
0;
0I#
1}
#530000
0$
02
05
#535000
1$
12
15
0:"
09"
1~
0S#
1;#
1<#
1"!
0'!
06
18
09
0z
0}
1A#
0@#
1K#
1U#
0%!
1*!
19
17
0|
0>#
1Y#
1I#
1&!
0(!
1}
#540000
0$
02
05
#545000
1$
12
15
1:"
19"
0;#
0<#
16
08
09
1:
1z
0K#
0U#
1;
19
0:
07
1|
0;
0I#
0}
#550000
0$
02
05
#555000
1$
12
15
0:"
09"
0~
1S#
1;#
1<#
06
18
09
0z
1}
1K#
1U#
19
17
0|
1I#
0}
#560000
0$
02
05
#565000
1$
12
15
1:"
19"
0;#
0<#
16
08
09
1:
1z
0K#
0U#
1;
19
0:
07
1|
0;
0I#
1}
#570000
0$
02
05
#575000
1$
12
15
0:"
09"
1~
0S#
1;#
1<#
0"!
1'!
0)!
1+!
06
18
09
0z
0}
0Q#
1?#
0A#
1@#
1K#
1U#
1%!
1x!
19
17
0|
0Y#
1I#
0&!
1}
14
13
1%
#580000
0$
02
05
#585000
1$
12
15
1:"
19"
0;#
0<#
16
08
09
1:
1z
0K#
0U#
1;
19
0:
07
1|
0;
0I#
0}
#590000
0$
02
05
#595000
1$
12
15
0:"
09"
0~
1S#
1;#
1<#
06
18
09
0z
1}
1K#
1U#
19
17
0|
1I#
0}
#600000
0$
02
05
#605000
1$
12
15
1:"
19"
0;#
0<#
16
08
09
1:
1z
0K#
0U#
1;
19
0:
07
1|
0;
0I#
1}
#610000
0$
02
05
#615000
1$
12
15
0:"
09"
1~
0S#
1;#
1<#
1"!
0'!
1,!
06
18
09
0z
0}
0P#
1A#
0@#
1K#
1U#
0#!
0%!
0*!
19
17
0|
1>#
1Y#
1I#
1&!
1(!
1}
#620000
0$
02
05
#625000
1$
12
15
1:"
19"
0;#
0<#
16
08
09
1:
1z
0K#
0U#
1;
19
0:
07
1|
0;
0I#
0}
#630000
0$
02
05
#635000
1$
12
15
0:"
09"
0~
1S#
1;#
1<#
06
18
09
0z
1}
1K#
1U#
19
17
0|
1I#
0}
#640000
0$
02
05
