Labdig/Exp7t/simulation/qsim/CircuitoTemporizador.msim.vcd
$comment
	File created using the following command:
		vcd file CircuitoTemporizador.msim.vcd -direction
$end
$date
	Tue Jun 23 16:00:24 2020
$end
$version
	ModelSim Version 10.5b
$end
$timescale
	1ps
$end

$scope module circuitotemporizador_vhd_vec_tst $end
$var wire 1 ! c1m $end
$var wire 1 " c1s $end
$var wire 1 # c5s $end
$var wire 1 $ clock $end
$var wire 1 % cout $end

$scope module i1 $end
$var wire 1 & gnd $end
$var wire 1 ' vcc $end
$var wire 1 ( unknown $end
$var wire 1 ) devoe $end
$var wire 1 * devclrn $end
$var wire 1 + devpor $end
$var wire 1 , ww_devoe $end
$var wire 1 - ww_devclrn $end
$var wire 1 . ww_devpor $end
$var wire 1 / ww_c1s $end
$var wire 1 0 ww_c5s $end
$var wire 1 1 ww_c1m $end
$var wire 1 2 ww_clock $end
$var wire 1 3 ww_cout $end
$var wire 1 4 \cout~output_o\ $end
$var wire 1 5 \clock~input_o\ $end
$var wire 1 6 \Add0~81_sumout\ $end
$var wire 1 7 \cc1[0]~0_combout\ $end
$var wire 1 8 \Add0~82\ $end
$var wire 1 9 \Add0~85_sumout\ $end
$var wire 1 : \Add0~86\ $end
$var wire 1 ; \Add0~5_sumout\ $end
$var wire 1 < \Add0~6\ $end
$var wire 1 = \Add0~1_sumout\ $end
$var wire 1 > \Equal0~0_combout\ $end
$var wire 1 ? \Add0~2\ $end
$var wire 1 @ \Add0~29_sumout\ $end
$var wire 1 A \Add0~30\ $end
$var wire 1 B \Add0~25_sumout\ $end
$var wire 1 C \Add0~26\ $end
$var wire 1 D \Add0~21_sumout\ $end
$var wire 1 E \Add0~22\ $end
$var wire 1 F \Add0~17_sumout\ $end
$var wire 1 G \Add0~18\ $end
$var wire 1 H \Add0~13_sumout\ $end
$var wire 1 I \Add0~14\ $end
$var wire 1 J \Add0~9_sumout\ $end
$var wire 1 K \Equal0~1_combout\ $end
$var wire 1 L \Add0~10\ $end
$var wire 1 M \Add0~53_sumout\ $end
$var wire 1 N \Add0~54\ $end
$var wire 1 O \Add0~49_sumout\ $end
$var wire 1 P \Add0~50\ $end
$var wire 1 Q \Add0~45_sumout\ $end
$var wire 1 R \Add0~46\ $end
$var wire 1 S \Add0~41_sumout\ $end
$var wire 1 T \Add0~42\ $end
$var wire 1 U \Add0~37_sumout\ $end
$var wire 1 V \Add0~38\ $end
$var wire 1 W \Add0~33_sumout\ $end
$var wire 1 X \Equal0~2_combout\ $end
$var wire 1 Y \Add0~34\ $end
$var wire 1 Z \Add0~77_sumout\ $end
$var wire 1 [ \Add0~78\ $end
$var wire 1 \ \Add0~73_sumout\ $end
$var wire 1 ] \Add0~74\ $end
$var wire 1 ^ \Add0~69_sumout\ $end
$var wire 1 _ \Add0~70\ $end
$var wire 1 ` \Add0~65_sumout\ $end
$var wire 1 a \Add0~66\ $end
$var wire 1 b \Add0~61_sumout\ $end
$var wire 1 c \Add0~62\ $end
$var wire 1 d \Add0~57_sumout\ $end
$var wire 1 e \Equal0~3_combout\ $end
$var wire 1 f \Add0~58\ $end
$var wire 1 g \Add0~125_sumout\ $end
$var wire 1 h \Add0~126\ $end
$var wire 1 i \Add0~121_sumout\ $end
$var wire 1 j \Add0~122\ $end
$var wire 1 k \Add0~89_sumout\ $end
$var wire 1 l \Add0~90\ $end
$var wire 1 m \Add0~117_sumout\ $end
$var wire 1 n \Add0~118\ $end
$var wire 1 o \Add0~113_sumout\ $end
$var wire 1 p \Add0~114\ $end
$var wire 1 q \Add0~109_sumout\ $end
$var wire 1 r \Add0~110\ $end
$var wire 1 s \Add0~105_sumout\ $end
$var wire 1 t \Add0~106\ $end
$var wire 1 u \Add0~101_sumout\ $end
$var wire 1 v \Add0~102\ $end
$var wire 1 w \Add0~97_sumout\ $end
$var wire 1 x \Add0~98\ $end
$var wire 1 y \Add0~93_sumout\ $end
$var wire 1 z \Equal0~4_combout\ $end
$var wire 1 { \Equal0~5_combout\ $end
$var wire 1 | \Equal0~6_combout\ $end
$var wire 1 } \temp1s~0_combout\ $end
$var wire 1 ~ \temp1s~q\ $end
$var wire 1 !! \c5s~input_o\ $end
$var wire 1 "! \conter:0:INITC:Ci|Q~q\ $end
$var wire 1 #! \d2~combout\ $end
$var wire 1 $! \conter:2:CO2:Ci|QI~q\ $end
$var wire 1 %! \d0~combout\ $end
$var wire 1 &! \conter:0:INITC:Ci|QI~0_combout\ $end
$var wire 1 '! \conter:0:INITC:Ci|QI~q\ $end
$var wire 1 (! \conter:1:CO1:Ci|QI~0_combout\ $end
$var wire 1 )! \conter:1:CO1:Ci|QI~q\ $end
$var wire 1 *! \d1~combout\ $end
$var wire 1 +! \conter:1:CO1:Ci|Q~q\ $end
$var wire 1 ,! \conter:3:CO3:Ci|Q~q\ $end
$var wire 1 -! \c1m~input_o\ $end
$var wire 1 .! \c1s~input_o\ $end
$var wire 1 /! \ts1s~0_combout\ $end
$var wire 1 0! \ts1s~q\ $end
$var wire 1 1! \Add1~81_sumout\ $end
$var wire 1 2! \cc60[0]~0_combout\ $end
$var wire 1 3! \Add1~82\ $end
$var wire 1 4! \Add1~77_sumout\ $end
$var wire 1 5! \Add1~78\ $end
$var wire 1 6! \Add1~5_sumout\ $end
$var wire 1 7! \Add1~6\ $end
$var wire 1 8! \Add1~1_sumout\ $end
$var wire 1 9! \Equal1~0_combout\ $end
$var wire 1 :! \Add1~2\ $end
$var wire 1 ;! \Add1~29_sumout\ $end
$var wire 1 <! \Add1~30\ $end
$var wire 1 =! \Add1~25_sumout\ $end
$var wire 1 >! \Add1~26\ $end
$var wire 1 ?! \Add1~21_sumout\ $end
$var wire 1 @! \Add1~22\ $end
$var wire 1 A! \Add1~17_sumout\ $end
$var wire 1 B! \Add1~18\ $end
$var wire 1 C! \Add1~13_sumout\ $end
$var wire 1 D! \Add1~14\ $end
$var wire 1 E! \Add1~9_sumout\ $end
$var wire 1 F! \Equal1~1_combout\ $end
$var wire 1 G! \Add1~10\ $end
$var wire 1 H! \Add1~53_sumout\ $end
$var wire 1 I! \Add1~54\ $end
$var wire 1 J! \Add1~49_sumout\ $end
$var wire 1 K! \Add1~50\ $end
$var wire 1 L! \Add1~45_sumout\ $end
$var wire 1 M! \Add1~46\ $end
$var wire 1 N! \Add1~41_sumout\ $end
$var wire 1 O! \Add1~42\ $end
$var wire 1 P! \Add1~37_sumout\ $end
$var wire 1 Q! \Add1~38\ $end
$var wire 1 R! \Add1~33_sumout\ $end
$var wire 1 S! \Equal1~2_combout\ $end
$var wire 1 T! \Add1~34\ $end
$var wire 1 U! \Add1~117_sumout\ $end
$var wire 1 V! \Add1~118\ $end
$var wire 1 W! \Add1~73_sumout\ $end
$var wire 1 X! \Add1~74\ $end
$var wire 1 Y! \Add1~69_sumout\ $end
$var wire 1 Z! \Add1~70\ $end
$var wire 1 [! \Add1~65_sumout\ $end
$var wire 1 \! \Add1~66\ $end
$var wire 1 ]! \Add1~61_sumout\ $end
$var wire 1 ^! \Add1~62\ $end
$var wire 1 _! \Add1~57_sumout\ $end
$var wire 1 `! \Equal1~3_combout\ $end
$var wire 1 a! \Add1~58\ $end
$var wire 1 b! \Add1~125_sumout\ $end
$var wire 1 c! \Add1~126\ $end
$var wire 1 d! \Add1~121_sumout\ $end
$var wire 1 e! \Add1~122\ $end
$var wire 1 f! \Add1~85_sumout\ $end
$var wire 1 g! \Add1~86\ $end
$var wire 1 h! \Add1~113_sumout\ $end
$var wire 1 i! \Add1~114\ $end
$var wire 1 j! \Add1~109_sumout\ $end
$var wire 1 k! \Add1~110\ $end
$var wire 1 l! \Add1~105_sumout\ $end
$var wire 1 m! \Add1~106\ $end
$var wire 1 n! \Add1~101_sumout\ $end
$var wire 1 o! \Add1~102\ $end
$var wire 1 p! \Add1~97_sumout\ $end
$var wire 1 q! \Add1~98\ $end
$var wire 1 r! \Add1~93_sumout\ $end
$var wire 1 s! \Add1~94\ $end
$var wire 1 t! \Add1~89_sumout\ $end
$var wire 1 u! \Equal1~4_combout\ $end
$var wire 1 v! \Equal1~5_combout\ $end
$var wire 1 w! \Equal1~6_combout\ $end
$var wire 1 x! \temp1m~0_combout\ $end
$var wire 1 y! \temp1m~q\ $end
$var wire 1 z! \cout~0_combout\ $end
$var wire 1 {! cc60 [31] $end
$var wire 1 |! cc60 [30] $end
$var wire 1 }! cc60 [29] $end
$var wire 1 ~! cc60 [28] $end
$var wire 1 !" cc60 [27] $end
$var wire 1 "" cc60 [26] $end
$var wire 1 #" cc60 [25] $end
$var wire 1 $" cc60 [24] $end
$var wire 1 %" cc60 [23] $end
$var wire 1 &" cc60 [22] $end
$var wire 1 '" cc60 [21] $end
$var wire 1 (" cc60 [20] $end
$var wire 1 )" cc60 [19] $end
$var wire 1 *" cc60 [18] $end
$var wire 1 +" cc60 [17] $end
$var wire 1 ," cc60 [16] $end
$var wire 1 -" cc60 [15] $end
$var wire 1 ." cc60 [14] $end
$var wire 1 /" cc60 [13] $end
$var wire 1 0" cc60 [12] $end
$var wire 1 1" cc60 [11] $end
$var wire 1 2" cc60 [10] $end
$var wire 1 3" cc60 [9] $end
$var wire 1 4" cc60 [8] $end
$var wire 1 5" cc60 [7] $end
$var wire 1 6" cc60 [6] $end
$var wire 1 7" cc60 [5] $end
$var wire 1 8" cc60 [4] $end
$var wire 1 9" cc60 [3] $end
$var wire 1 :" cc60 [2] $end
$var wire 1 ;" cc60 [1] $end
$var wire 1 <" cc60 [0] $end
$var wire 1 =" cc1 [31] $end
$var wire 1 >" cc1 [30] $end
$var wire 1 ?" cc1 [29] $end
$var wire 1 @" cc1 [28] $end
$var wire 1 A" cc1 [27] $end
$var wire 1 B" cc1 [26] $end
$var wire 1 C" cc1 [25] $end
$var wire 1 D" cc1 [24] $end
$var wire 1 E" cc1 [23] $end
$var wire 1 F" cc1 [22] $end
$var wire 1 G" cc1 [21] $end
$var wire 1 H" cc1 [20] $end
$var wire 1 I" cc1 [19] $end
$var wire 1 J" cc1 [18] $end
$var wire 1 K" cc1 [17] $end
$var wire 1 L" cc1 [16] $end
$var wire 1 M" cc1 [15] $end
$var wire 1 N" cc1 [14] $end
$var wire 1 O" cc1 [13] $end
$var wire 1 P" cc1 [12] $end
$var wire 1 Q" cc1 [11] $end
$var wire 1 R" cc1 [10] $end
$var wire 1 S" cc1 [9] $end
$var wire 1 T" cc1 [8] $end
$var wire 1 U" cc1 [7] $end
$var wire 1 V" cc1 [6] $end
$var wire 1 W" cc1 [5] $end
$var wire 1 X" cc1 [4] $end
$var wire 1 Y" cc1 [3] $end
$var wire 1 Z" cc1 [2] $end
$var wire 1 [" cc1 [1] $end
$var wire 1 \" cc1 [0] $end
$var wire 1 ]" ALT_INV_cc1 [31] $end
$var wire 1 ^" ALT_INV_cc1 [30] $end
$var wire 1 _" ALT_INV_cc1 [29] $end
$var wire 1 `" ALT_INV_cc1 [28] $end
$var wire 1 a" ALT_INV_cc1 [27] $end
$var wire 1 b" ALT_INV_cc1 [26] $end
$var wire 1 c" ALT_INV_cc1 [25] $end
$var wire 1 d" ALT_INV_cc1 [24] $end
$var wire 1 e" ALT_INV_cc1 [23] $end
$var wire 1 f" ALT_INV_cc1 [22] $end
$var wire 1 g" ALT_INV_cc1 [21] $end
$var wire 1 h" ALT_INV_cc1 [20] $end
$var wire 1 i" ALT_INV_cc1 [19] $end
$var wire 1 j" ALT_INV_cc1 [18] $end
$var wire 1 k" ALT_INV_cc1 [17] $end
$var wire 1 l" ALT_INV_cc1 [16] $end
$var wire 1 m" ALT_INV_cc1 [15] $end
$var wire 1 n" ALT_INV_cc1 [14] $end
$var wire 1 o" ALT_INV_cc1 [13] $end
$var wire 1 p" ALT_INV_cc1 [12] $end
$var wire 1 q" ALT_INV_cc1 [11] $end
$var wire 1 r" ALT_INV_cc1 [10] $end
$var wire 1 s" ALT_INV_cc1 [9] $end
$var wire 1 t" ALT_INV_cc1 [8] $end
$var wire 1 u" ALT_INV_cc1 [7] $end
$var wire 1 v" ALT_INV_cc1 [6] $end
$var wire 1 w" ALT_INV_cc1 [5] $end
$var wire 1 x" ALT_INV_cc1 [4] $end
$var wire 1 y" ALT_INV_cc1 [3] $end
$var wire 1 z" ALT_INV_cc1 [2] $end
$var wire 1 {" ALT_INV_cc1 [1] $end
$var wire 1 |" ALT_INV_cc1 [0] $end
$var wire 1 }" ALT_INV_cc60 [31] $end
$var wire 1 ~" ALT_INV_cc60 [30] $end
$var wire 1 !# ALT_INV_cc60 [29] $end
$var wire 1 "# ALT_INV_cc60 [28] $end
$var wire 1 ## ALT_INV_cc60 [27] $end
$var wire 1 $# ALT_INV_cc60 [26] $end
$var wire 1 %# ALT_INV_cc60 [25] $end
$var wire 1 &# ALT_INV_cc60 [24] $end
$var wire 1 '# ALT_INV_cc60 [23] $end
$var wire 1 (# ALT_INV_cc60 [22] $end
$var wire 1 )# ALT_INV_cc60 [21] $end
$var wire 1 *# ALT_INV_cc60 [20] $end
$var wire 1 +# ALT_INV_cc60 [19] $end
$var wire 1 ,# ALT_INV_cc60 [18] $end
$var wire 1 -# ALT_INV_cc60 [17] $end
$var wire 1 .# ALT_INV_cc60 [16] $end
$var wire 1 /# ALT_INV_cc60 [15] $end
$var wire 1 0# ALT_INV_cc60 [14] $end
$var wire 1 1# ALT_INV_cc60 [13] $end
$var wire 1 2# ALT_INV_cc60 [12] $end
$var wire 1 3# ALT_INV_cc60 [11] $end
$var wire 1 4# ALT_INV_cc60 [10] $end
$var wire 1 5# ALT_INV_cc60 [9] $end
$var wire 1 6# ALT_INV_cc60 [8] $end
$var wire 1 7# ALT_INV_cc60 [7] $end
$var wire 1 8# ALT_INV_cc60 [6] $end
$var wire 1 9# ALT_INV_cc60 [5] $end
$var wire 1 :# ALT_INV_cc60 [4] $end
$var wire 1 ;# ALT_INV_cc60 [3] $end
$var wire 1 <# ALT_INV_cc60 [2] $end
$var wire 1 =# ALT_INV_cc60 [1] $end
$var wire 1 ># ALT_INV_cc60 [0] $end
$var wire 1 ?# \ALT_INV_Equal0~5_combout\ $end
$var wire 1 @# \ALT_INV_Equal0~4_combout\ $end
$var wire 1 A# \ALT_INV_Equal0~3_combout\ $end
$var wire 1 B# \ALT_INV_Equal0~2_combout\ $end
$var wire 1 C# \ALT_INV_Equal0~1_combout\ $end
$var wire 1 D# \ALT_INV_Equal0~0_combout\ $end
$var wire 1 E# \ALT_INV_d1~combout\ $end
$var wire 1 F# \conter:1:CO1:Ci|ALT_INV_QI~q\ $end
$var wire 1 G# \conter:0:INITC:Ci|ALT_INV_Q~q\ $end
$var wire 1 H# \conter:0:INITC:Ci|ALT_INV_QI~q\ $end
$var wire 1 I# \ALT_INV_Equal1~6_combout\ $end
$var wire 1 J# \ALT_INV_Equal1~5_combout\ $end
$var wire 1 K# \ALT_INV_Equal1~4_combout\ $end
$var wire 1 L# \ALT_INV_Equal1~3_combout\ $end
$var wire 1 M# \ALT_INV_Equal1~2_combout\ $end
$var wire 1 N# \ALT_INV_Equal1~1_combout\ $end
$var wire 1 O# \ALT_INV_Equal1~0_combout\ $end
$var wire 1 P# \ALT_INV_temp1s~q\ $end
$var wire 1 Q# \conter:3:CO3:Ci|ALT_INV_Q~q\ $end
$var wire 1 R# \conter:1:CO1:Ci|ALT_INV_Q~q\ $end
$var wire 1 S# \ALT_INV_temp1m~q\ $end
$var wire 1 T# \ALT_INV_ts1s~q\ $end
$var wire 1 U# \ALT_INV_Add0~81_sumout\ $end
$var wire 1 V# \ALT_INV_Add1~81_sumout\ $end
$var wire 1 W# \ALT_INV_c1m~input_o\ $end
$var wire 1 X# \ALT_INV_c5s~input_o\ $end
$var wire 1 Y# \ALT_INV_c1s~input_o\ $end
$var wire 1 Z# \ALT_INV_d0~combout\ $end
$var wire 1 [# \conter:2:CO2:Ci|ALT_INV_QI~q\ $end
$var wire 1 \# \ALT_INV_Equal0~6_combout\ $end
$upscope $end
$upscope $end
$enddefinitions $end
#0
$dumpvars
0!
0"
1#
0$
0%
0&
1'
x(
1)
1*
1+
1,
1-
1.
0/
10
01
02
03
04
05
06
17
18
19
0:
0;
0<
0=
1>
0?
0@
0A
0B
0C
0D
0E
0F
0G
0H
0I
0J
1K
0L
0M
0N
0O
0P
0Q
0R
0S
0T
0U
0V
0W
1X
0Y
0Z
0[
0\
0]
0^
0_
0`
0a
0b
0c
0d
1e
0f
0g
0h
0i
0j
0k
0l
0m
0n
0o
0p
0q
0r
0s
0t
0u
0v
0w
0x
0y
0z
1{
0|
0}
0~
1!!
0"!
1#!
0$!
0%!
1&!
0'!
1(!
0)!
0*!
0+!
0,!
0-!
0.!
1/!
00!
01!
12!
13!
14!
05!
06!
07!
08!
19!
0:!
0;!
0<!
0=!
0>!
0?!
0@!
0A!
0B!
0C!
0D!
0E!
1F!
0G!
0H!
0I!
0J!
0K!
0L!
0M!
0N!
0O!
0P!
0Q!
0R!
1S!
0T!
0U!
0V!
0W!
0X!
0Y!
0Z!
0[!
0\!
0]!
0^!
0_!
0`!
0a!
0b!
0c!
0d!
0e!
0f!
0g!
0h!
0i!
0j!
0k!
0l!
0m!
0n!
0o!
0p!
0q!
0r!
0s!
0t!
0u!
1v!
0w!
0x!
0y!
0z!
0?#
1@#
0A#
0B#
0C#
0D#
1E#
1F#
1G#
1H#
1I#
0J#
1K#
1L#
0M#
0N#
0O#
1P#
1Q#
1R#
1S#
1T#
1U#
1V#
1W#
0X#
1Y#
1Z#
1[#
1\#
0{!
0|!
0}!
0~!
0!"
0""
0#"
0$"
0%"
0&"
0'"
0("
0)"
0*"
0+"
0,"
0-"
0."
0/"
00"
01"
02"
03"
04"
05"
06"
07"
08"
09"
0:"
0;"
0<"
0="
0>"
0?"
0@"
0A"
0B"
0C"
0D"
0E"
0F"
0G"
0H"
0I"
0J"
0K"
0L"
0M"
0N"
0O"
0P"
0Q"
0R"
0S"
0T"
0U"
0V"
0W"
0X"
0Y"
0Z"
0["
0\"
1]"
1^"
1_"
1`"
1a"
1b"
1c"
1d"
1e"
1f"
1g"
1h"
1i"
1j"
1k"
1l"
1m"
1n"
1o"
1p"
1q"
1r"
1s"
1t"
1u"
1v"
1w"
1x"
1y"
1z"
1{"
1|"
1}"
1~"
1!#
1"#
1##
1$#
1%#
1&#
1'#
1(#
1)#
1*#
1+#
1,#
1-#
1.#
1/#
10#
11#
12#
13#
14#
15#
16#
17#
18#
19#
1:#
1;#
1<#
1=#
1>#
$end
#500
1$
12
15
1\"
1["
0{"
0|"
16
08
09
1:
1z
0@#
0U#
1;
19
0:
07
1|
0;
0\#
1}
#1000
0$
02
05
#1500
1$
12
15
0\"
0["
1~
0P#
1{"
1|"
1$!
1'!
1)!
06
18
09
0z
0}
0F#
0H#
0[#
1@#
1U#
1%!
19
17
0|
0Z#
1\#
0&!
1}
#2000
0$
02
05
#2500
1$
12
15
1\"
1["
0{"
0|"
16
08
09
1:
1z
0@#
0U#
1;
19
0:
07
1|
0;
0\#
0}
#3000
0$
02
05
#3500
1$
12
15
0\"
0["
0~
1P#
1{"
1|"
06
18
09
0z
1}
1@#
1U#
19
17
0|
1\#
0}
#4000
0$
02
05
#4500
1$
12
15
1\"
1["
0{"
0|"
16
08
09
1:
1z
0@#
0U#
1;
19
0:
07
1|
0;
0\#
1}
#5000
0$
02
05
#5500
1$
12
15
0\"
0["
1~
0P#
1{"
1|"
1"!
0'!
06
18
09
0z
0}
1H#
0G#
1@#
1U#
0%!
1*!
19
17
0|
0E#
1Z#
1\#
1&!
0(!
1}
#6000
0$
02
05
#6500
1$
12
15
1\"
1["
0{"
0|"
16
08
09
1:
1z
0@#
0U#
1;
19
0:
07
1|
0;
0\#
0}
#7000
0$
02
05
#7500
1$
12
15
0\"
0["
0~
1P#
1{"
1|"
06
18
09
0z
1}
1@#
1U#
19
17
0|
1\#
0}
#8000
0$
02
05
#8500
1$
12
15
1\"
1["
0{"
0|"
16
08
09
1:
1z
0@#
0U#
1;
19
0:
07
1|
0;
0\#
1}
#9000
0$
02
05
#9500
1$
12
15
0\"
0["
1~
0P#
1{"
1|"
0"!
1'!
0)!
1+!
06
18
09
0z
0}
0R#
1F#
0H#
1G#
1@#
1U#
1%!
1z!
19
17
0|
0Z#
1\#
0&!
1}
14
13
1%
#10000
0$
02
05
#10500
1$
12
15
1\"
1["
0{"
0|"
16
08
09
1:
1z
0@#
0U#
1;
19
0:
07
1|
0;
0\#
0}
#11000
0$
02
05
#11500
1$
12
15
0\"
0["
0~
1P#
1{"
1|"
06
18
09
0z
1}
1@#
1U#
19
17
0|
1\#
0}
#12000
0$
02
05
#12500
1$
12
15
1\"
1["
0{"
0|"
16
08
09
1:
1z
0@#
0U#
1;
19
0:
07
1|
0;
0\#
1}
#13000
0$
02
05
#13500
1$
12
15
0\"
0["
1~
0P#
1{"
1|"
1"!
0'!
1,!
06
18
09
0z
0}
0Q#
1H#
0G#
1@#
1U#
0#!
0%!
0*!
19
17
0|
1E#
1Z#
1\#
1&!
1(!
1}
#14000
0$
02
05
#14500
1$
12
15
1\"
1["
0{"
0|"
16
08
09
1:
1z
0@#
0U#
1;
19
0:
07
1|
0;
0\#
0}
#15000
0$
02
05
#15500
1$
12
15
0\"
0["
0~
1P#
1{"
1|"
06
18
09
0z
1}
1@#
1U#
19
17
0|
1\#
0}
#16000
0$
02
05
#16500
1$
12
15
1\"
1["
0{"
0|"
16
08
09
1:
1z
0@#
0U#
1;
19
0:
07
1|
0;
0\#
1}
#17000
0$
02
05
#17500
1$
12
15
0\"
0["
1~
0P#
1{"
1|"
0"!
0$!
1'!
1)!
0+!
06
18
09
0z
0}
1R#
0F#
0H#
1[#
1G#
1@#
1U#
1#!
19
17
0|
1\#
1}
#18000
0$
02
05
#18500
1$
12
15
1\"
1["
0{"
0|"
16
08
09
1:
1z
0@#
0U#
1;
19
0:
07
1|
0;
0\#
0}
#19000
0$
02
05
#19500
1$
12
15
0\"
0["
0~
1P#
1{"
1|"
06
18
09
0z
1}
1@#
1U#
19
17
0|
1\#
0}
#20000
0$
02
05
#20500
1$
12
15
1\"
1["
0{"
0|"
16
08
09
1:
1z
0@#
0U#
1;
19
0:
07
1|
0;
0\#
1}
#21000
0$
02
05
#21500
1$
12
15
0\"
0["
1~
0P#
1{"
1|"
1$!
0,!
06
18
09
0z
0}
1Q#
0[#
1@#
1U#
1%!
0z!
19
17
0|
0Z#
1\#
0&!
1}
04
03
0%
#22000
0$
02
05
#22500
1$
12
15
1\"
1["
0{"
0|"
16
08
09
1:
1z
0@#
0U#
1;
19
0:
07
1|
0;
0\#
0}
#23000
0$
02
05
#23500
1$
12
15
0\"
0["
0~
1P#
1{"
1|"
06
18
09
0z
1}
1@#
1U#
19
17
0|
1\#
0}
#24000
0$
02
05
#24500
1$
12
15
1\"
1["
0{"
0|"
16
08
09
1:
1z
0@#
0U#
1;
19
0:
07
1|
0;
0\#
1}
#25000
0$
02
05
#25500
1$
12
15
0\"
0["
1~
0P#
1{"
1|"
1"!
0'!
06
18
09
0z
0}
1H#
0G#
1@#
1U#
0%!
1*!
19
17
0|
0E#
1Z#
1\#
1&!
0(!
1}
#26000
0$
02
05
#26500
1$
12
15
1\"
1["
0{"
0|"
16
08
09
1:
1z
0@#
0U#
1;
19
0:
07
1|
0;
0\#
0}
#27000
0$
02
05
#27500
1$
12
15
0\"
0["
0~
1P#
1{"
1|"
06
18
09
0z
1}
1@#
1U#
19
17
0|
1\#
0}
#28000
0$
02
05
#28500
1$
12
15
1\"
1["
0{"
0|"
16
08
09
1:
1z
0@#
0U#
1;
19
0:
07
1|
0;
0\#
1}
#29000
0$
02
05
#29500
1$
12
15
0\"
0["
1~
0P#
1{"
1|"
0"!
1'!
0)!
1+!
06
18
09
0z
0}
0R#
1F#
0H#
1G#
1@#
1U#
1%!
1z!
19
17
0|
0Z#
1\#
0&!
1}
14
13
1%
#30000
0$
02
05
#30500
1$
12
15
1\"
1["
0{"
0|"
16
08
09
1:
1z
0@#
0U#
1;
19
0:
07
1|
0;
0\#
0}
#31000
0$
02
05
#31500
1$
12
15
0\"
0["
0~
1P#
1{"
1|"
06
18
09
0z
1}
1@#
1U#
19
17
0|
1\#
0}
#32000
0$
02
05
#32500
1$
12
15
1\"
1["
0{"
0|"
16
08
09
1:
1z
0@#
0U#
1;
19
0:
07
1|
0;
0\#
1}
#33000
0$
02
05
#33500
1$
12
15
0\"
0["
1~
0P#
1{"
1|"
1"!
0'!
1,!
06
18
09
0z
0}
0Q#
1H#
0G#
1@#
1U#
0#!
0%!
0*!
19
17
0|
1E#
1Z#
1\#
1&!
1(!
1}
#34000
0$
02
05
#34500
1$
12
15
1\"
1["
0{"
0|"
16
08
09
1:
1z
0@#
0U#
1;
19
0:
07
1|
0;
0\#
0}
#35000
0$
02
05
#35500
1$
12
15
0\"
0["
0~
1P#
1{"
1|"
06
18
09
0z
1}
1@#
1U#
19
17
0|
1\#
0}
#36000
0$
02
05
#36500
1$
12
15
1\"
1["
0{"
0|"
16
08
09
1:
1z
0@#
0U#
1;
19
0:
07
1|
0;
0\#
1}
#37000
0$
02
05
#37500
1$
12
15
0\"
0["
1~
0P#
1{"
1|"
0"!
0$!
1'!
1)!
0+!
06
18
09
0z
0}
1R#
0F#
0H#
1[#
1G#
1@#
1U#
1#!
19
17
0|
1\#
1}
#38000
0$
02
05
#38500
1$
12
15
1\"
1["
0{"
0|"
16
08
09
1:
1z
0@#
0U#
1;
19
0:
07
1|
0;
0\#
0}
#39000
0$
02
05
#39500
1$
12
15
0\"
0["
0~
1P#
1{"
1|"
06
18
09
0z
1}
1@#
1U#
19
17
0|
1\#
0}
#40000
0$
02
05
#40500
1$
12
15
1\"
1["
0{"
0|"
16
08
09
1:
1z
0@#
0U#
1;
19
0:
07
1|
0;
0\#
1}
#41000
0$
02
05
#41500
1$
12
15
0\"
0["
1~
0P#
1{"
1|"
1$!
0,!
06
18
09
0z
0}
1Q#
0[#
1@#
1U#
1%!
0z!
19
17
0|
0Z#
1\#
0&!
1}
04
03
0%
#42000
0$
02
05
#42500
1$
12
15
1\"
1["
0{"
0|"
16
08
09
1:
1z
0@#
0U#
1;
19
0:
07
1|
0;
0\#
0}
#43000
0$
02
05
#43500
1$
12
15
0\"
0["
0~
1P#
1{"
1|"
06
18
09
0z
1}
1@#
1U#
19
17
0|
1\#
0}
#44000
0$
02
05
#44500
1$
12
15
1\"
1["
0{"
0|"
16
08
09
1:
1z
0@#
0U#
1;
19
0:
07
1|
0;
0\#
1}
#45000
0$
02
05
#45500
1$
12
15
0\"
0["
1~
0P#
1{"
1|"
1"!
0'!
06
18
09
0z
0}
1H#
0G#
1@#
1U#
0%!
1*!
19
17
0|
0E#
1Z#
1\#
1&!
0(!
1}
#46000
0$
02
05
#46500
1$
12
15
1\"
1["
0{"
0|"
16
08
09
1:
1z
0@#
0U#
1;
19
0:
07
1|
0;
0\#
0}
#47000
0$
02
05
#47500
1$
12
15
0\"
0["
0~
1P#
1{"
1|"
06
18
09
0z
1}
1@#
1U#
19
17
0|
1\#
0}
#48000
0$
02
05
#48500
1$
12
15
1\"
1["
0{"
0|"
16
08
09
1:
1z
0@#
0U#
1;
19
0:
07
1|
0;
0\#
1}
#49000
0$
02
05
#49500
1$
12
15
0\"
0["
1~
0P#
1{"
1|"
0"!
1'!
0)!
1+!
06
18
09
0z
0}
0R#
1F#
0H#
1G#
1@#
1U#
1%!
1z!
19
17
0|
0Z#
1\#
0&!
1}
14
13
1%
#50000
0$
02
05
#50500
1$
12
15
1\"
1["
0{"
0|"
16
08
09
1:
1z
0@#
0U#
1;
19
0:
07
1|
0;
0\#
0}
#51000
0$
02
05
#51500
1$
12
15
0\"
0["
0~
1P#
1{"
1|"
06
18
09
0z
1}
1@#
1U#
19
17
0|
1\#
0}
#52000
0$
02
05
#52500
1$
12
15
1\"
1["
0{"
0|"
16
08
09
1:
1z
0@#
0U#
1;
19
0:
07
1|
0;
0\#
1}
#53000
0$
02
05
#53500
1$
12
15
0\"
0["
1~
0P#
1{"
1|"
1"!
0'!
1,!
06
18
09
0z
0}
0Q#
1H#
0G#
1@#
1U#
0#!
0%!
0*!
19
17
0|
1E#
1Z#
1\#
1&!
1(!
1}
#54000
0$
02
05
#54500
1$
12
15
1\"
1["
0{"
0|"
16
08
09
1:
1z
0@#
0U#
1;
19
0:
07
1|
0;
0\#
0}
#55000
0$
02
05
#55500
1$
12
15
0\"
0["
0~
1P#
1{"
1|"
06
18
09
0z
1}
1@#
1U#
19
17
0|
1\#
0}
#56000
0$
02
05
#56500
1$
12
15
1\"
1["
0{"
0|"
16
08
09
1:
1z
0@#
0U#
1;
19
0:
07
1|
0;
0\#
1}
#57000
0$
02
05
#57500
1$
12
15
0\"
0["
1~
0P#
1{"
1|"
0"!
0$!
1'!
1)!
0+!
06
18
09
0z
0}
1R#
0F#
0H#
1[#
1G#
1@#
1U#
1#!
19
17
0|
1\#
1}
#58000
0$
02
05
#58500
1$
12
15
1\"
1["
0{"
0|"
16
08
09
1:
1z
0@#
0U#
1;
19
0:
07
1|
0;
0\#
0}
#59000
0$
02
05
#59500
1$
12
15
0\"
0["
0~
1P#
1{"
1|"
06
18
09
0z
1}
1@#
1U#
19
17
0|
1\#
0}
#60000
0$
02
05
#60500
1$
12
15
1\"
1["
0{"
0|"
16
08
09
1:
1z
0@#
0U#
1;
19
0:
07
1|
0;
0\#
1}
#61000
0$
02
05
#61500
1$
12
15
0\"
0["
1~
0P#
1{"
1|"
1$!
0,!
06
18
09
0z
0}
1Q#
0[#
1@#
1U#
1%!
0z!
19
17
0|
0Z#
1\#
0&!
1}
04
03
0%
#62000
0$
02
05
