Labdig/Project/FSMEl/simulation/qsim/FSMEl.msim.vcd
$comment
	File created using the following command:
		vcd file FSMEl.msim.vcd -direction
$end
$date
	Sun May 24 21:22:46 2020
$end
$version
	ModelSim Version 10.5b
$end
$timescale
	1ps
$end

$scope module fsmel_vhd_vec_tst $end
$var wire 1 ! call $end
$var wire 1 " clock $end
$var wire 1 # destiny [2] $end
$var wire 1 $ destiny [1] $end
$var wire 1 % destiny [0] $end
$var wire 1 & do $end
$var wire 1 ' position [2] $end
$var wire 1 ( position [1] $end
$var wire 1 ) position [0] $end
$var wire 1 * reset $end
$var wire 1 + upDown [1] $end
$var wire 1 , upDown [0] $end

$scope module i1 $end
$var wire 1 - gnd $end
$var wire 1 . vcc $end
$var wire 1 / unknown $end
$var wire 1 0 devoe $end
$var wire 1 1 devclrn $end
$var wire 1 2 devpor $end
$var wire 1 3 ww_devoe $end
$var wire 1 4 ww_devclrn $end
$var wire 1 5 ww_devpor $end
$var wire 1 6 ww_clock $end
$var wire 1 7 ww_reset $end
$var wire 1 8 ww_destiny [2] $end
$var wire 1 9 ww_destiny [1] $end
$var wire 1 : ww_destiny [0] $end
$var wire 1 ; ww_position [2] $end
$var wire 1 < ww_position [1] $end
$var wire 1 = ww_position [0] $end
$var wire 1 > ww_call $end
$var wire 1 ? ww_do $end
$var wire 1 @ ww_upDown [1] $end
$var wire 1 A ww_upDown [0] $end
$var wire 1 B \do~output_o\ $end
$var wire 1 C \upDown[0]~output_o\ $end
$var wire 1 D \upDown[1]~output_o\ $end
$var wire 1 E \clock~input_o\ $end
$var wire 1 F \destiny[2]~input_o\ $end
$var wire 1 G \position[2]~input_o\ $end
$var wire 1 H \destiny[1]~input_o\ $end
$var wire 1 I \position[1]~input_o\ $end
$var wire 1 J \destiny[0]~input_o\ $end
$var wire 1 K \position[0]~input_o\ $end
$var wire 1 L \Add0~0_combout\ $end
$var wire 1 M \call~input_o\ $end
$var wire 1 N \LessThan1~0_combout\ $end
$var wire 1 O \Efut.Door~0_combout\ $end
$var wire 1 P \reset~input_o\ $end
$var wire 1 Q \Enow.Door~q\ $end
$var wire 1 R \Efut.Init~0_combout\ $end
$var wire 1 S \Enow.Gup~q\ $end
$var wire 1 T \Efut.Init~1_combout\ $end
$var wire 1 U \Enow.Init~q\ $end
$var wire 1 V \Efut.Gd~0_combout\ $end
$var wire 1 W \Enow.Gd~q\ $end
$var wire 1 X \ALT_INV_reset~input_o\ $end
$var wire 1 Y \ALT_INV_call~input_o\ $end
$var wire 1 Z \ALT_INV_position[0]~input_o\ $end
$var wire 1 [ \ALT_INV_destiny[0]~input_o\ $end
$var wire 1 \ \ALT_INV_position[1]~input_o\ $end
$var wire 1 ] \ALT_INV_destiny[1]~input_o\ $end
$var wire 1 ^ \ALT_INV_position[2]~input_o\ $end
$var wire 1 _ \ALT_INV_destiny[2]~input_o\ $end
$var wire 1 ` \ALT_INV_LessThan1~0_combout\ $end
$var wire 1 a \ALT_INV_Enow.Init~q\ $end
$var wire 1 b \ALT_INV_Add0~0_combout\ $end
$var wire 1 c \ALT_INV_Enow.Gup~q\ $end
$var wire 1 d \ALT_INV_Enow.Gd~q\ $end
$var wire 1 e \ALT_INV_Enow.Door~q\ $end
$upscope $end
$upscope $end
$enddefinitions $end
#0
$dumpvars
1!
0"
0&
0*
0-
1.
x/
10
11
12
13
14
15
06
07
1>
0?
0B
0C
0D
0E
0F
0G
0H
0I
0J
0K
1L
1M
1N
1O
0P
0Q
0R
0S
1T
0U
0V
0W
1X
0Y
1Z
1[
1\
1]
1^
1_
0`
1a
0b
1c
1d
1e
0#
0$
0%
0'
0(
0)
08
09
0:
0;
0<
0=
0@
0A
0+
0,
$end
#5000
1"
16
1E
1Q
1U
0a
0e
1B
1?
1&
#10000
0"
1$
06
19
1H
0E
0]
0N
1`
0O
1R
#15000
1"
16
1E
0Q
1S
0c
1e
1D
0B
1@
0?
1+
0&
#20000
0"
1)
06
1=
1K
0E
0Z
#25000
1"
16
1E
#30000
0"
0!
06
0>
0M
0E
1Y
#35000
1"
16
1E
#40000
0"
0)
1(
06
0=
1<
1I
0K
0E
1Z
0\
1N
0`
0R
0T
#45000
1"
16
1E
0S
0U
1a
1c
0D
0@
0+
#50000
0"
1!
1#
06
1>
18
1F
1M
0E
0Y
0_
0N
1O
1T
1`
0O
1R
#55000
1"
16
1E
1S
1U
0a
0c
1D
1@
1+
#60000
0"
06
0E
#65000
1"
16
1E
#70000
0"
06
0E
#75000
1"
16
1E
#80000
0"
06
0E
#85000
1"
16
1E
#90000
0"
06
0E
#95000
1"
16
1E
#100000
0"
06
0E
#105000
1"
16
1E
#110000
0"
0#
0(
0$
06
09
08
0<
0I
0F
0H
0E
1]
1_
1\
1N
0`
1O
0R
#115000
1"
16
1E
1Q
0S
1c
0e
0D
1B
0@
1?
0+
1&
#120000
0"
06
0E
#125000
1"
16
1E
#130000
0"
06
0E
#135000
1"
16
1E
#140000
0"
06
0E
#145000
1"
16
1E
#150000
0"
06
0E
#155000
1"
16
1E
#160000
0"
0!
06
0>
0M
0E
1Y
0O
0T
#165000
1"
16
1E
0Q
0U
1a
1e
0B
0?
0&
#170000
0"
06
0E
#175000
1"
16
1E
#180000
0"
06
0E
#185000
1"
16
1E
#190000
0"
1!
06
1>
1M
0E
0Y
1O
1T
#195000
1"
16
1E
1Q
1U
0a
0e
1B
1?
1&
#200000
0"
06
0E
#205000
1"
16
1E
#210000
0"
06
0E
#215000
1"
16
1E
#220000
0"
06
0E
#225000
1"
16
1E
#230000
0"
0!
06
0>
0M
0E
1Y
0O
0T
#235000
1"
16
1E
0Q
0U
1a
1e
0B
0?
0&
#240000
0"
06
0E
#245000
1"
16
1E
#250000
0"
06
0E
#255000
1"
16
1E
#260000
0"
06
0E
#265000
1"
16
1E
#270000
0"
06
0E
#275000
1"
16
1E
#280000
0"
06
0E
#285000
1"
16
1E
#290000
0"
06
0E
#295000
1"
16
1E
#300000
0"
06
0E
#305000
1"
16
1E
#310000
0"
06
0E
#315000
1"
16
1E
#320000
0"
06
0E
#325000
1"
16
1E
#330000
0"
06
0E
#335000
1"
16
1E
#340000
0"
06
0E
#345000
1"
16
1E
#350000
0"
06
0E
#355000
1"
16
1E
#360000
0"
06
0E
#365000
1"
16
1E
#370000
0"
06
0E
#375000
1"
16
1E
#380000
0"
06
0E
#385000
1"
16
1E
#390000
0"
06
0E
#395000
1"
16
1E
#400000
0"
06
0E
#405000
1"
16
1E
#410000
0"
06
0E
#415000
1"
16
1E
#420000
0"
06
0E
#425000
1"
16
1E
#430000
0"
06
0E
#435000
1"
16
1E
#440000
0"
06
0E
#445000
1"
16
1E
#450000
0"
06
0E
#455000
1"
16
1E
#460000
0"
06
0E
#465000
1"
16
1E
#470000
0"
06
0E
#475000
1"
16
1E
#480000
0"
06
0E
#485000
1"
16
1E
#490000
0"
06
0E
#495000
1"
16
1E
#500000
0"
06
0E
#505000
1"
16
1E
#510000
0"
06
0E
#515000
1"
16
1E
#520000
0"
06
0E
#525000
1"
16
1E
#530000
0"
06
0E
#535000
1"
16
1E
#540000
0"
06
0E
#545000
1"
16
1E
#550000
0"
06
0E
#555000
1"
16
1E
#560000
0"
06
0E
#565000
1"
16
1E
#570000
0"
06
0E
#575000
1"
16
1E
#580000
0"
06
0E
#585000
1"
16
1E
#590000
0"
06
0E
#595000
1"
16
1E
#600000
0"
06
0E
#605000
1"
16
1E
#610000
0"
06
0E
#615000
1"
16
1E
#620000
0"
06
0E
#625000
1"
16
1E
#630000
0"
06
0E
#635000
1"
16
1E
#640000
0"
06
0E
#645000
1"
16
1E
#650000
0"
06
0E
#655000
1"
16
1E
#660000
0"
06
0E
#665000
1"
16
1E
#670000
0"
06
0E
#675000
1"
16
1E
#680000
0"
06
0E
#685000
1"
16
1E
#690000
0"
06
0E
#695000
1"
16
1E
#700000
0"
06
0E
#705000
1"
16
1E
#710000
0"
06
0E
#715000
1"
16
1E
#720000
0"
06
0E
#725000
1"
16
1E
#730000
0"
06
0E
#735000
1"
16
1E
#740000
0"
06
0E
#745000
1"
16
1E
#750000
0"
06
0E
#755000
1"
16
1E
#760000
0"
06
0E
#765000
1"
16
1E
#770000
0"
06
0E
#775000
1"
16
1E
#780000
0"
06
0E
#785000
1"
16
1E
#790000
0"
06
0E
#795000
1"
16
1E
#800000
0"
06
0E
#805000
1"
16
1E
#810000
0"
06
0E
#815000
1"
16
1E
#820000
0"
06
0E
#825000
1"
16
1E
#830000
0"
06
0E
#835000
1"
16
1E
#840000
0"
06
0E
#845000
1"
16
1E
#850000
0"
06
0E
#855000
1"
16
1E
#860000
0"
06
0E
#865000
1"
16
1E
#870000
0"
06
0E
#875000
1"
16
1E
#880000
0"
06
0E
#885000
1"
16
1E
#890000
0"
06
0E
#895000
1"
16
1E
#900000
0"
06
0E
#905000
1"
16
1E
#910000
0"
06
0E
#915000
1"
16
1E
#920000
0"
06
0E
#925000
1"
16
1E
#930000
0"
06
0E
#935000
1"
16
1E
#940000
0"
06
0E
#945000
1"
16
1E
#950000
0"
06
0E
#955000
1"
16
1E
#960000
0"
06
0E
#965000
1"
16
1E
#970000
0"
06
0E
#975000
1"
16
1E
#980000
0"
06
0E
#985000
1"
16
1E
#990000
0"
06
0E
#995000
1"
16
1E
