Labdig/Exp61/simulation/qsim/MaquinaES.msim.vcd
$comment
	File created using the following command:
		vcd file MaquinaES.msim.vcd -direction
$end
$date
	Mon Apr 27 14:05:23 2020
$end
$version
	ModelSim Version 10.5b
$end
$timescale
	1ps
$end

$scope module maquinaes_vhd_vec_tst $end
$var wire 1 ! carrega2 $end
$var wire 1 " clock $end
$var wire 1 # condicao1 $end
$var wire 1 $ conta1 $end
$var wire 1 % conta2 $end
$var wire 1 & db_estado [2] $end
$var wire 1 ' db_estado [1] $end
$var wire 1 ( db_estado [0] $end
$var wire 1 ) fim $end
$var wire 1 * iniciar $end
$var wire 1 + pronto $end
$var wire 1 , reset $end
$var wire 1 - zera1 $end

$scope module i1 $end
$var wire 1 . gnd $end
$var wire 1 / vcc $end
$var wire 1 0 unknown $end
$var wire 1 1 devoe $end
$var wire 1 2 devclrn $end
$var wire 1 3 devpor $end
$var wire 1 4 ww_devoe $end
$var wire 1 5 ww_devclrn $end
$var wire 1 6 ww_devpor $end
$var wire 1 7 ww_clock $end
$var wire 1 8 ww_reset $end
$var wire 1 9 ww_iniciar $end
$var wire 1 : ww_condicao1 $end
$var wire 1 ; ww_fim $end
$var wire 1 < ww_pronto $end
$var wire 1 = ww_zera1 $end
$var wire 1 > ww_conta1 $end
$var wire 1 ? ww_conta2 $end
$var wire 1 @ ww_carrega2 $end
$var wire 1 A ww_db_estado [2] $end
$var wire 1 B ww_db_estado [1] $end
$var wire 1 C ww_db_estado [0] $end
$var wire 1 D \pronto~output_o\ $end
$var wire 1 E \zera1~output_o\ $end
$var wire 1 F \conta1~output_o\ $end
$var wire 1 G \conta2~output_o\ $end
$var wire 1 H \carrega2~output_o\ $end
$var wire 1 I \db_estado[0]~output_o\ $end
$var wire 1 J \db_estado[1]~output_o\ $end
$var wire 1 K \db_estado[2]~output_o\ $end
$var wire 1 L \clock~input_o\ $end
$var wire 1 M \iniciar~input_o\ $end
$var wire 1 N \Selector0~0_combout\ $end
$var wire 1 O \reset~input_o\ $end
$var wire 1 P \Eatual.inicial~q\ $end
$var wire 1 Q \Eprox.zeraconts~0_combout\ $end
$var wire 1 R \Eatual.zeraconts~q\ $end
$var wire 1 S \fim~input_o\ $end
$var wire 1 T \Selector1~0_combout\ $end
$var wire 1 U \Eatual.testacondicao1~q\ $end
$var wire 1 V \condicao1~input_o\ $end
$var wire 1 W \Eprox.contacont2~0_combout\ $end
$var wire 1 X \Eatual.contacont2~q\ $end
$var wire 1 Y \Selector2~0_combout\ $end
$var wire 1 Z \Eatual.contacont1~q\ $end
$var wire 1 [ \Eatual.testafim~q\ $end
$var wire 1 \ \Eprox.final~0_combout\ $end
$var wire 1 ] \Eatual.final~q\ $end
$var wire 1 ^ \WideOr5~0_combout\ $end
$var wire 1 _ \WideOr4~0_combout\ $end
$var wire 1 ` \WideOr3~0_combout\ $end
$var wire 1 a \ALT_INV_Eatual.inicial~q\ $end
$var wire 1 b \ALT_INV_Eatual.testacondicao1~q\ $end
$var wire 1 c \ALT_INV_Eatual.testafim~q\ $end
$var wire 1 d \ALT_INV_Eatual.contacont2~q\ $end
$var wire 1 e \ALT_INV_Eatual.contacont1~q\ $end
$var wire 1 f \ALT_INV_Eatual.zeraconts~q\ $end
$var wire 1 g \ALT_INV_Eatual.final~q\ $end
$var wire 1 h \ALT_INV_fim~input_o\ $end
$var wire 1 i \ALT_INV_reset~input_o\ $end
$var wire 1 j \ALT_INV_condicao1~input_o\ $end
$var wire 1 k \ALT_INV_iniciar~input_o\ $end
$upscope $end
$upscope $end
$enddefinitions $end
#0
$dumpvars
0!
0"
0#
0$
0%
0)
1*
0+
0,
0-
0.
1/
x0
11
12
13
14
15
16
07
08
19
0:
0;
0<
0=
0>
0?
0@
0D
0E
0F
0G
0H
0I
0J
0K
0L
1M
1N
0O
0P
1Q
0R
0S
0T
0U
0V
0W
0X
0Y
0Z
0[
0\
0]
0^
0_
0`
1a
1b
1c
1d
1e
1f
1g
1h
1i
1j
0k
0&
0'
0(
0A
0B
0C
$end
#5000
1"
17
1L
1P
1R
0f
0a
0Q
1T
1^
1E
1H
1=
1@
1-
1!
1I
1C
1(
#10000
0"
0*
07
09
0M
0L
1k
#15000
1"
17
1L
0R
1U
0b
1f
0T
0^
1Y
1_
0E
0H
0=
0@
0-
0!
1J
0I
1B
0C
0(
1'
#20000
0"
1#
07
1:
1V
0L
0j
1W
0Y
#25000
1"
17
1L
0U
1X
0d
1b
0W
1Y
1^
1G
1?
1%
1I
1C
1(
#30000
0"
0#
07
0:
0V
0L
1j
#35000
1"
17
1L
0X
1Z
0e
1d
0Y
0^
0_
1`
1F
0G
1>
0?
1$
0%
1K
0J
0I
1A
0B
0C
0(
0'
1&
#40000
0"
07
0L
#45000
1"
17
1L
0Z
1[
0c
1e
1T
1^
0F
0>
0$
1I
1C
1(
#50000
0"
07
0L
#55000
1"
17
1L
1U
0[
1c
0b
1Y
1_
0T
0^
0`
0K
0I
1J
0A
0C
1B
0(
1'
0&
#60000
0"
07
0L
#65000
1"
17
1L
0U
1Z
0e
1b
0Y
0_
1`
1F
1>
1$
1K
0J
1A
0B
0'
1&
#70000
0"
07
0L
#75000
1"
17
1L
0Z
1[
0c
1e
1T
1^
0F
0>
0$
1I
1C
1(
#80000
0"
1)
07
1;
1S
0L
0h
0T
1\
#85000
1"
17
1L
0[
1]
0g
1c
0\
0^
0N
1_
1D
1<
1+
1J
0I
1B
0C
0(
1'
#90000
0"
07
0L
#95000
1"
17
1L
0P
0]
1g
1a
0_
0`
0D
0<
0+
0K
0J
0A
0B
0'
0&
#100000
0"
07
0L
#105000
1"
17
1L
#110000
0"
07
0L
#115000
1"
17
1L
#120000
0"
07
0L
#125000
1"
17
1L
#130000
0"
07
0L
#135000
1"
17
1L
#140000
0"
07
0L
#145000
1"
17
1L
#150000
0"
0)
07
0;
0S
0L
1h
#155000
1"
17
1L
#160000
0"
1*
07
19
1M
0L
0k
1N
1Q
#165000
1"
17
1L
1P
1R
0f
0a
0Q
1T
1^
1E
1H
1=
1@
1-
1!
1I
1C
1(
#170000
0"
0*
07
09
0M
0L
1k
#175000
1"
17
1L
0R
1U
0b
1f
0T
0^
1Y
1_
0E
0H
0=
0@
0-
0!
1J
0I
1B
0C
0(
1'
#180000
0"
07
0L
#185000
1"
17
1L
0U
1Z
0e
1b
0Y
0_
1`
1F
1>
1$
1K
0J
1A
0B
0'
1&
#190000
0"
07
0L
#195000
1"
17
1L
0Z
1[
0c
1e
1T
1^
0F
0>
0$
1I
1C
1(
#200000
0"
07
0L
#205000
1"
17
1L
1U
0[
1c
0b
1Y
1_
0T
0^
0`
0K
0I
1J
0A
0C
1B
0(
1'
0&
#210000
0"
1#
07
1:
1V
0L
0j
1W
0Y
#215000
1"
17
1L
0U
1X
0d
1b
0W
1Y
1^
1G
1?
1%
1I
1C
1(
#220000
0"
0#
07
0:
0V
0L
1j
#225000
1"
17
1L
0X
1Z
0e
1d
0Y
0^
0_
1`
1F
0G
1>
0?
1$
0%
1K
0J
0I
1A
0B
0C
0(
0'
1&
#230000
0"
07
0L
#235000
1"
17
1L
0Z
1[
0c
1e
1T
1^
0F
0>
0$
1I
1C
1(
#240000
0"
07
0L
#245000
1"
17
1L
1U
0[
1c
0b
1Y
1_
0T
0^
0`
0K
0I
1J
0A
0C
1B
0(
1'
0&
#250000
0"
1,
07
18
1O
0L
0i
0P
0U
1b
1a
0N
0Y
0_
0J
0B
0'
#255000
1"
17
1L
#260000
0"
0,
07
08
0O
0L
1i
#265000
1"
17
1L
#270000
0"
07
0L
#275000
1"
17
1L
#280000
0"
07
0L
#285000
1"
17
1L
#290000
0"
07
0L
#295000
1"
17
1L
#300000
0"
07
0L
#305000
1"
17
1L
#310000
0"
07
0L
#315000
1"
17
1L
#320000
0"
07
0L
#325000
1"
17
1L
#330000
0"
07
0L
#335000
1"
17
1L
#340000
0"
07
0L
#345000
1"
17
1L
#350000
0"
07
0L
#355000
1"
17
1L
#360000
0"
07
0L
#365000
1"
17
1L
#370000
0"
07
0L
#375000
1"
17
1L
#380000
0"
07
0L
#385000
1"
17
1L
#390000
0"
07
0L
#395000
1"
17
1L
#400000
0"
07
0L
#405000
1"
17
1L
#410000
0"
07
0L
#415000
1"
17
1L
#420000
0"
07
0L
#425000
1"
17
1L
#430000
0"
07
0L
#435000
1"
17
1L
#440000
0"
07
0L
#445000
1"
17
1L
#450000
0"
07
0L
#455000
1"
17
1L
#460000
0"
07
0L
#465000
1"
17
1L
#470000
0"
07
0L
#475000
1"
17
1L
#480000
0"
07
0L
#485000
1"
17
1L
#490000
0"
07
0L
#495000
1"
17
1L
#500000
0"
07
0L
#505000
1"
17
1L
#510000
0"
07
0L
#515000
1"
17
1L
#520000
0"
07
0L
#525000
1"
17
1L
#530000
0"
07
0L
#535000
1"
17
1L
#540000
0"
07
0L
#545000
1"
17
1L
#550000
0"
07
0L
#555000
1"
17
1L
#560000
0"
07
0L
#565000
1"
17
1L
#570000
0"
07
0L
#575000
1"
17
1L
#580000
0"
07
0L
#585000
1"
17
1L
#590000
0"
07
0L
#595000
1"
17
1L
#600000
0"
07
0L
#605000
1"
17
1L
#610000
0"
07
0L
#615000
1"
17
1L
#620000
0"
07
0L
#625000
1"
17
1L
#630000
0"
07
0L
#635000
1"
17
1L
#640000
0"
07
0L
#645000
1"
17
1L
#650000
0"
07
0L
#655000
1"
17
1L
#660000
0"
07
0L
#665000
1"
17
1L
#670000
0"
07
0L
#675000
1"
17
1L
#680000
0"
07
0L
#685000
1"
17
1L
#690000
0"
07
0L
#695000
1"
17
1L
#700000
0"
07
0L
#705000
1"
17
1L
#710000
0"
07
0L
#715000
1"
17
1L
#720000
0"
07
0L
#725000
1"
17
1L
#730000
0"
07
0L
#735000
1"
17
1L
#740000
0"
07
0L
#745000
1"
17
1L
#750000
0"
07
0L
#755000
1"
17
1L
#760000
0"
07
0L
#765000
1"
17
1L
#770000
0"
07
0L
#775000
1"
17
1L
#780000
0"
07
0L
#785000
1"
17
1L
#790000
0"
07
0L
#795000
1"
17
1L
#800000
0"
07
0L
#805000
1"
17
1L
#810000
0"
07
0L
#815000
1"
17
1L
#820000
0"
07
0L
#825000
1"
17
1L
#830000
0"
07
0L
#835000
1"
17
1L
#840000
0"
07
0L
#845000
1"
17
1L
#850000
0"
07
0L
#855000
1"
17
1L
#860000
0"
07
0L
#865000
1"
17
1L
#870000
0"
07
0L
#875000
1"
17
1L
#880000
0"
07
0L
#885000
1"
17
1L
#890000
0"
07
0L
#895000
1"
17
1L
#900000
0"
07
0L
#905000
1"
17
1L
#910000
0"
07
0L
#915000
1"
17
1L
#920000
0"
07
0L
#925000
1"
17
1L
#930000
0"
07
0L
#935000
1"
17
1L
#940000
0"
07
0L
#945000
1"
17
1L
#950000
0"
07
0L
#955000
1"
17
1L
#960000
0"
07
0L
#965000
1"
17
1L
#970000
0"
07
0L
#975000
1"
17
1L
#980000
0"
07
0L
#985000
1"
17
1L
#990000
0"
07
0L
#995000
1"
17
1L
