Labdig/Exp8Ccompleto/simulation/qsim/Exp8.msim.vcd
$comment
	File created using the following command:
		vcd file Exp8.msim.vcd -direction
$end
$date
	Tue Jun 23 14:36:59 2020
$end
$version
	ModelSim Version 10.5b
$end
$timescale
	1ps
$end

$scope module exp8_vhd_vec_tst $end
$var wire 1 ! clock $end
$var wire 1 " Noturno $end
$var wire 1 # PdA $end
$var wire 1 $ PdB $end
$var wire 1 % Q0 $end
$var wire 1 & Q1 $end
$var wire 1 ' Q2 $end
$var wire 1 ( reset $end
$var wire 1 ) VeA $end
$var wire 1 * VeB $end

$scope module i1 $end
$var wire 1 + gnd $end
$var wire 1 , vcc $end
$var wire 1 - unknown $end
$var wire 1 . devoe $end
$var wire 1 / devclrn $end
$var wire 1 0 devpor $end
$var wire 1 1 ww_devoe $end
$var wire 1 2 ww_devclrn $end
$var wire 1 3 ww_devpor $end
$var wire 1 4 ww_clock $end
$var wire 1 5 ww_Noturno $end
$var wire 1 6 ww_VeA $end
$var wire 1 7 ww_VeB $end
$var wire 1 8 ww_PdA $end
$var wire 1 9 ww_PdB $end
$var wire 1 : ww_reset $end
$var wire 1 ; ww_Q0 $end
$var wire 1 < ww_Q1 $end
$var wire 1 = ww_Q2 $end
$var wire 1 > \Q0~output_o\ $end
$var wire 1 ? \Q1~output_o\ $end
$var wire 1 @ \Q2~output_o\ $end
$var wire 1 A \clock~input_o\ $end
$var wire 1 B \CT|Add0~81_sumout\ $end
$var wire 1 C \CT|cc1[0]~0_combout\ $end
$var wire 1 D \CT|Add0~82\ $end
$var wire 1 E \CT|Add0~113_sumout\ $end
$var wire 1 F \CT|Add0~114\ $end
$var wire 1 G \CT|Add0~117_sumout\ $end
$var wire 1 H \CT|Add0~118\ $end
$var wire 1 I \CT|Add0~121_sumout\ $end
$var wire 1 J \CT|Add0~122\ $end
$var wire 1 K \CT|Add0~125_sumout\ $end
$var wire 1 L \CT|Add0~126\ $end
$var wire 1 M \CT|Add0~57_sumout\ $end
$var wire 1 N \CT|Add0~58\ $end
$var wire 1 O \CT|Add0~61_sumout\ $end
$var wire 1 P \CT|Add0~62\ $end
$var wire 1 Q \CT|Add0~65_sumout\ $end
$var wire 1 R \CT|Add0~66\ $end
$var wire 1 S \CT|Add0~69_sumout\ $end
$var wire 1 T \CT|Add0~70\ $end
$var wire 1 U \CT|Add0~73_sumout\ $end
$var wire 1 V \CT|Add0~74\ $end
$var wire 1 W \CT|Add0~77_sumout\ $end
$var wire 1 X \CT|Add0~78\ $end
$var wire 1 Y \CT|Add0~33_sumout\ $end
$var wire 1 Z \CT|Add0~34\ $end
$var wire 1 [ \CT|Add0~37_sumout\ $end
$var wire 1 \ \CT|Add0~38\ $end
$var wire 1 ] \CT|Add0~85_sumout\ $end
$var wire 1 ^ \CT|Add0~86\ $end
$var wire 1 _ \CT|Add0~45_sumout\ $end
$var wire 1 ` \CT|Add0~46\ $end
$var wire 1 a \CT|Add0~49_sumout\ $end
$var wire 1 b \CT|Add0~50\ $end
$var wire 1 c \CT|Add0~53_sumout\ $end
$var wire 1 d \CT|Add0~54\ $end
$var wire 1 e \CT|Add0~9_sumout\ $end
$var wire 1 f \CT|Add0~10\ $end
$var wire 1 g \CT|Add0~13_sumout\ $end
$var wire 1 h \CT|Add0~14\ $end
$var wire 1 i \CT|Add0~17_sumout\ $end
$var wire 1 j \CT|Add0~18\ $end
$var wire 1 k \CT|Add0~21_sumout\ $end
$var wire 1 l \CT|Add0~22\ $end
$var wire 1 m \CT|Add0~25_sumout\ $end
$var wire 1 n \CT|Add0~26\ $end
$var wire 1 o \CT|Add0~29_sumout\ $end
$var wire 1 p \CT|Add0~30\ $end
$var wire 1 q \CT|Add0~1_sumout\ $end
$var wire 1 r \CT|Add0~2\ $end
$var wire 1 s \CT|Add0~5_sumout\ $end
$var wire 1 t \CT|Equal0~0_combout\ $end
$var wire 1 u \CT|Equal0~1_combout\ $end
$var wire 1 v \CT|Add0~6\ $end
$var wire 1 w \CT|Add0~89_sumout\ $end
$var wire 1 x \CT|Add0~90\ $end
$var wire 1 y \CT|Add0~93_sumout\ $end
$var wire 1 z \CT|Add0~94\ $end
$var wire 1 { \CT|Add0~97_sumout\ $end
$var wire 1 | \CT|Add0~98\ $end
$var wire 1 } \CT|Add0~101_sumout\ $end
$var wire 1 ~ \CT|Add0~102\ $end
$var wire 1 !! \CT|Add0~105_sumout\ $end
$var wire 1 "! \CT|Add0~106\ $end
$var wire 1 #! \CT|Add0~109_sumout\ $end
$var wire 1 $! \CT|Add0~110\ $end
$var wire 1 %! \CT|Add0~41_sumout\ $end
$var wire 1 &! \CT|Equal0~2_combout\ $end
$var wire 1 '! \CT|Equal0~3_combout\ $end
$var wire 1 (! \CT|Equal0~4_combout\ $end
$var wire 1 )! \CT|Equal0~5_combout\ $end
$var wire 1 *! \CT|Equal0~6_combout\ $end
$var wire 1 +! \CT|temp1s~0_combout\ $end
$var wire 1 ,! \CT|temp1s~q\ $end
$var wire 1 -! \VeB~input_o\ $end
$var wire 1 .! \PdA~input_o\ $end
$var wire 1 /! \VeA~input_o\ $end
$var wire 1 0! \PdB~input_o\ $end
$var wire 1 1! \FSM|Selector1~0_combout\ $end
$var wire 1 2! \reset~input_o\ $end
$var wire 1 3! \FSM|E_Atual.eVdB~q\ $end
$var wire 1 4! \FSM|E_Futuro.eAmB~0_combout\ $end
$var wire 1 5! \FSM|E_Atual.eAmB~q\ $end
$var wire 1 6! \FSM|c5s~combout\ $end
$var wire 1 7! \CT|conter:0:INITC:Ci|Q~q\ $end
$var wire 1 8! \CT|d2~combout\ $end
$var wire 1 9! \CT|conter:2:CO2:Ci|QI~q\ $end
$var wire 1 :! \CT|d0~combout\ $end
$var wire 1 ;! \CT|conter:0:INITC:Ci|QI~0_combout\ $end
$var wire 1 <! \CT|conter:0:INITC:Ci|QI~q\ $end
$var wire 1 =! \CT|conter:1:CO1:Ci|QI~0_combout\ $end
$var wire 1 >! \CT|conter:1:CO1:Ci|QI~q\ $end
$var wire 1 ?! \CT|d1~combout\ $end
$var wire 1 @! \CT|conter:1:CO1:Ci|Q~q\ $end
$var wire 1 A! \CT|conter:3:CO3:Ci|Q~q\ $end
$var wire 1 B! \CT|cout~2_combout\ $end
$var wire 1 C! \Noturno~input_o\ $end
$var wire 1 D! \FSM|E_Futuro.Apagado~0_combout\ $end
$var wire 1 E! \FSM|E_Atual.Apagado~q\ $end
$var wire 1 F! \FSM|Selector2~0_combout\ $end
$var wire 1 G! \FSM|E_Atual.Piscante~q\ $end
$var wire 1 H! \FSM|Selector0~0_combout\ $end
$var wire 1 I! \FSM|E_Atual.eVdA~q\ $end
$var wire 1 J! \CT|Add1~81_sumout\ $end
$var wire 1 K! \CT|cc60~0_combout\ $end
$var wire 1 L! \FSM|c1m~combout\ $end
$var wire 1 M! \CT|Add1~82\ $end
$var wire 1 N! \CT|Add1~77_sumout\ $end
$var wire 1 O! \CT|Add1~78\ $end
$var wire 1 P! \CT|Add1~101_sumout\ $end
$var wire 1 Q! \CT|Add1~102\ $end
$var wire 1 R! \CT|Add1~97_sumout\ $end
$var wire 1 S! \CT|Add1~98\ $end
$var wire 1 T! \CT|Add1~93_sumout\ $end
$var wire 1 U! \CT|Add1~94\ $end
$var wire 1 V! \CT|Add1~89_sumout\ $end
$var wire 1 W! \CT|Add1~90\ $end
$var wire 1 X! \CT|Add1~5_sumout\ $end
$var wire 1 Y! \CT|Add1~6\ $end
$var wire 1 Z! \CT|Add1~1_sumout\ $end
$var wire 1 [! \CT|Equal1~0_combout\ $end
$var wire 1 \! \CT|Add1~2\ $end
$var wire 1 ]! \CT|Add1~29_sumout\ $end
$var wire 1 ^! \CT|Add1~30\ $end
$var wire 1 _! \CT|Add1~25_sumout\ $end
$var wire 1 `! \CT|Add1~26\ $end
$var wire 1 a! \CT|Add1~21_sumout\ $end
$var wire 1 b! \CT|Add1~22\ $end
$var wire 1 c! \CT|Add1~17_sumout\ $end
$var wire 1 d! \CT|Add1~18\ $end
$var wire 1 e! \CT|Add1~13_sumout\ $end
$var wire 1 f! \CT|Add1~14\ $end
$var wire 1 g! \CT|Add1~9_sumout\ $end
$var wire 1 h! \CT|Equal1~1_combout\ $end
$var wire 1 i! \CT|Add1~10\ $end
$var wire 1 j! \CT|Add1~53_sumout\ $end
$var wire 1 k! \CT|Add1~54\ $end
$var wire 1 l! \CT|Add1~49_sumout\ $end
$var wire 1 m! \CT|Add1~50\ $end
$var wire 1 n! \CT|Add1~45_sumout\ $end
$var wire 1 o! \CT|Add1~46\ $end
$var wire 1 p! \CT|Add1~41_sumout\ $end
$var wire 1 q! \CT|Add1~42\ $end
$var wire 1 r! \CT|Add1~37_sumout\ $end
$var wire 1 s! \CT|Add1~38\ $end
$var wire 1 t! \CT|Add1~33_sumout\ $end
$var wire 1 u! \CT|Equal1~2_combout\ $end
$var wire 1 v! \CT|Add1~34\ $end
$var wire 1 w! \CT|Add1~117_sumout\ $end
$var wire 1 x! \CT|Add1~118\ $end
$var wire 1 y! \CT|Add1~73_sumout\ $end
$var wire 1 z! \CT|Add1~74\ $end
$var wire 1 {! \CT|Add1~69_sumout\ $end
$var wire 1 |! \CT|Add1~70\ $end
$var wire 1 }! \CT|Add1~65_sumout\ $end
$var wire 1 ~! \CT|Add1~66\ $end
$var wire 1 !" \CT|Add1~61_sumout\ $end
$var wire 1 "" \CT|Add1~62\ $end
$var wire 1 #" \CT|Add1~57_sumout\ $end
$var wire 1 $" \CT|Equal1~3_combout\ $end
$var wire 1 %" \CT|Add1~58\ $end
$var wire 1 &" \CT|Add1~125_sumout\ $end
$var wire 1 '" \CT|Add1~126\ $end
$var wire 1 (" \CT|Add1~121_sumout\ $end
$var wire 1 )" \CT|Add1~122\ $end
$var wire 1 *" \CT|Add1~85_sumout\ $end
$var wire 1 +" \CT|Equal1~4_combout\ $end
$var wire 1 ," \CT|Add1~86\ $end
$var wire 1 -" \CT|Add1~113_sumout\ $end
$var wire 1 ." \CT|Add1~114\ $end
$var wire 1 /" \CT|Add1~109_sumout\ $end
$var wire 1 0" \CT|Add1~110\ $end
$var wire 1 1" \CT|Add1~105_sumout\ $end
$var wire 1 2" \CT|Equal1~5_combout\ $end
$var wire 1 3" \CT|Equal1~6_combout\ $end
$var wire 1 4" \CT|temp1m~0_combout\ $end
$var wire 1 5" \CT|temp1m~q\ $end
$var wire 1 6" \CT|cout~3_combout\ $end
$var wire 1 7" \CT|cout~1_combout\ $end
$var wire 1 8" \FSM|Q2~combout\ $end
$var wire 1 9" \CT|cout~0_combout\ $end
$var wire 1 :" \FSM|E_Futuro.eAmA~0_combout\ $end
$var wire 1 ;" \FSM|E_Atual.eAmA~q\ $end
$var wire 1 <" \FSM|Q0~combout\ $end
$var wire 1 =" \FSM|Q1~combout\ $end
$var wire 1 >" \CT|cc60\ [31] $end
$var wire 1 ?" \CT|cc60\ [30] $end
$var wire 1 @" \CT|cc60\ [29] $end
$var wire 1 A" \CT|cc60\ [28] $end
$var wire 1 B" \CT|cc60\ [27] $end
$var wire 1 C" \CT|cc60\ [26] $end
$var wire 1 D" \CT|cc60\ [25] $end
$var wire 1 E" \CT|cc60\ [24] $end
$var wire 1 F" \CT|cc60\ [23] $end
$var wire 1 G" \CT|cc60\ [22] $end
$var wire 1 H" \CT|cc60\ [21] $end
$var wire 1 I" \CT|cc60\ [20] $end
$var wire 1 J" \CT|cc60\ [19] $end
$var wire 1 K" \CT|cc60\ [18] $end
$var wire 1 L" \CT|cc60\ [17] $end
$var wire 1 M" \CT|cc60\ [16] $end
$var wire 1 N" \CT|cc60\ [15] $end
$var wire 1 O" \CT|cc60\ [14] $end
$var wire 1 P" \CT|cc60\ [13] $end
$var wire 1 Q" \CT|cc60\ [12] $end
$var wire 1 R" \CT|cc60\ [11] $end
$var wire 1 S" \CT|cc60\ [10] $end
$var wire 1 T" \CT|cc60\ [9] $end
$var wire 1 U" \CT|cc60\ [8] $end
$var wire 1 V" \CT|cc60\ [7] $end
$var wire 1 W" \CT|cc60\ [6] $end
$var wire 1 X" \CT|cc60\ [5] $end
$var wire 1 Y" \CT|cc60\ [4] $end
$var wire 1 Z" \CT|cc60\ [3] $end
$var wire 1 [" \CT|cc60\ [2] $end
$var wire 1 \" \CT|cc60\ [1] $end
$var wire 1 ]" \CT|cc60\ [0] $end
$var wire 1 ^" \CT|cc1\ [31] $end
$var wire 1 _" \CT|cc1\ [30] $end
$var wire 1 `" \CT|cc1\ [29] $end
$var wire 1 a" \CT|cc1\ [28] $end
$var wire 1 b" \CT|cc1\ [27] $end
$var wire 1 c" \CT|cc1\ [26] $end
$var wire 1 d" \CT|cc1\ [25] $end
$var wire 1 e" \CT|cc1\ [24] $end
$var wire 1 f" \CT|cc1\ [23] $end
$var wire 1 g" \CT|cc1\ [22] $end
$var wire 1 h" \CT|cc1\ [21] $end
$var wire 1 i" \CT|cc1\ [20] $end
$var wire 1 j" \CT|cc1\ [19] $end
$var wire 1 k" \CT|cc1\ [18] $end
$var wire 1 l" \CT|cc1\ [17] $end
$var wire 1 m" \CT|cc1\ [16] $end
$var wire 1 n" \CT|cc1\ [15] $end
$var wire 1 o" \CT|cc1\ [14] $end
$var wire 1 p" \CT|cc1\ [13] $end
$var wire 1 q" \CT|cc1\ [12] $end
$var wire 1 r" \CT|cc1\ [11] $end
$var wire 1 s" \CT|cc1\ [10] $end
$var wire 1 t" \CT|cc1\ [9] $end
$var wire 1 u" \CT|cc1\ [8] $end
$var wire 1 v" \CT|cc1\ [7] $end
$var wire 1 w" \CT|cc1\ [6] $end
$var wire 1 x" \CT|cc1\ [5] $end
$var wire 1 y" \CT|cc1\ [4] $end
$var wire 1 z" \CT|cc1\ [3] $end
$var wire 1 {" \CT|cc1\ [2] $end
$var wire 1 |" \CT|cc1\ [1] $end
$var wire 1 }" \CT|cc1\ [0] $end
$var wire 1 ~" \CT|ALT_INV_cc1\ [31] $end
$var wire 1 !# \CT|ALT_INV_cc1\ [30] $end
$var wire 1 "# \CT|ALT_INV_cc1\ [29] $end
$var wire 1 ## \CT|ALT_INV_cc1\ [28] $end
$var wire 1 $# \CT|ALT_INV_cc1\ [27] $end
$var wire 1 %# \CT|ALT_INV_cc1\ [26] $end
$var wire 1 &# \CT|ALT_INV_cc1\ [25] $end
$var wire 1 '# \CT|ALT_INV_cc1\ [24] $end
$var wire 1 (# \CT|ALT_INV_cc1\ [23] $end
$var wire 1 )# \CT|ALT_INV_cc1\ [22] $end
$var wire 1 *# \CT|ALT_INV_cc1\ [21] $end
$var wire 1 +# \CT|ALT_INV_cc1\ [20] $end
$var wire 1 ,# \CT|ALT_INV_cc1\ [19] $end
$var wire 1 -# \CT|ALT_INV_cc1\ [18] $end
$var wire 1 .# \CT|ALT_INV_cc1\ [17] $end
$var wire 1 /# \CT|ALT_INV_cc1\ [16] $end
$var wire 1 0# \CT|ALT_INV_cc1\ [15] $end
$var wire 1 1# \CT|ALT_INV_cc1\ [14] $end
$var wire 1 2# \CT|ALT_INV_cc1\ [13] $end
$var wire 1 3# \CT|ALT_INV_cc1\ [12] $end
$var wire 1 4# \CT|ALT_INV_cc1\ [11] $end
$var wire 1 5# \CT|ALT_INV_cc1\ [10] $end
$var wire 1 6# \CT|ALT_INV_cc1\ [9] $end
$var wire 1 7# \CT|ALT_INV_cc1\ [8] $end
$var wire 1 8# \CT|ALT_INV_cc1\ [7] $end
$var wire 1 9# \CT|ALT_INV_cc1\ [6] $end
$var wire 1 :# \CT|ALT_INV_cc1\ [5] $end
$var wire 1 ;# \CT|ALT_INV_cc1\ [4] $end
$var wire 1 <# \CT|ALT_INV_cc1\ [3] $end
$var wire 1 =# \CT|ALT_INV_cc1\ [2] $end
$var wire 1 ># \CT|ALT_INV_cc1\ [1] $end
$var wire 1 ?# \CT|ALT_INV_cc1\ [0] $end
$var wire 1 @# \CT|ALT_INV_cc60\ [31] $end
$var wire 1 A# \CT|ALT_INV_cc60\ [30] $end
$var wire 1 B# \CT|ALT_INV_cc60\ [29] $end
$var wire 1 C# \CT|ALT_INV_cc60\ [28] $end
$var wire 1 D# \CT|ALT_INV_cc60\ [27] $end
$var wire 1 E# \CT|ALT_INV_cc60\ [26] $end
$var wire 1 F# \CT|ALT_INV_cc60\ [25] $end
$var wire 1 G# \CT|ALT_INV_cc60\ [24] $end
$var wire 1 H# \CT|ALT_INV_cc60\ [23] $end
$var wire 1 I# \CT|ALT_INV_cc60\ [22] $end
$var wire 1 J# \CT|ALT_INV_cc60\ [21] $end
$var wire 1 K# \CT|ALT_INV_cc60\ [20] $end
$var wire 1 L# \CT|ALT_INV_cc60\ [19] $end
$var wire 1 M# \CT|ALT_INV_cc60\ [18] $end
$var wire 1 N# \CT|ALT_INV_cc60\ [17] $end
$var wire 1 O# \CT|ALT_INV_cc60\ [16] $end
$var wire 1 P# \CT|ALT_INV_cc60\ [15] $end
$var wire 1 Q# \CT|ALT_INV_cc60\ [14] $end
$var wire 1 R# \CT|ALT_INV_cc60\ [13] $end
$var wire 1 S# \CT|ALT_INV_cc60\ [12] $end
$var wire 1 T# \CT|ALT_INV_cc60\ [11] $end
$var wire 1 U# \CT|ALT_INV_cc60\ [10] $end
$var wire 1 V# \CT|ALT_INV_cc60\ [9] $end
$var wire 1 W# \CT|ALT_INV_cc60\ [8] $end
$var wire 1 X# \CT|ALT_INV_cc60\ [7] $end
$var wire 1 Y# \CT|ALT_INV_cc60\ [6] $end
$var wire 1 Z# \CT|ALT_INV_cc60\ [5] $end
$var wire 1 [# \CT|ALT_INV_cc60\ [4] $end
$var wire 1 \# \CT|ALT_INV_cc60\ [3] $end
$var wire 1 ]# \CT|ALT_INV_cc60\ [2] $end
$var wire 1 ^# \CT|ALT_INV_cc60\ [1] $end
$var wire 1 _# \CT|ALT_INV_cc60\ [0] $end
$var wire 1 `# \CT|ALT_INV_Equal0~1_combout\ $end
$var wire 1 a# \CT|ALT_INV_Equal0~0_combout\ $end
$var wire 1 b# \FSM|ALT_INV_c1m~combout\ $end
$var wire 1 c# \CT|ALT_INV_Equal1~6_combout\ $end
$var wire 1 d# \CT|ALT_INV_Equal1~5_combout\ $end
$var wire 1 e# \CT|ALT_INV_Equal1~4_combout\ $end
$var wire 1 f# \CT|ALT_INV_Equal1~3_combout\ $end
$var wire 1 g# \CT|ALT_INV_Equal1~2_combout\ $end
$var wire 1 h# \CT|ALT_INV_Equal1~1_combout\ $end
$var wire 1 i# \CT|ALT_INV_Equal1~0_combout\ $end
$var wire 1 j# \CT|ALT_INV_d1~combout\ $end
$var wire 1 k# \CT|conter:1:CO1:Ci|ALT_INV_QI~q\ $end
$var wire 1 l# \CT|conter:0:INITC:Ci|ALT_INV_Q~q\ $end
$var wire 1 m# \CT|conter:0:INITC:Ci|ALT_INV_QI~q\ $end
$var wire 1 n# \CT|ALT_INV_temp1s~q\ $end
$var wire 1 o# \CT|ALT_INV_cout~1_combout\ $end
$var wire 1 p# \FSM|ALT_INV_c5s~combout\ $end
$var wire 1 q# \CT|ALT_INV_cout~3_combout\ $end
$var wire 1 r# \CT|ALT_INV_temp1m~q\ $end
$var wire 1 s# \CT|ALT_INV_cout~2_combout\ $end
$var wire 1 t# \CT|conter:3:CO3:Ci|ALT_INV_Q~q\ $end
$var wire 1 u# \CT|conter:1:CO1:Ci|ALT_INV_Q~q\ $end
$var wire 1 v# \FSM|ALT_INV_E_Atual.eVdA~q\ $end
$var wire 1 w# \FSM|ALT_INV_Q2~combout\ $end
$var wire 1 x# \FSM|ALT_INV_E_Atual.Apagado~q\ $end
$var wire 1 y# \FSM|ALT_INV_E_Atual.Piscante~q\ $end
$var wire 1 z# \FSM|ALT_INV_E_Atual.eAmB~q\ $end
$var wire 1 {# \FSM|ALT_INV_E_Atual.eVdB~q\ $end
$var wire 1 |# \FSM|ALT_INV_E_Atual.eAmA~q\ $end
$var wire 1 }# \CT|ALT_INV_Add0~81_sumout\ $end
$var wire 1 ~# \CT|ALT_INV_Add1~81_sumout\ $end
$var wire 1 !$ \ALT_INV_PdB~input_o\ $end
$var wire 1 "$ \ALT_INV_VeA~input_o\ $end
$var wire 1 #$ \ALT_INV_reset~input_o\ $end
$var wire 1 $$ \ALT_INV_PdA~input_o\ $end
$var wire 1 %$ \ALT_INV_VeB~input_o\ $end
$var wire 1 &$ \ALT_INV_Noturno~input_o\ $end
$var wire 1 '$ \CT|ALT_INV_d0~combout\ $end
$var wire 1 ($ \CT|conter:2:CO2:Ci|ALT_INV_QI~q\ $end
$var wire 1 )$ \CT|ALT_INV_Equal0~6_combout\ $end
$var wire 1 *$ \CT|ALT_INV_Equal0~5_combout\ $end
$var wire 1 +$ \CT|ALT_INV_Equal0~4_combout\ $end
$var wire 1 ,$ \CT|ALT_INV_Equal0~3_combout\ $end
$var wire 1 -$ \CT|ALT_INV_Equal0~2_combout\ $end
$upscope $end
$upscope $end
$enddefinitions $end
#0
$dumpvars
0!
0"
0#
0$
0%
0&
0'
1(
0)
0*
0+
1,
x-
1.
1/
10
11
12
13
04
05
06
07
08
09
1:
0;
0<
0=
0>
0?
0@
0A
0B
1C
1D
1E
0F
0G
0H
0I
0J
0K
0L
0M
0N
0O
0P
0Q
0R
0S
0T
0U
0V
0W
0X
0Y
0Z
0[
0\
0]
0^
0_
0`
0a
0b
0c
0d
0e
0f
0g
0h
0i
0j
0k
0l
0m
0n
0o
0p
0q
0r
0s
1t
1u
0v
0w
0x
0y
0z
0{
0|
0}
0~
0!!
0"!
0#!
0$!
0%!
1&!
1'!
0(!
0)!
0*!
0+!
0,!
0-!
0.!
0/!
00!
01!
12!
03!
04!
05!
06!
07!
18!
09!
0:!
1;!
0<!
1=!
0>!
0?!
0@!
0A!
1B!
0C!
0D!
0E!
0F!
0G!
0H!
0I!
0J!
1K!
0L!
1M!
1N!
0O!
0P!
0Q!
0R!
0S!
0T!
0U!
0V!
0W!
0X!
0Y!
0Z!
1[!
0\!
0]!
0^!
0_!
0`!
0a!
0b!
0c!
0d!
0e!
0f!
0g!
1h!
0i!
0j!
0k!
0l!
0m!
0n!
0o!
0p!
0q!
0r!
0s!
0t!
1u!
0v!
0w!
0x!
0y!
0z!
0{!
0|!
0}!
0~!
0!"
0""
0#"
1$"
0%"
0&"
0'"
0("
0)"
0*"
0+"
0,"
0-"
0."
0/"
00"
01"
12"
03"
04"
05"
06"
17"
08"
09"
0:"
0;"
0<"
0="
0`#
0a#
1b#
1c#
0d#
1e#
0f#
0g#
0h#
0i#
1j#
1k#
1l#
1m#
1n#
0o#
1p#
1q#
1r#
0s#
1t#
1u#
1v#
1w#
1x#
1y#
1z#
1{#
1|#
1}#
1~#
1!$
1"$
0#$
1$$
1%$
1&$
1'$
1($
1)$
1*$
1+$
0,$
0-$
0>"
0?"
0@"
0A"
0B"
0C"
0D"
0E"
0F"
0G"
0H"
0I"
0J"
0K"
0L"
0M"
0N"
0O"
0P"
0Q"
0R"
0S"
0T"
0U"
0V"
0W"
0X"
0Y"
0Z"
0["
0\"
0]"
0^"
0_"
0`"
0a"
0b"
0c"
0d"
0e"
0f"
0g"
0h"
0i"
0j"
0k"
0l"
0m"
0n"
0o"
0p"
0q"
0r"
0s"
0t"
0u"
0v"
0w"
0x"
0y"
0z"
0{"
0|"
0}"
1~"
1!#
1"#
1##
1$#
1%#
1&#
1'#
1(#
1)#
1*#
1+#
1,#
1-#
1.#
1/#
10#
11#
12#
13#
14#
15#
16#
17#
18#
19#
1:#
1;#
1<#
1=#
1>#
1?#
1@#
1A#
1B#
1C#
1D#
1E#
1F#
1G#
1H#
1I#
1J#
1K#
1L#
1M#
1N#
1O#
1P#
1Q#
1R#
1S#
1T#
1U#
1V#
1W#
1X#
1Y#
1Z#
1[#
1\#
1]#
1^#
1_#
$end
#500
1!
14
1A
1}"
1|"
0>#
0?#
1B
0D
1(!
0E
1F
1)!
0*$
0+$
0}#
1G
1E
0F
0C
1*!
0G
0)$
1+!
#1000
0!
04
0A
#1500
1!
14
1A
0}"
0|"
1,!
0n#
1>#
1?#
1]"
1\"
0B
1D
0(!
0E
0)!
0+!
0^#
0_#
1*$
1+$
1}#
1J!
0M!
0N!
1O!
0$"
1E
1C
0*!
1f#
0~#
1P!
1N!
0O!
1)$
0K!
1+!
0P!
#2000
0!
04
0A
#2500
1!
14
1A
1}"
1|"
0>#
0?#
1B
0D
1(!
0E
1F
1)!
0*$
0+$
0}#
1G
1E
0F
0C
1*!
0G
0)$
0+!
#3000
0!
04
0A
#3500
1!
14
1A
0}"
0|"
0,!
1n#
1>#
1?#
0B
1D
0(!
0E
0)!
1+!
1*$
1+$
1}#
1E
1C
0*!
1)$
0+!
#4000
0!
04
0A
#4500
1!
14
1A
1}"
1|"
0>#
0?#
1B
0D
1(!
0E
1F
1)!
0*$
0+$
0}#
1G
1E
0F
0C
1*!
0G
0)$
1+!
#5000
0!
04
0A
#5500
1!
14
1A
0}"
0|"
1,!
0n#
1>#
1?#
0]"
0B
1D
0(!
0E
0)!
0+!
1_#
1*$
1+$
1}#
0J!
1M!
1E
1C
0*!
1~#
0N!
1O!
1)$
1K!
1+!
1P!
#6000
0!
04
0A
#6500
1!
14
1A
1}"
1|"
0>#
0?#
1B
0D
1(!
0E
1F
1)!
0*$
0+$
0}#
1G
1E
0F
0C
1*!
0G
0)$
0+!
#7000
0!
04
0A
#7500
1!
14
1A
0}"
0|"
0,!
1n#
1>#
1?#
0B
1D
0(!
0E
0)!
1+!
1*$
1+$
1}#
1E
1C
0*!
1)$
0+!
#8000
0!
04
0A
#8500
1!
14
1A
1}"
1|"
0>#
0?#
1B
0D
1(!
0E
1F
1)!
0*$
0+$
0}#
1G
1E
0F
0C
1*!
0G
0)$
1+!
#9000
0!
04
0A
#9500
1!
14
1A
0}"
0|"
1,!
0n#
1>#
1?#
1]"
0\"
1["
0B
1D
0(!
0E
0)!
0+!
0]#
1^#
0_#
1*$
1+$
1}#
1J!
0M!
1N!
0O!
1$"
0P!
1Q!
1E
1C
0*!
0f#
0~#
1R!
1P!
0Q!
0N!
1)$
0K!
1+!
0R!
#10000
0!
04
0A
#10500
1!
14
1A
1}"
1|"
0>#
0?#
1B
0D
1(!
0E
1F
1)!
0*$
0+$
0}#
1G
1E
0F
0C
1*!
0G
0)$
0+!
#11000
0!
04
0A
#11500
1!
14
1A
0}"
0|"
0,!
1n#
1>#
1?#
0B
1D
0(!
0E
0)!
1+!
1*$
1+$
1}#
1E
1C
0*!
1)$
0+!
#12000
0!
04
0A
#12500
1!
14
1A
1}"
1|"
0>#
0?#
1B
0D
1(!
0E
1F
1)!
0*$
0+$
0}#
1G
1E
0F
0C
1*!
0G
0)$
1+!
#13000
0!
04
0A
#13500
1!
14
1A
0}"
0|"
1,!
0n#
1>#
1?#
0]"
0B
1D
0(!
0E
0)!
0+!
1_#
1*$
1+$
1}#
0J!
1M!
1+"
1E
1C
0*!
0e#
1~#
1N!
1)$
1K!
13"
1+!
0c#
0K!
14"
#14000
0!
04
0A
#14500
1!
14
1A
1}"
1|"
0>#
0?#
1B
0D
1(!
0E
1F
1)!
0*$
0+$
0}#
1G
1E
0F
0C
1*!
0G
0)$
0+!
#15000
0!
04
0A
#15500
1!
14
1A
0}"
0|"
0,!
1n#
1>#
1?#
0B
1D
0(!
0E
0)!
1+!
1*$
1+$
1}#
1E
1C
0*!
1)$
0+!
#16000
0!
04
0A
#16500
1!
14
1A
1}"
1|"
0>#
0?#
1B
0D
1(!
0E
1F
1)!
0*$
0+$
0}#
1G
1E
0F
0C
1*!
0G
0)$
1+!
#17000
0!
04
0A
#17500
1!
14
1A
0}"
0|"
1,!
0n#
1>#
1?#
0["
15"
0B
1D
0(!
0E
0)!
0+!
0r#
1]#
1*$
1+$
1}#
0P!
0+"
04"
16"
1E
1C
0*!
0q#
1e#
1)$
03"
07"
1+!
1o#
1c#
1K!
14"
19"
#18000
0!
04
0A
#18500
1!
14
1A
1}"
1|"
0>#
0?#
1B
0D
1(!
0E
1F
1)!
0*$
0+$
0}#
1G
1E
0F
0C
1*!
0G
0)$
0+!
#19000
0!
04
0A
#19500
1!
14
1A
0}"
0|"
0,!
1n#
1>#
1?#
0B
1D
0(!
0E
0)!
1+!
1*$
1+$
1}#
1E
1C
0*!
1)$
0+!
#20000
0!
0(
04
0:
02!
0A
1#$
#20500
1!
14
1A
1}"
1|"
0>#
0?#
1B
0D
1(!
0E
1F
1)!
0*$
0+$
0}#
1G
1E
0F
0C
1*!
0G
0)$
1+!
#21000
0!
04
0A
#21500
1!
14
1A
0}"
0|"
1,!
0n#
1>#
1?#
1]"
1\"
0B
1D
0(!
0E
0)!
0+!
0^#
0_#
1*$
1+$
1}#
1J!
0M!
0N!
1O!
0$"
1E
1C
0*!
1f#
0~#
1P!
1N!
0O!
1)$
0K!
1+!
0P!
#22000
0!
04
0A
#22500
1!
14
1A
1}"
1|"
0>#
0?#
1B
0D
1(!
0E
1F
1)!
0*$
0+$
0}#
1G
1E
0F
0C
1*!
0G
0)$
0+!
#23000
0!
04
0A
#23500
1!
14
1A
0}"
0|"
0,!
1n#
1>#
1?#
0B
1D
0(!
0E
0)!
1+!
1*$
1+$
1}#
1E
1C
0*!
1)$
0+!
#24000
0!
04
0A
#24500
1!
14
1A
1}"
1|"
0>#
0?#
1B
0D
1(!
0E
1F
1)!
0*$
0+$
0}#
1G
1E
0F
0C
1*!
0G
0)$
1+!
#25000
0!
04
0A
#25500
1!
14
1A
0}"
0|"
1,!
0n#
1>#
1?#
0]"
0B
1D
0(!
0E
0)!
0+!
1_#
1*$
1+$
1}#
0J!
1M!
1E
1C
0*!
1~#
0N!
1O!
1)$
1K!
1+!
1P!
#26000
0!
04
0A
