Labdig/Exp7e/simulation/qsim/MaquinaEstadoSemaforo.msim.vcd
$comment
	File created using the following command:
		vcd file MaquinaEstadoSemaforo.msim.vcd -direction
$end
$date
	Mon May 04 01:22:53 2020
$end
$version
	ModelSim Version 10.5b
$end
$timescale
	1ps
$end

$scope module maquinaestadosemaforo_vhd_vec_tst $end
$var wire 1 ! c1m $end
$var wire 1 " c1s $end
$var wire 1 # c5s $end
$var wire 1 $ clock $end
$var wire 1 % Noturno $end
$var wire 1 & PvA $end
$var wire 1 ' PvB $end
$var wire 1 ( Q0 $end
$var wire 1 ) Q1 $end
$var wire 1 * Q2 $end
$var wire 1 + reset $end

$scope module i1 $end
$var wire 1 , gnd $end
$var wire 1 - vcc $end
$var wire 1 . unknown $end
$var wire 1 / devoe $end
$var wire 1 0 devclrn $end
$var wire 1 1 devpor $end
$var wire 1 2 ww_devoe $end
$var wire 1 3 ww_devclrn $end
$var wire 1 4 ww_devpor $end
$var wire 1 5 ww_clock $end
$var wire 1 6 ww_Noturno $end
$var wire 1 7 ww_PvA $end
$var wire 1 8 ww_PvB $end
$var wire 1 9 ww_reset $end
$var wire 1 : ww_c1s $end
$var wire 1 ; ww_c5s $end
$var wire 1 < ww_c1m $end
$var wire 1 = ww_Q0 $end
$var wire 1 > ww_Q1 $end
$var wire 1 ? ww_Q2 $end
$var wire 1 @ \c1s~output_o\ $end
$var wire 1 A \c5s~output_o\ $end
$var wire 1 B \c1m~output_o\ $end
$var wire 1 C \Q0~output_o\ $end
$var wire 1 D \Q1~output_o\ $end
$var wire 1 E \Q2~output_o\ $end
$var wire 1 F \clock~input_o\ $end
$var wire 1 G \Noturno~input_o\ $end
$var wire 1 H \E_Futuro.Apagado~0_combout\ $end
$var wire 1 I \reset~input_o\ $end
$var wire 1 J \E_Atual.Apagado~q\ $end
$var wire 1 K \Selector3~0_combout\ $end
$var wire 1 L \E_Atual.Piscante~q\ $end
$var wire 1 M \PvA~input_o\ $end
$var wire 1 N \PvB~input_o\ $end
$var wire 1 O \Selector2~0_combout\ $end
$var wire 1 P \E_Atual.eVdB~q\ $end
$var wire 1 Q \E_Atual.eAmB~q\ $end
$var wire 1 R \Selector1~0_combout\ $end
$var wire 1 S \E_Atual.eVdA~q\ $end
$var wire 1 T \E_Atual.eAmA~q\ $end
$var wire 1 U \Selector0~0_combout\ $end
$var wire 1 V \Selector0~1_combout\ $end
$var wire 1 W \E_Atual.Bgn~q\ $end
$var wire 1 X \c1s~0_combout\ $end
$var wire 1 Y \c5s~0_combout\ $end
$var wire 1 Z \c1m~0_combout\ $end
$var wire 1 [ \Q0~0_combout\ $end
$var wire 1 \ \Q1~0_combout\ $end
$var wire 1 ] \ALT_INV_reset~input_o\ $end
$var wire 1 ^ \ALT_INV_PvB~input_o\ $end
$var wire 1 _ \ALT_INV_PvA~input_o\ $end
$var wire 1 ` \ALT_INV_Noturno~input_o\ $end
$var wire 1 a \ALT_INV_Selector0~0_combout\ $end
$var wire 1 b \ALT_INV_E_Atual.eVdB~q\ $end
$var wire 1 c \ALT_INV_E_Atual.eVdA~q\ $end
$var wire 1 d \ALT_INV_E_Atual.eAmB~q\ $end
$var wire 1 e \ALT_INV_E_Atual.eAmA~q\ $end
$var wire 1 f \ALT_INV_E_Atual.Apagado~q\ $end
$var wire 1 g \ALT_INV_E_Atual.Piscante~q\ $end
$var wire 1 h \ALT_INV_E_Atual.Bgn~q\ $end
$upscope $end
$upscope $end
$enddefinitions $end
#0
$dumpvars
0!
1"
0#
0$
0%
1&
1'
1(
0)
1*
0+
0,
1-
x.
1/
10
11
12
13
14
05
06
17
18
09
1:
0;
0<
1=
0>
1?
1@
0A
0B
1C
0D
1E
0F
0G
0H
0I
0J
0K
0L
1M
1N
0O
0P
0Q
1R
0S
0T
0U
1V
0W
1X
0Y
0Z
1[
0\
1]
0^
0_
1`
1a
1b
1c
1d
1e
1f
1g
1h
$end
#5000
1$
15
1F
1S
1W
0h
0c
1Z
0R
0X
0[
0C
0@
1B
0=
0:
1<
0(
0"
1!
#10000
0$
05
0F
#15000
1$
15
1F
0S
1T
0e
1c
0Z
1O
1Y
1[
1C
1A
0B
1=
1;
0<
1(
1#
0!
#20000
0$
05
0F
#25000
1$
15
1F
1P
0T
1e
0b
1Z
1\
0O
0Y
0A
1D
1B
0;
1>
1<
0#
1)
1!
#30000
0$
05
0F
#35000
1$
15
1F
0P
1Q
0d
1b
0Z
0[
1R
1Y
1A
0C
0B
1;
0=
0<
1#
0(
0!
#40000
0$
05
0F
#45000
1$
15
1F
0Q
1S
0c
1d
0R
0Y
0\
1Z
1B
0D
0A
1<
0>
0;
1!
0)
0#
#50000
0$
05
0F
#55000
1$
15
1F
0S
1T
0e
1c
0Z
1O
1Y
1[
1C
1A
0B
1=
1;
0<
1(
1#
0!
#60000
0$
05
0F
#65000
1$
15
1F
1P
0T
1e
0b
1Z
1\
0O
0Y
0A
1D
1B
0;
1>
1<
0#
1)
1!
#70000
0$
05
0F
#75000
1$
15
1F
0P
1Q
0d
1b
0Z
0[
1R
1Y
1A
0C
0B
1;
0=
0<
1#
0(
0!
#80000
0$
05
0F
#85000
1$
15
1F
0Q
1S
0c
1d
0R
0Y
0\
1Z
1B
0D
0A
1<
0>
0;
1!
0)
0#
#90000
0$
05
0F
#95000
1$
15
1F
0S
1T
0e
1c
0Z
1O
1Y
1[
1C
1A
0B
1=
1;
0<
1(
1#
0!
#100000
0$
05
0F
#105000
1$
15
1F
1P
0T
1e
0b
1Z
1\
0O
0Y
0A
1D
1B
0;
1>
1<
0#
1)
1!
#110000
0$
05
0F
#115000
1$
15
1F
0P
1Q
0d
1b
0Z
0[
1R
1Y
1A
0C
0B
1;
0=
0<
1#
0(
0!
#120000
0$
05
0F
#125000
1$
15
1F
0Q
1S
0c
1d
0R
0Y
0\
1Z
1B
0D
0A
1<
0>
0;
1!
0)
0#
#130000
0$
05
0F
#135000
1$
15
1F
0S
1T
0e
1c
0Z
1O
1Y
1[
1C
1A
0B
1=
1;
0<
1(
1#
0!
#140000
0$
05
0F
#145000
1$
15
1F
1P
0T
1e
0b
1Z
1\
0O
0Y
0A
1D
1B
0;
1>
1<
0#
1)
1!
#150000
0$
05
0F
#155000
1$
15
1F
0P
1Q
0d
1b
0Z
0[
1R
1Y
1A
0C
0B
1;
0=
0<
1#
0(
0!
#160000
0$
05
0F
#165000
1$
15
1F
0Q
1S
0c
1d
0R
0Y
0\
1Z
1B
0D
0A
1<
0>
0;
1!
0)
0#
#170000
0$
05
0F
#175000
1$
15
1F
0S
1T
0e
1c
0Z
1O
1Y
1[
1C
1A
0B
1=
1;
0<
1(
1#
0!
#180000
0$
05
0F
#185000
1$
15
1F
1P
0T
1e
0b
1Z
1\
0O
0Y
0A
1D
1B
0;
1>
1<
0#
1)
1!
#190000
0$
05
0F
#195000
1$
15
1F
0P
1Q
0d
1b
0Z
0[
1R
1Y
1A
0C
0B
1;
0=
0<
1#
0(
0!
#200000
0$
05
0F
#205000
1$
15
1F
0Q
1S
0c
1d
0R
0Y
0\
1Z
1B
0D
0A
1<
0>
0;
1!
0)
0#
#210000
0$
05
0F
#215000
1$
15
1F
0S
1T
0e
1c
0Z
1O
1Y
1[
1C
1A
0B
1=
1;
0<
1(
1#
0!
#220000
0$
05
0F
#225000
1$
15
1F
1P
0T
1e
0b
1Z
1\
0O
0Y
0A
1D
1B
0;
1>
1<
0#
1)
1!
#230000
0$
05
0F
#235000
1$
15
1F
0P
1Q
0d
1b
0Z
0[
1R
1Y
1A
0C
0B
1;
0=
0<
1#
0(
0!
#240000
0$
05
0F
#245000
1$
15
1F
0Q
1S
0c
1d
0R
0Y
0\
1Z
1B
0D
0A
1<
0>
0;
1!
0)
0#
#250000
0$
05
0F
#255000
1$
15
1F
0S
1T
0e
1c
0Z
1O
1Y
1[
1C
1A
0B
1=
1;
0<
1(
1#
0!
#260000
0$
05
0F
#265000
1$
15
1F
1P
0T
1e
0b
1Z
1\
0O
0Y
0A
1D
1B
0;
1>
1<
0#
1)
1!
#270000
0$
05
0F
#275000
1$
15
1F
0P
1Q
0d
1b
0Z
0[
1R
1Y
1A
0C
0B
1;
0=
0<
1#
0(
0!
#280000
0$
05
0F
#285000
1$
15
1F
0Q
1S
0c
1d
0R
0Y
0\
1Z
1B
0D
0A
1<
0>
0;
1!
0)
0#
#290000
0$
05
0F
#295000
1$
15
1F
0S
1T
0e
1c
0Z
1O
1Y
1[
1C
1A
0B
1=
1;
0<
1(
1#
0!
#300000
0$
05
0F
#305000
1$
15
1F
1P
0T
1e
0b
1Z
1\
0O
0Y
0A
1D
1B
0;
1>
1<
0#
1)
1!
#310000
0$
05
0F
#315000
1$
15
1F
0P
1Q
0d
1b
0Z
0[
1R
1Y
1A
0C
0B
1;
0=
0<
1#
0(
0!
#320000
0$
05
0F
#325000
1$
15
1F
0Q
1S
0c
1d
0R
0Y
0\
1Z
1B
0D
0A
1<
0>
0;
1!
0)
0#
#330000
0$
05
0F
#335000
1$
15
1F
0S
1T
0e
1c
0Z
1O
1Y
1[
1C
1A
0B
1=
1;
0<
1(
1#
0!
#340000
0$
05
0F
#345000
1$
15
1F
1P
0T
1e
0b
1Z
1\
0O
0Y
0A
1D
1B
0;
1>
1<
0#
1)
1!
#350000
0$
05
0F
#355000
1$
15
1F
0P
1Q
0d
1b
0Z
0[
1R
1Y
1A
0C
0B
1;
0=
0<
1#
0(
0!
#360000
0$
05
0F
#365000
1$
15
1F
0Q
1S
0c
1d
0R
0Y
0\
1Z
1B
0D
0A
1<
0>
0;
1!
0)
0#
#370000
0$
05
0F
#375000
1$
15
1F
0S
1T
0e
1c
0Z
1O
1Y
1[
1C
1A
0B
1=
1;
0<
1(
1#
0!
#380000
0$
05
0F
#385000
1$
15
1F
1P
0T
1e
0b
1Z
1\
0O
0Y
0A
1D
1B
0;
1>
1<
0#
1)
1!
#390000
0$
05
0F
#395000
1$
15
1F
0P
1Q
0d
1b
0Z
0[
1R
1Y
1A
0C
0B
1;
0=
0<
1#
0(
0!
#400000
0$
05
0F
#405000
1$
15
1F
0Q
1S
0c
1d
0R
0Y
0\
1Z
1B
0D
0A
1<
0>
0;
1!
0)
0#
#410000
0$
05
0F
#415000
1$
15
1F
0S
1T
0e
1c
0Z
1O
1Y
1[
1C
1A
0B
1=
1;
0<
1(
1#
0!
#420000
0$
05
0F
#425000
1$
15
1F
1P
0T
1e
0b
1Z
1\
0O
0Y
0A
1D
1B
0;
1>
1<
0#
1)
1!
#430000
0$
05
0F
#435000
1$
15
1F
0P
1Q
0d
1b
0Z
0[
1R
1Y
1A
0C
0B
1;
0=
0<
1#
0(
0!
#440000
0$
05
0F
#445000
1$
15
1F
0Q
1S
0c
1d
0R
0Y
0\
1Z
1B
0D
0A
1<
0>
0;
1!
0)
0#
#450000
0$
05
0F
#455000
1$
15
1F
0S
1T
0e
1c
0Z
1O
1Y
1[
1C
1A
0B
1=
1;
0<
1(
1#
0!
#460000
0$
05
0F
#465000
1$
15
1F
1P
0T
1e
0b
1Z
1\
0O
0Y
0A
1D
1B
0;
1>
1<
0#
1)
1!
#470000
0$
05
0F
#475000
1$
15
1F
0P
1Q
0d
1b
0Z
0[
1R
1Y
1A
0C
0B
1;
0=
0<
1#
0(
0!
#480000
0$
05
0F
#485000
1$
15
1F
0Q
1S
0c
1d
0R
0Y
0\
1Z
1B
0D
0A
1<
0>
0;
1!
0)
0#
#490000
0$
05
0F
#495000
1$
15
1F
0S
1T
0e
1c
0Z
1O
1Y
1[
1C
1A
0B
1=
1;
0<
1(
1#
0!
#500000
0$
05
0F
#505000
1$
15
1F
1P
0T
1e
0b
1Z
1\
0O
0Y
0A
1D
1B
0;
1>
1<
0#
1)
1!
#510000
0$
05
0F
#515000
1$
15
1F
0P
1Q
0d
1b
0Z
0[
1R
1Y
1A
0C
0B
1;
0=
0<
1#
0(
0!
#520000
0$
05
0F
#525000
1$
15
1F
0Q
1S
0c
1d
0R
0Y
0\
1Z
1B
0D
0A
1<
0>
0;
1!
0)
0#
#530000
0$
05
0F
#535000
1$
15
1F
0S
1T
0e
1c
0Z
1O
1Y
1[
1C
1A
0B
1=
1;
0<
1(
1#
0!
#540000
0$
05
0F
#545000
1$
15
1F
1P
0T
1e
0b
1Z
1\
0O
0Y
0A
1D
1B
0;
1>
1<
0#
1)
1!
#550000
0$
05
0F
#555000
1$
15
1F
0P
1Q
0d
1b
0Z
0[
1R
1Y
1A
0C
0B
1;
0=
0<
1#
0(
0!
#560000
0$
05
0F
#565000
1$
15
1F
0Q
1S
0c
1d
0R
0Y
0\
1Z
1B
0D
0A
1<
0>
0;
1!
0)
0#
#570000
0$
05
0F
#575000
1$
15
1F
0S
1T
0e
1c
0Z
1O
1Y
1[
1C
1A
0B
1=
1;
0<
1(
1#
0!
#580000
0$
05
0F
#585000
1$
15
1F
1P
0T
1e
0b
1Z
1\
0O
0Y
0A
1D
1B
0;
1>
1<
0#
1)
1!
#590000
0$
05
0F
#595000
1$
15
1F
0P
1Q
0d
1b
0Z
0[
1R
1Y
1A
0C
0B
1;
0=
0<
1#
0(
0!
#600000
0$
05
0F
#605000
1$
15
1F
0Q
1S
0c
1d
0R
0Y
0\
1Z
1B
0D
0A
1<
0>
0;
1!
0)
0#
#610000
0$
05
0F
#615000
1$
15
1F
0S
1T
0e
1c
0Z
1O
1Y
1[
1C
1A
0B
1=
1;
0<
1(
1#
0!
#620000
0$
05
0F
#625000
1$
15
1F
1P
0T
1e
0b
1Z
1\
0O
0Y
0A
1D
1B
0;
1>
1<
0#
1)
1!
#630000
0$
05
0F
#635000
1$
15
1F
0P
1Q
0d
1b
0Z
0[
1R
1Y
1A
0C
0B
1;
0=
0<
1#
0(
0!
#640000
0$
05
0F
#645000
1$
15
1F
0Q
1S
0c
1d
0R
0Y
0\
1Z
1B
0D
0A
1<
0>
0;
1!
0)
0#
#650000
0$
05
0F
#655000
1$
15
1F
0S
1T
0e
1c
0Z
1O
1Y
1[
1C
1A
0B
1=
1;
0<
1(
1#
0!
#660000
0$
05
0F
#665000
1$
15
1F
1P
0T
1e
0b
1Z
1\
0O
0Y
0A
1D
1B
0;
1>
1<
0#
1)
1!
#670000
0$
05
0F
#675000
1$
15
1F
0P
1Q
0d
1b
0Z
0[
1R
1Y
1A
0C
0B
1;
0=
0<
1#
0(
0!
#680000
0$
05
0F
#685000
1$
15
1F
0Q
1S
0c
1d
0R
0Y
0\
1Z
1B
0D
0A
1<
0>
0;
1!
0)
0#
#690000
0$
05
0F
#695000
1$
15
1F
0S
1T
0e
1c
0Z
1O
1Y
1[
1C
1A
0B
1=
1;
0<
1(
1#
0!
#700000
0$
05
0F
#705000
1$
15
1F
1P
0T
1e
0b
1Z
1\
0O
0Y
0A
1D
1B
0;
1>
1<
0#
1)
1!
#710000
0$
05
0F
#715000
1$
15
1F
0P
1Q
0d
1b
0Z
0[
1R
1Y
1A
0C
0B
1;
0=
0<
1#
0(
0!
#720000
0$
05
0F
#725000
1$
15
1F
0Q
1S
0c
1d
0R
0Y
0\
1Z
1B
0D
0A
1<
0>
0;
1!
0)
0#
#730000
0$
05
0F
#735000
1$
15
1F
0S
1T
0e
1c
0Z
1O
1Y
1[
1C
1A
0B
1=
1;
0<
1(
1#
0!
#740000
0$
05
0F
#745000
1$
15
1F
1P
0T
1e
0b
1Z
1\
0O
0Y
0A
1D
1B
0;
1>
1<
0#
1)
1!
#750000
0$
05
0F
#755000
1$
15
1F
0P
1Q
0d
1b
0Z
0[
1R
1Y
1A
0C
0B
1;
0=
0<
1#
0(
0!
#760000
0$
05
0F
#765000
1$
15
1F
0Q
1S
0c
1d
0R
0Y
0\
1Z
1B
0D
0A
1<
0>
0;
1!
0)
0#
#770000
0$
05
0F
#775000
1$
15
1F
0S
1T
0e
1c
0Z
1O
1Y
1[
1C
1A
0B
1=
1;
0<
1(
1#
0!
#780000
0$
05
0F
#785000
1$
15
1F
1P
0T
1e
0b
1Z
1\
0O
0Y
0A
1D
1B
0;
1>
1<
0#
1)
1!
#790000
0$
05
0F
#795000
1$
15
1F
0P
1Q
0d
1b
0Z
0[
1R
1Y
1A
0C
0B
1;
0=
0<
1#
0(
0!
#800000
0$
05
0F
#805000
1$
15
1F
0Q
1S
0c
1d
0R
0Y
0\
1Z
1B
0D
0A
1<
0>
0;
1!
0)
0#
#810000
0$
05
0F
#815000
1$
15
1F
0S
1T
0e
1c
0Z
1O
1Y
1[
1C
1A
0B
1=
1;
0<
1(
1#
0!
#820000
0$
05
0F
#825000
1$
15
1F
1P
0T
1e
0b
1Z
1\
0O
0Y
0A
1D
1B
0;
1>
1<
0#
1)
1!
#830000
0$
05
0F
#835000
1$
15
1F
0P
1Q
0d
1b
0Z
0[
1R
1Y
1A
0C
0B
1;
0=
0<
1#
0(
0!
#840000
0$
05
0F
#845000
1$
15
1F
0Q
1S
0c
1d
0R
0Y
0\
1Z
1B
0D
0A
1<
0>
0;
1!
0)
0#
#850000
0$
05
0F
#855000
1$
15
1F
0S
1T
0e
1c
0Z
1O
1Y
1[
1C
1A
0B
1=
1;
0<
1(
1#
0!
#860000
0$
05
0F
#865000
1$
15
1F
1P
0T
1e
0b
1Z
1\
0O
0Y
0A
1D
1B
0;
1>
1<
0#
1)
1!
#870000
0$
05
0F
#875000
1$
15
1F
0P
1Q
0d
1b
0Z
0[
1R
1Y
1A
0C
0B
1;
0=
0<
1#
0(
0!
#880000
0$
05
0F
#885000
1$
15
1F
0Q
1S
0c
1d
0R
0Y
0\
1Z
1B
0D
0A
1<
0>
0;
1!
0)
0#
#890000
0$
05
0F
#895000
1$
15
1F
0S
1T
0e
1c
0Z
1O
1Y
1[
1C
1A
0B
1=
1;
0<
1(
1#
0!
#900000
0$
05
0F
#905000
1$
15
1F
1P
0T
1e
0b
1Z
1\
0O
0Y
0A
1D
1B
0;
1>
1<
0#
1)
1!
#910000
0$
05
0F
#915000
1$
15
1F
0P
1Q
0d
1b
0Z
0[
1R
1Y
1A
0C
0B
1;
0=
0<
1#
0(
0!
#920000
0$
05
0F
#925000
1$
15
1F
0Q
1S
0c
1d
0R
0Y
0\
1Z
1B
0D
0A
1<
0>
0;
1!
0)
0#
#930000
0$
05
0F
#935000
1$
15
1F
0S
1T
0e
1c
0Z
1O
1Y
1[
1C
1A
0B
1=
1;
0<
1(
1#
0!
#940000
0$
05
0F
#945000
1$
15
1F
1P
0T
1e
0b
1Z
1\
0O
0Y
0A
1D
1B
0;
1>
1<
0#
1)
1!
#950000
0$
05
0F
#955000
1$
15
1F
0P
1Q
0d
1b
0Z
0[
1R
1Y
1A
0C
0B
1;
0=
0<
1#
0(
0!
#960000
0$
05
0F
#965000
1$
15
1F
0Q
1S
0c
1d
0R
0Y
0\
1Z
1B
0D
0A
1<
0>
0;
1!
0)
0#
#970000
0$
05
0F
#975000
1$
15
1F
0S
1T
0e
1c
0Z
1O
1Y
1[
1C
1A
0B
1=
1;
0<
1(
1#
0!
#980000
0$
05
0F
#985000
1$
15
1F
1P
0T
1e
0b
1Z
1\
0O
0Y
0A
1D
1B
0;
1>
1<
0#
1)
1!
#990000
0$
05
0F
#995000
1$
15
1F
0P
1Q
0d
1b
0Z
0[
1R
1Y
1A
0C
0B
1;
0=
0<
1#
0(
0!
