Labdig/Exp7e/simulation/qsim/MaquinaEstadoSemaforo.msim.vcd
$comment
	File created using the following command:
		vcd file MaquinaEstadoSemaforo.msim.vcd -direction
$end
$date
	Tue Jun 23 17:11:11 2020
$end
$version
	ModelSim Version 10.5b
$end
$timescale
	1ps
$end

$scope module maquinaestadosemaforo_vhd_vec_tst $end
$var wire 1 ! c1m $end
$var wire 1 " c1s $end
$var wire 1 # c5s $end
$var wire 1 $ clock $end
$var wire 1 % Noturno $end
$var wire 1 & PvA $end
$var wire 1 ' PvB $end
$var wire 1 ( Q0 $end
$var wire 1 ) Q1 $end
$var wire 1 * Q2 $end
$var wire 1 + reset $end

$scope module i1 $end
$var wire 1 , gnd $end
$var wire 1 - vcc $end
$var wire 1 . unknown $end
$var wire 1 / devoe $end
$var wire 1 0 devclrn $end
$var wire 1 1 devpor $end
$var wire 1 2 ww_devoe $end
$var wire 1 3 ww_devclrn $end
$var wire 1 4 ww_devpor $end
$var wire 1 5 ww_clock $end
$var wire 1 6 ww_Noturno $end
$var wire 1 7 ww_PvA $end
$var wire 1 8 ww_PvB $end
$var wire 1 9 ww_reset $end
$var wire 1 : ww_c1s $end
$var wire 1 ; ww_c5s $end
$var wire 1 < ww_c1m $end
$var wire 1 = ww_Q0 $end
$var wire 1 > ww_Q1 $end
$var wire 1 ? ww_Q2 $end
$var wire 1 @ \c1s~output_o\ $end
$var wire 1 A \c5s~output_o\ $end
$var wire 1 B \c1m~output_o\ $end
$var wire 1 C \Q0~output_o\ $end
$var wire 1 D \Q1~output_o\ $end
$var wire 1 E \Q2~output_o\ $end
$var wire 1 F \clock~input_o\ $end
$var wire 1 G \Noturno~input_o\ $end
$var wire 1 H \E_Futuro.Apagado~0_combout\ $end
$var wire 1 I \reset~input_o\ $end
$var wire 1 J \E_Atual.Apagado~q\ $end
$var wire 1 K \Selector3~0_combout\ $end
$var wire 1 L \E_Atual.Piscante~q\ $end
$var wire 1 M \PvA~input_o\ $end
$var wire 1 N \PvB~input_o\ $end
$var wire 1 O \Selector2~0_combout\ $end
$var wire 1 P \E_Atual.eVdB~q\ $end
$var wire 1 Q \E_Futuro.eAmB~0_combout\ $end
$var wire 1 R \E_Atual.eAmB~q\ $end
$var wire 1 S \Selector1~0_combout\ $end
$var wire 1 T \E_Atual.eVdA~q\ $end
$var wire 1 U \E_Futuro.eAmA~0_combout\ $end
$var wire 1 V \E_Atual.eAmA~q\ $end
$var wire 1 W \Selector0~0_combout\ $end
$var wire 1 X \Selector0~1_combout\ $end
$var wire 1 Y \E_Atual.Bgn~q\ $end
$var wire 1 Z \c1s~0_combout\ $end
$var wire 1 [ \c5s~0_combout\ $end
$var wire 1 \ \c1m~0_combout\ $end
$var wire 1 ] \Q0~0_combout\ $end
$var wire 1 ^ \Q1~0_combout\ $end
$var wire 1 _ \ALT_INV_Noturno~input_o\ $end
$var wire 1 ` \ALT_INV_PvA~input_o\ $end
$var wire 1 a \ALT_INV_PvB~input_o\ $end
$var wire 1 b \ALT_INV_reset~input_o\ $end
$var wire 1 c \ALT_INV_Selector0~0_combout\ $end
$var wire 1 d \ALT_INV_E_Atual.eVdB~q\ $end
$var wire 1 e \ALT_INV_E_Atual.eVdA~q\ $end
$var wire 1 f \ALT_INV_E_Atual.eAmB~q\ $end
$var wire 1 g \ALT_INV_E_Atual.eAmA~q\ $end
$var wire 1 h \ALT_INV_E_Atual.Apagado~q\ $end
$var wire 1 i \ALT_INV_E_Atual.Piscante~q\ $end
$var wire 1 j \ALT_INV_E_Atual.Bgn~q\ $end
$upscope $end
$upscope $end
$enddefinitions $end
#0
$dumpvars
0!
1"
0#
0$
0%
0&
0'
1(
0)
1*
1+
0,
1-
x.
1/
10
11
12
13
14
05
06
07
08
19
1:
0;
0<
1=
0>
1?
1@
0A
0B
1C
0D
1E
0F
0G
0H
1I
0J
0K
0L
0M
0N
0O
0P
0Q
0R
0S
0T
0U
0V
1W
0X
0Y
1Z
0[
0\
1]
0^
1_
1`
1a
0b
0c
1d
1e
1f
1g
1h
1i
1j
$end
#5000
1$
15
1F
#10000
0$
05
0F
#15000
1$
15
1F
#20000
0$
0+
05
09
0I
0F
1b
#25000
1$
15
1F
#30000
0$
05
0F
#35000
1$
15
1F
#40000
0$
05
0F
#45000
1$
15
1F
#50000
0$
05
0F
#55000
1$
15
1F
#60000
0$
05
0F
#65000
1$
15
1F
#70000
0$
05
0F
#75000
1$
15
1F
#80000
0$
05
0F
#85000
1$
15
1F
#90000
0$
1'
1&
05
18
17
1M
1N
0F
0a
0`
1S
0W
1c
1X
#95000
1$
15
1F
1T
1Y
0j
0e
1U
1\
0S
0Z
0]
0C
0@
0E
1B
0=
0:
0?
1<
0(
0"
0*
1!
#100000
0$
05
0F
#105000
1$
15
1F
0T
1V
0g
1e
0U
0\
1O
1[
1]
1C
1A
0B
1=
1;
0<
1(
1#
0!
#110000
0$
05
0F
#115000
1$
15
1F
1P
0V
1g
0d
1Q
1\
1^
0O
0[
0A
1D
1B
0;
1>
1<
0#
1)
1!
#120000
0$
05
0F
#125000
1$
15
1F
0P
1R
0f
1d
0Q
0\
0]
1S
1[
1A
0C
0B
1;
0=
0<
1#
0(
0!
#130000
0$
05
0F
#135000
1$
15
1F
0R
1T
0e
1f
0[
0^
0S
1U
1\
1B
0D
0A
1<
0>
0;
1!
0)
0#
#140000
0$
05
0F
#145000
1$
15
1F
0T
1V
0g
1e
0U
0\
1O
1[
1]
1C
1A
0B
1=
1;
0<
1(
1#
0!
#150000
0$
05
0F
#155000
1$
15
1F
1P
0V
1g
0d
1Q
1\
1^
0O
0[
0A
1D
1B
0;
1>
1<
0#
1)
1!
#160000
0$
05
0F
#165000
1$
15
1F
0P
1R
0f
1d
0Q
0\
0]
1S
1[
1A
0C
0B
1;
0=
0<
1#
0(
0!
#170000
0$
05
0F
#175000
1$
15
1F
0R
1T
0e
1f
0[
0^
0S
1U
1\
1B
0D
0A
1<
0>
0;
1!
0)
0#
#180000
0$
05
0F
#185000
1$
15
1F
0T
1V
0g
1e
0U
0\
1O
1[
1]
1C
1A
0B
1=
1;
0<
1(
1#
0!
#190000
0$
05
0F
#195000
1$
15
1F
1P
0V
1g
0d
1Q
1\
1^
0O
0[
0A
1D
1B
0;
1>
1<
0#
1)
1!
#200000
0$
05
0F
#205000
1$
15
1F
0P
1R
0f
1d
0Q
0\
0]
1S
1[
1A
0C
0B
1;
0=
0<
1#
0(
0!
#210000
0$
05
0F
#215000
1$
15
1F
0R
1T
0e
1f
0[
0^
0S
1U
1\
1B
0D
0A
1<
0>
0;
1!
0)
0#
#220000
0$
05
0F
#225000
1$
15
1F
0T
1V
0g
1e
0U
0\
1O
1[
1]
1C
1A
0B
1=
1;
0<
1(
1#
0!
#230000
0$
05
0F
#235000
1$
15
1F
1P
0V
1g
0d
1Q
1\
1^
0O
0[
0A
1D
1B
0;
1>
1<
0#
1)
1!
#240000
0$
05
0F
#245000
1$
15
1F
0P
1R
0f
1d
0Q
0\
0]
1S
1[
1A
0C
0B
1;
0=
0<
1#
0(
0!
#250000
0$
05
0F
#255000
1$
15
1F
0R
1T
0e
1f
0[
0^
0S
1U
1\
1B
0D
0A
1<
0>
0;
1!
0)
0#
#260000
0$
05
0F
#265000
1$
15
1F
0T
1V
0g
1e
0U
0\
1O
1[
1]
1C
1A
0B
1=
1;
0<
1(
1#
0!
#270000
0$
05
0F
#275000
1$
15
1F
1P
0V
1g
0d
1Q
1\
1^
0O
0[
0A
1D
1B
0;
1>
1<
0#
1)
1!
#280000
0$
05
0F
#285000
1$
15
1F
0P
1R
0f
1d
0Q
0\
0]
1S
1[
1A
0C
0B
1;
0=
0<
1#
0(
0!
#290000
0$
05
0F
#295000
1$
15
1F
0R
1T
0e
1f
0[
0^
0S
1U
1\
1B
0D
0A
1<
0>
0;
1!
0)
0#
#300000
0$
0'
0&
05
08
07
0M
0N
0F
1a
1`
#305000
1$
15
1F
0T
1V
0g
1e
0U
0\
1W
1[
1]
0c
0X
1C
1A
0B
1=
1;
0<
1(
1#
0!
#310000
0$
05
0F
#315000
1$
15
1F
0V
0Y
1j
1g
0[
1Z
1@
1E
0A
1:
1?
0;
1"
1*
0#
#320000
0$
05
0F
#325000
1$
15
1F
#330000
0$
1'
05
18
1N
0F
0a
1O
0W
1c
1X
#335000
1$
15
1F
1P
1Y
0j
0d
1\
1^
0Z
0@
0E
1D
1B
0:
0?
1>
1<
0"
0*
1)
1!
#340000
0$
05
0F
#345000
1$
15
1F
#350000
0$
05
0F
#355000
1$
15
1F
#360000
0$
05
0F
#365000
1$
15
1F
#370000
0$
05
0F
#375000
1$
15
1F
#380000
0$
05
0F
#385000
1$
15
1F
#390000
0$
05
0F
#395000
1$
15
1F
#400000
0$
05
0F
#405000
1$
15
1F
#410000
0$
05
0F
#415000
1$
15
1F
#420000
0$
05
0F
#425000
1$
15
1F
#430000
0$
05
0F
#435000
1$
15
1F
#440000
0$
05
0F
#445000
1$
15
1F
#450000
0$
05
0F
#455000
1$
15
1F
#460000
0$
05
0F
#465000
1$
15
1F
#470000
0$
05
0F
#475000
1$
15
1F
#480000
0$
1&
05
17
1M
0F
0`
0O
1Q
#485000
1$
15
1F
0P
1R
0f
1d
0Q
0\
0]
1S
1[
1A
0C
0B
1;
0=
0<
1#
0(
0!
#490000
0$
0'
05
08
0N
0F
1a
#495000
1$
15
1F
0R
1T
0e
1f
0[
0^
1\
1B
0D
0A
1<
0>
0;
1!
0)
0#
#500000
0$
05
0F
#505000
1$
15
1F
#510000
0$
05
0F
#515000
1$
15
1F
#520000
0$
05
0F
#525000
1$
15
1F
#530000
0$
05
0F
#535000
1$
15
1F
#540000
0$
05
0F
#545000
1$
15
1F
#550000
0$
05
0F
#555000
1$
15
1F
#560000
0$
05
0F
#565000
1$
15
1F
#570000
0$
05
0F
#575000
1$
15
1F
#580000
0$
05
0F
#585000
1$
15
1F
#590000
0$
05
0F
#595000
1$
15
1F
#600000
0$
05
0F
#605000
1$
15
1F
#610000
0$
0&
05
07
0M
0F
1`
0S
1U
#615000
1$
15
1F
0T
1V
0g
1e
0U
0\
1W
1[
1]
0c
0X
1C
1A
0B
1=
1;
0<
1(
1#
0!
#620000
0$
05
0F
#625000
1$
15
1F
0V
0Y
1j
1g
0[
1Z
1@
1E
0A
1:
1?
0;
1"
1*
0#
#630000
0$
05
0F
#635000
1$
15
1F
#640000
0$
05
0F
#645000
1$
15
1F
#650000
0$
1%
05
16
1G
0F
0_
1K
0W
1c
1X
#655000
1$
15
1F
1L
1Y
0j
0i
1H
1^
0K
0]
0C
1D
0=
1>
0(
1)
#660000
0$
05
0F
#665000
1$
15
1F
1J
0L
1i
0h
1K
0H
0^
0D
0>
0)
#670000
0$
05
0F
#675000
1$
15
1F
0J
1L
0i
1h
0K
1H
1^
1D
1>
1)
#680000
0$
05
0F
#685000
1$
15
1F
1J
0L
1i
0h
1K
0H
0^
0D
0>
0)
#690000
0$
05
0F
#695000
1$
15
1F
0J
1L
0i
1h
0K
1H
1^
1D
1>
1)
#700000
0$
05
0F
#705000
1$
15
1F
1J
0L
1i
0h
1K
0H
0^
0D
0>
0)
#710000
0$
05
0F
#715000
1$
15
1F
0J
1L
0i
1h
0K
1H
1^
1D
1>
1)
#720000
0$
05
0F
#725000
1$
15
1F
1J
0L
1i
0h
1K
0H
0^
0D
0>
0)
#730000
0$
05
0F
#735000
1$
15
1F
0J
1L
0i
1h
0K
1H
1^
1D
1>
1)
#740000
0$
05
0F
#745000
1$
15
1F
1J
0L
1i
0h
1K
0H
0^
0D
0>
0)
#750000
0$
05
0F
#755000
1$
15
1F
0J
1L
0i
1h
0K
1H
1^
1D
1>
1)
#760000
0$
05
0F
#765000
1$
15
1F
1J
0L
1i
0h
1K
0H
0^
0D
0>
0)
#770000
0$
05
0F
#775000
1$
15
1F
0J
1L
0i
1h
0K
1H
1^
1D
1>
1)
#780000
0$
05
0F
#785000
1$
15
1F
1J
0L
1i
0h
1K
0H
0^
0D
0>
0)
#790000
0$
05
0F
#795000
1$
15
1F
0J
1L
0i
1h
0K
1H
1^
1D
1>
1)
#800000
0$
05
0F
#805000
1$
15
1F
1J
0L
1i
0h
1K
0H
0^
0D
0>
0)
#810000
0$
05
0F
#815000
1$
15
1F
0J
1L
0i
1h
0K
1H
1^
1D
1>
1)
#820000
0$
05
0F
#825000
1$
15
1F
1J
0L
1i
0h
1K
0H
0^
0D
0>
0)
#830000
0$
05
0F
#835000
1$
15
1F
0J
1L
0i
1h
0K
1H
1^
1D
1>
1)
#840000
0$
05
0F
#845000
1$
15
1F
1J
0L
1i
0h
1K
0H
0^
0D
0>
0)
#850000
0$
05
0F
#855000
1$
15
1F
0J
1L
0i
1h
0K
1H
1^
1D
1>
1)
#860000
0$
05
0F
#865000
1$
15
1F
1J
0L
1i
0h
1K
0H
0^
0D
0>
0)
#870000
0$
05
0F
#875000
1$
15
1F
0J
1L
0i
1h
0K
1H
1^
1D
1>
1)
#880000
0$
05
0F
#885000
1$
15
1F
1J
0L
1i
0h
1K
0H
0^
0D
0>
0)
#890000
0$
0%
05
06
0G
0F
1_
#895000
1$
15
1F
0J
1L
0i
1h
0K
0X
1^
1D
1>
1)
#900000
0$
05
0F
#905000
1$
15
1F
0L
0Y
1j
1i
1X
0^
1W
1]
0c
0X
1C
0D
1=
0>
1(
0)
#910000
0$
05
0F
#915000
1$
15
1F
#920000
0$
05
0F
#925000
1$
15
1F
#930000
0$
05
0F
#935000
1$
15
1F
#940000
0$
05
0F
#945000
1$
15
1F
#950000
0$
05
0F
#955000
1$
15
1F
#960000
0$
05
0F
#965000
1$
15
1F
#970000
0$
05
0F
#975000
1$
15
1F
#980000
0$
05
0F
#985000
1$
15
1F
#990000
0$
1&
1'
05
17
18
1N
1M
0F
0`
0a
1S
0W
1c
1X
#995000
1$
15
1F
1T
1Y
0j
0e
1U
1\
0S
0Z
0]
0C
0@
0E
1B
0=
0:
0?
1<
0(
0"
0*
1!
