Labdig/Exp8/simulation/qsim/FSMexp8.msim.vcd
$comment
	File created using the following command:
		vcd file FSMexp8.msim.vcd -direction
$end
$date
	Tue Jun 23 17:23:22 2020
$end
$version
	ModelSim Version 10.5b
$end
$timescale
	1ps
$end

$scope module fsmexp8_vhd_vec_tst $end
$var wire 1 ! c1m $end
$var wire 1 " c1s $end
$var wire 1 # c5s $end
$var wire 1 $ clock $end
$var wire 1 % Noturno $end
$var wire 1 & PdA $end
$var wire 1 ' PdB $end
$var wire 1 ( Q0 $end
$var wire 1 ) Q1 $end
$var wire 1 * Q2 $end
$var wire 1 + reset $end
$var wire 1 , VeA $end
$var wire 1 - VeB $end

$scope module i1 $end
$var wire 1 . gnd $end
$var wire 1 / vcc $end
$var wire 1 0 unknown $end
$var wire 1 1 devoe $end
$var wire 1 2 devclrn $end
$var wire 1 3 devpor $end
$var wire 1 4 ww_devoe $end
$var wire 1 5 ww_devclrn $end
$var wire 1 6 ww_devpor $end
$var wire 1 7 ww_clock $end
$var wire 1 8 ww_Noturno $end
$var wire 1 9 ww_VeA $end
$var wire 1 : ww_VeB $end
$var wire 1 ; ww_PdA $end
$var wire 1 < ww_PdB $end
$var wire 1 = ww_reset $end
$var wire 1 > ww_c1s $end
$var wire 1 ? ww_c5s $end
$var wire 1 @ ww_c1m $end
$var wire 1 A ww_Q0 $end
$var wire 1 B ww_Q1 $end
$var wire 1 C ww_Q2 $end
$var wire 1 D \c1s~output_o\ $end
$var wire 1 E \c5s~output_o\ $end
$var wire 1 F \c1m~output_o\ $end
$var wire 1 G \Q0~output_o\ $end
$var wire 1 H \Q1~output_o\ $end
$var wire 1 I \Q2~output_o\ $end
$var wire 1 J \clock~input_o\ $end
$var wire 1 K \Noturno~input_o\ $end
$var wire 1 L \E_Futuro.Apagado~0_combout\ $end
$var wire 1 M \reset~input_o\ $end
$var wire 1 N \E_Atual.Apagado~q\ $end
$var wire 1 O \VeB~input_o\ $end
$var wire 1 P \PdA~input_o\ $end
$var wire 1 Q \E_Futuro.eAmA~0_combout\ $end
$var wire 1 R \E_Atual.eAmA~q\ $end
$var wire 1 S \VeA~input_o\ $end
$var wire 1 T \PdB~input_o\ $end
$var wire 1 U \Selector1~0_combout\ $end
$var wire 1 V \E_Atual.eVdB~q\ $end
$var wire 1 W \E_Futuro.eAmB~0_combout\ $end
$var wire 1 X \E_Atual.eAmB~q\ $end
$var wire 1 Y \Selector0~0_combout\ $end
$var wire 1 Z \E_Atual.eVdA~q\ $end
$var wire 1 [ \Selector2~0_combout\ $end
$var wire 1 \ \E_Atual.Piscante~q\ $end
$var wire 1 ] \c1s~0_combout\ $end
$var wire 1 ^ \c5s~0_combout\ $end
$var wire 1 _ \c1m~0_combout\ $end
$var wire 1 ` \Q0~0_combout\ $end
$var wire 1 a \Q1~0_combout\ $end
$var wire 1 b \ALT_INV_VeB~input_o\ $end
$var wire 1 c \ALT_INV_reset~input_o\ $end
$var wire 1 d \ALT_INV_Noturno~input_o\ $end
$var wire 1 e \ALT_INV_E_Atual.eVdB~q\ $end
$var wire 1 f \ALT_INV_E_Atual.eVdA~q\ $end
$var wire 1 g \ALT_INV_E_Atual.eAmB~q\ $end
$var wire 1 h \ALT_INV_E_Atual.eAmA~q\ $end
$var wire 1 i \ALT_INV_E_Atual.Apagado~q\ $end
$var wire 1 j \ALT_INV_E_Atual.Piscante~q\ $end
$var wire 1 k \ALT_INV_PdA~input_o\ $end
$var wire 1 l \ALT_INV_VeA~input_o\ $end
$var wire 1 m \ALT_INV_PdB~input_o\ $end
$upscope $end
$upscope $end
$enddefinitions $end
#0
$dumpvars
1!
0"
0#
0$
0%
0&
0'
0(
0)
0*
1+
0,
0-
0.
1/
x0
11
12
13
14
15
16
07
08
09
0:
0;
0<
1=
0>
0?
1@
0A
0B
0C
0D
0E
1F
0G
0H
0I
0J
0K
0L
1M
0N
0O
0P
0Q
0R
0S
0T
0U
0V
0W
0X
0Y
0Z
0[
0\
0]
0^
1_
0`
0a
1b
0c
1d
1e
1f
1g
1h
1i
1j
1k
1l
1m
$end
#5000
1$
17
1J
#10000
0$
0+
07
0=
0M
0J
1c
#15000
1$
17
1J
#20000
0$
07
0J
#25000
1$
17
1J
#30000
0$
1%
07
18
1K
0J
0d
1Y
1[
#35000
1$
17
1J
1Z
1\
0j
0f
0[
0_
1L
1]
1a
1H
1D
1I
0F
1B
1>
1C
0@
1)
1"
1*
0!
#40000
0$
07
0J
#45000
1$
17
1J
1N
0\
1j
0i
1[
0L
0a
0H
0B
0)
#50000
0$
07
0J
#55000
1$
17
1J
0N
1\
0j
1i
0[
1L
1a
1H
1B
1)
#60000
0$
07
0J
#65000
1$
17
1J
1N
0\
1j
0i
1[
0L
0a
0H
0B
0)
#70000
0$
07
0J
#75000
1$
17
1J
0N
1\
0j
1i
0[
1L
1a
1H
1B
1)
#80000
0$
07
0J
#85000
1$
17
1J
1N
0\
1j
0i
1[
0L
0a
0H
0B
0)
#90000
0$
07
0J
#95000
1$
17
1J
0N
1\
0j
1i
0[
1L
1a
1H
1B
1)
#100000
0$
07
0J
#105000
1$
17
1J
1N
0\
1j
0i
1[
0L
0a
0H
0B
0)
#110000
0$
07
0J
#115000
1$
17
1J
0N
1\
0j
1i
0[
1L
1a
1H
1B
1)
#120000
0$
07
0J
#125000
1$
17
1J
1N
0\
1j
0i
1[
0L
0a
0H
0B
0)
#130000
0$
07
0J
#135000
1$
17
1J
0N
1\
0j
1i
0[
1L
1a
1H
1B
1)
#140000
0$
07
0J
#145000
1$
17
1J
1N
0\
1j
0i
1[
0L
0a
0H
0B
0)
#150000
0$
0%
07
08
0K
0J
1d
#155000
1$
17
1J
0N
1\
0j
1i
0[
0Y
1a
1H
1B
1)
#160000
0$
07
0J
#165000
1$
17
1J
0Z
0\
1j
1f
1_
0]
0a
0H
0D
0I
1F
0B
0>
0C
1@
0)
0"
0*
1!
#170000
0$
07
0J
#175000
1$
17
1J
#180000
0$
07
0J
#185000
1$
17
1J
#190000
0$
07
0J
#195000
1$
17
1J
#200000
0$
07
0J
#205000
1$
17
1J
#210000
0$
07
0J
#215000
1$
17
1J
#220000
0$
07
0J
#225000
1$
17
1J
#230000
0$
1&
1,
1'
1-
07
1;
19
1<
1:
1O
1T
1S
1P
0J
0k
0l
0m
0b
1Q
1Y
#235000
1$
17
1J
1R
1Z
0f
0h
1U
1^
1`
0Q
0_
0F
1G
1E
0@
1A
1?
0!
1(
1#
#240000
0$
07
0J
#245000
1$
17
1J
0R
1V
0e
1h
0^
0U
1W
1_
1a
1H
1F
0E
1B
1@
0?
1)
1!
0#
#250000
0$
07
0J
#255000
1$
17
1J
0V
1X
0g
1e
0W
0_
0`
0Y
1^
1E
0G
0F
1?
0A
0@
1#
0(
0!
#260000
0$
07
0J
#265000
1$
17
1J
0X
0Z
1f
1g
0^
0a
1Q
1Y
1_
1F
0H
0E
1@
0B
0?
1!
0)
0#
#270000
0$
07
0J
#275000
1$
17
1J
1R
1Z
0f
0h
1U
1^
1`
0Q
0_
0F
1G
1E
0@
1A
1?
0!
1(
1#
#280000
0$
07
0J
#285000
1$
17
1J
0R
1V
0e
1h
0^
0U
1W
1_
1a
1H
1F
0E
1B
1@
0?
1)
1!
0#
#290000
0$
07
0J
#295000
1$
17
1J
0V
1X
0g
1e
0W
0_
0`
0Y
1^
1E
0G
0F
1?
0A
0@
1#
0(
0!
#300000
0$
07
0J
#305000
1$
17
1J
0X
0Z
1f
1g
0^
0a
1Q
1Y
1_
1F
0H
0E
1@
0B
0?
1!
0)
0#
#310000
0$
07
0J
#315000
1$
17
1J
1R
1Z
0f
0h
1U
1^
1`
0Q
0_
0F
1G
1E
0@
1A
1?
0!
1(
1#
#320000
0$
07
0J
#325000
1$
17
1J
0R
1V
0e
1h
0^
0U
1W
1_
1a
1H
1F
0E
1B
1@
0?
1)
1!
0#
#330000
0$
07
0J
#335000
1$
17
1J
0V
1X
0g
1e
0W
0_
0`
0Y
1^
1E
0G
0F
1?
0A
0@
1#
0(
0!
#340000
0$
07
0J
#345000
1$
17
1J
0X
0Z
1f
1g
0^
0a
1Q
1Y
1_
1F
0H
0E
1@
0B
0?
1!
0)
0#
#350000
0$
07
0J
#355000
1$
17
1J
1R
1Z
0f
0h
1U
1^
1`
0Q
0_
0F
1G
1E
0@
1A
1?
0!
1(
1#
#360000
0$
07
0J
#365000
1$
17
1J
0R
1V
0e
1h
0^
0U
1W
1_
1a
1H
1F
0E
1B
1@
0?
1)
1!
0#
#370000
0$
07
0J
#375000
1$
17
1J
0V
1X
0g
1e
0W
0_
0`
0Y
1^
1E
0G
0F
1?
0A
0@
1#
0(
0!
#380000
0$
07
0J
#385000
1$
17
1J
0X
0Z
1f
1g
0^
0a
1Q
1Y
1_
1F
0H
0E
1@
0B
0?
1!
0)
0#
#390000
0$
07
0J
#395000
1$
17
1J
1R
1Z
0f
0h
1U
1^
1`
0Q
0_
0F
1G
1E
0@
1A
1?
0!
1(
1#
#400000
0$
07
0J
#405000
1$
17
1J
0R
1V
0e
1h
0^
0U
1W
1_
1a
1H
1F
0E
1B
1@
0?
1)
1!
0#
#410000
0$
1+
07
1=
1M
0J
0c
0V
0Z
1f
1e
0W
0`
0a
1Q
0H
0G
0B
0A
0)
0(
#415000
1$
17
1J
#420000
0$
07
0J
#425000
1$
17
1J
#430000
0$
0+
07
0=
0M
0J
1c
#435000
1$
17
1J
1R
1Z
0f
0h
1U
1^
1`
0Q
0_
0F
1G
1E
0@
1A
1?
0!
1(
1#
#440000
0$
07
0J
#445000
1$
17
1J
0R
1V
0e
1h
0^
0U
1W
1_
1a
1H
1F
0E
1B
1@
0?
1)
1!
0#
#450000
0$
07
0J
#455000
1$
17
1J
0V
1X
0g
1e
0W
0_
0`
0Y
1^
1E
0G
0F
1?
0A
0@
1#
0(
0!
#460000
0$
0&
0,
0'
0-
07
0;
09
0<
0:
0O
0T
0S
0P
0J
1k
1l
1m
1b
#465000
1$
17
1J
0X
0Z
1f
1g
0^
0a
1_
1F
0H
0E
1@
0B
0?
1!
0)
0#
#470000
0$
07
0J
#475000
1$
17
1J
#480000
0$
07
0J
#485000
1$
17
1J
#490000
0$
07
0J
#495000
1$
17
1J
#500000
0$
1&
07
1;
1P
0J
0k
1Q
1Y
#505000
1$
17
1J
1R
1Z
0f
0h
1U
1^
1`
0Q
0_
0F
1G
1E
0@
1A
1?
0!
1(
1#
#510000
0$
07
0J
#515000
1$
17
1J
0R
1V
0e
1h
0^
1_
1a
1H
1F
0E
1B
1@
0?
1)
1!
0#
#520000
0$
1-
07
1:
1O
0J
0b
#525000
1$
17
1J
#530000
0$
07
0J
#535000
1$
17
1J
#540000
0$
0&
07
0;
0P
0J
1k
#545000
1$
17
1J
#550000
0$
07
0J
#555000
1$
17
1J
#560000
0$
07
0J
#565000
1$
17
1J
#570000
0$
07
0J
#575000
1$
17
1J
#580000
0$
07
0J
#585000
1$
17
1J
#590000
0$
07
0J
#595000
1$
17
1J
#600000
0$
1,
07
19
1S
0J
0l
0U
1W
#605000
1$
17
1J
0V
1X
0g
1e
0W
0_
0`
0Y
1^
1E
0G
0F
1?
0A
0@
1#
0(
0!
#610000
0$
07
0J
#615000
1$
17
1J
0X
0Z
1f
1g
0^
0a
1Q
1Y
1_
1F
0H
0E
1@
0B
0?
1!
0)
0#
#620000
0$
07
0J
#625000
1$
17
1J
1R
1Z
0f
0h
1U
1^
1`
0Q
0_
0F
1G
1E
0@
1A
1?
0!
1(
1#
#630000
0$
0,
0-
07
09
0:
0O
0S
0J
1l
1b
#635000
1$
17
1J
0R
1V
0e
1h
0^
0U
1W
1_
1a
1H
1F
0E
1B
1@
0?
1)
1!
0#
#640000
0$
07
0J
#645000
1$
17
1J
0V
1X
0g
1e
0W
0_
0`
0Y
1^
1E
0G
0F
1?
0A
0@
1#
0(
0!
#650000
0$
07
0J
#655000
1$
17
1J
0X
0Z
1f
1g
0^
0a
1_
1F
0H
0E
1@
0B
0?
1!
0)
0#
#660000
0$
07
0J
#665000
1$
17
1J
#670000
0$
1,
07
19
1S
0J
0l
#675000
1$
17
1J
#680000
0$
07
0J
#685000
1$
17
1J
#690000
0$
07
0J
#695000
1$
17
1J
#700000
0$
07
0J
#705000
1$
17
1J
#710000
0$
07
0J
#715000
1$
17
1J
#720000
0$
07
0J
#725000
1$
17
1J
#730000
0$
07
0J
#735000
1$
17
1J
#740000
0$
07
0J
#745000
1$
17
1J
#750000
0$
07
0J
#755000
1$
17
1J
#760000
0$
07
0J
#765000
1$
17
1J
#770000
0$
07
0J
#775000
1$
17
1J
#780000
0$
07
0J
#785000
1$
17
1J
#790000
0$
07
0J
#795000
1$
17
1J
#800000
0$
07
0J
#805000
1$
17
1J
#810000
0$
07
0J
#815000
1$
17
1J
#820000
0$
07
0J
#825000
1$
17
1J
#830000
0$
07
0J
#835000
1$
17
1J
#840000
0$
07
0J
#845000
1$
17
1J
#850000
0$
07
0J
#855000
1$
17
1J
#860000
0$
07
0J
#865000
1$
17
1J
#870000
0$
07
0J
#875000
1$
17
1J
#880000
0$
07
0J
#885000
1$
17
1J
#890000
0$
07
0J
#895000
1$
17
1J
#900000
0$
07
0J
#905000
1$
17
1J
#910000
0$
07
0J
#915000
1$
17
1J
#920000
0$
07
0J
#925000
1$
17
1J
#930000
0$
07
0J
#935000
1$
17
1J
#940000
0$
07
0J
#945000
1$
17
1J
#950000
0$
0,
07
09
0S
0J
1l
#955000
1$
17
1J
#960000
0$
07
0J
#965000
1$
17
1J
#970000
0$
07
0J
#975000
1$
17
1J
#980000
0$
07
0J
#985000
1$
17
1J
#990000
0$
07
0J
#995000
1$
17
1J
