Labdig/Exp8/simulation/qsim/FSMexp8.msim.vcd
$comment
	File created using the following command:
		vcd file FSMexp8.msim.vcd -direction
$end
$date
	Fri May 08 15:51:39 2020
$end
$version
	ModelSim Version 10.5b
$end
$timescale
	1ps
$end

$scope module fsmexp8_vhd_vec_tst $end
$var wire 1 ! c1m $end
$var wire 1 " c1s $end
$var wire 1 # c5s $end
$var wire 1 $ clock $end
$var wire 1 % Noturno $end
$var wire 1 & Pd $end
$var wire 1 ' PvA $end
$var wire 1 ( PvB $end
$var wire 1 ) Q0 $end
$var wire 1 * Q1 $end
$var wire 1 + Q2 $end
$var wire 1 , reset $end

$scope module i1 $end
$var wire 1 - gnd $end
$var wire 1 . vcc $end
$var wire 1 / unknown $end
$var wire 1 0 devoe $end
$var wire 1 1 devclrn $end
$var wire 1 2 devpor $end
$var wire 1 3 ww_devoe $end
$var wire 1 4 ww_devclrn $end
$var wire 1 5 ww_devpor $end
$var wire 1 6 ww_clock $end
$var wire 1 7 ww_Noturno $end
$var wire 1 8 ww_PvA $end
$var wire 1 9 ww_PvB $end
$var wire 1 : ww_Pd $end
$var wire 1 ; ww_reset $end
$var wire 1 < ww_c1s $end
$var wire 1 = ww_c5s $end
$var wire 1 > ww_c1m $end
$var wire 1 ? ww_Q0 $end
$var wire 1 @ ww_Q1 $end
$var wire 1 A ww_Q2 $end
$var wire 1 B \c1s~output_o\ $end
$var wire 1 C \c5s~output_o\ $end
$var wire 1 D \c1m~output_o\ $end
$var wire 1 E \Q0~output_o\ $end
$var wire 1 F \Q1~output_o\ $end
$var wire 1 G \Q2~output_o\ $end
$var wire 1 H \clock~input_o\ $end
$var wire 1 I \Noturno~input_o\ $end
$var wire 1 J \PvB~input_o\ $end
$var wire 1 K \Pd~input_o\ $end
$var wire 1 L \PvA~input_o\ $end
$var wire 1 M \Selector2~0_combout\ $end
$var wire 1 N \reset~input_o\ $end
$var wire 1 O \E_Atual.eVdB~q\ $end
$var wire 1 P \E_Atual.eAmB~q\ $end
$var wire 1 Q \Selector1~0_combout\ $end
$var wire 1 R \E_Atual.eVdA~q\ $end
$var wire 1 S \E_Atual.eAmA~q\ $end
$var wire 1 T \Selector0~0_combout\ $end
$var wire 1 U \Selector4~0_combout\ $end
$var wire 1 V \E_Atual.Pedestre~q\ $end
$var wire 1 W \Selector0~1_combout\ $end
$var wire 1 X \Selector0~2_combout\ $end
$var wire 1 Y \E_Atual.Bgn~q\ $end
$var wire 1 Z \E_Futuro.Apagado~0_combout\ $end
$var wire 1 [ \E_Atual.Apagado~q\ $end
$var wire 1 \ \Selector3~0_combout\ $end
$var wire 1 ] \E_Atual.Piscante~q\ $end
$var wire 1 ^ \c1s~0_combout\ $end
$var wire 1 _ \c5s~0_combout\ $end
$var wire 1 ` \c1m~0_combout\ $end
$var wire 1 a \Q0~0_combout\ $end
$var wire 1 b \Q1~0_combout\ $end
$var wire 1 c \Q2~0_combout\ $end
$var wire 1 d \ALT_INV_E_Atual.Apagado~q\ $end
$var wire 1 e \ALT_INV_E_Atual.eAmA~q\ $end
$var wire 1 f \ALT_INV_E_Atual.eAmB~q\ $end
$var wire 1 g \ALT_INV_c5s~0_combout\ $end
$var wire 1 h \ALT_INV_E_Atual.eVdA~q\ $end
$var wire 1 i \ALT_INV_E_Atual.Pedestre~q\ $end
$var wire 1 j \ALT_INV_E_Atual.eVdB~q\ $end
$var wire 1 k \ALT_INV_Selector0~1_combout\ $end
$var wire 1 l \ALT_INV_Selector0~0_combout\ $end
$var wire 1 m \ALT_INV_Noturno~input_o\ $end
$var wire 1 n \ALT_INV_reset~input_o\ $end
$var wire 1 o \ALT_INV_PvB~input_o\ $end
$var wire 1 p \ALT_INV_Pd~input_o\ $end
$var wire 1 q \ALT_INV_PvA~input_o\ $end
$var wire 1 r \ALT_INV_E_Atual.Bgn~q\ $end
$var wire 1 s \ALT_INV_E_Atual.Piscante~q\ $end
$upscope $end
$upscope $end
$enddefinitions $end
#0
$dumpvars
0!
1"
0#
0$
0%
0&
0'
0(
1)
0*
1+
0,
0-
1.
x/
10
11
12
13
14
15
06
07
08
09
0:
0;
1<
0=
0>
1?
0@
1A
1B
0C
0D
1E
0F
1G
0H
0I
0J
0K
0L
0M
0N
0O
0P
0Q
0R
0S
0T
0U
0V
1W
0X
0Y
0Z
0[
0\
0]
1^
1_
0`
1a
0b
1c
1d
1e
1f
0g
1h
1i
1j
0k
1l
1m
1n
1o
1p
1q
1r
1s
$end
#5000
1$
16
1H
#10000
0$
06
0H
#15000
1$
16
1H
#20000
0$
1&
06
1:
1K
0H
0p
1U
1X
#25000
1$
16
1H
1V
1Y
0r
0i
0W
1`
1b
1T
0U
0^
0l
1k
0X
0B
1F
1D
0<
1@
1>
0"
1*
1!
#30000
0$
06
0H
#35000
1$
16
1H
0V
0Y
1r
1i
1W
0`
0b
0T
1U
1^
1l
0k
1X
1B
0F
0D
1<
0@
0>
1"
0*
0!
#40000
0$
06
0H
#45000
1$
16
1H
1V
1Y
0r
0i
0W
1`
1b
1T
0U
0^
0l
1k
0X
0B
1F
1D
0<
1@
1>
0"
1*
1!
#50000
0$
06
0H
#55000
1$
16
1H
0V
0Y
1r
1i
1W
0`
0b
0T
1U
1^
1l
0k
1X
1B
0F
0D
1<
0@
0>
1"
0*
0!
#60000
0$
06
0H
#65000
1$
16
1H
1V
1Y
0r
0i
0W
1`
1b
1T
0U
0^
0l
1k
0X
0B
1F
1D
0<
1@
1>
0"
1*
1!
#70000
0$
0&
1'
1(
06
0:
18
19
1J
1L
0K
0H
1p
0q
0o
#75000
1$
16
1H
0V
0Y
1r
1i
1W
0`
0b
1Q
1^
0k
1X
1B
0F
0D
1<
0@
0>
1"
0*
0!
#80000
0$
06
0H
#85000
1$
16
1H
1R
1Y
0r
0h
1`
0Q
0^
0a
0c
0G
0E
0B
1D
0A
0?
0<
1>
0+
0)
0"
1!
#90000
0$
06
0H
#95000
1$
16
1H
0R
1S
0e
1h
0`
1M
0_
1a
1g
1E
0D
1C
1?
0>
1=
1)
0!
1#
#100000
0$
06
0H
#105000
1$
16
1H
1O
0S
1e
0j
1`
1b
0M
1_
0g
1F
1D
0C
1@
1>
0=
1*
1!
0#
#110000
0$
06
0H
#115000
1$
16
1H
0O
1P
0f
1j
0`
0a
1Q
0T
0_
1g
1l
0E
0D
1C
0?
0>
1=
0)
0!
1#
#120000
0$
06
0H
#125000
1$
16
1H
0P
1R
0h
1f
0Q
1T
1_
0b
1`
0g
0l
1D
0F
0C
1>
0@
0=
1!
0*
0#
#130000
0$
06
0H
#135000
1$
16
1H
0R
1S
0e
1h
0`
1M
0_
1a
1g
1E
0D
1C
1?
0>
1=
1)
0!
1#
#140000
0$
1&
06
1:
1K
0H
0p
0M
1U
#145000
1$
16
1H
0S
1V
0i
1e
0U
1_
0W
1`
1b
1c
1k
0g
0X
1G
1F
1D
0C
1A
1@
1>
0=
1+
1*
1!
0#
#150000
0$
06
0H
#155000
1$
16
1H
0V
0Y
1r
1i
1W
0`
0b
1U
1^
0k
1X
1B
0F
0D
1<
0@
0>
1"
0*
0!
#160000
0$
06
0H
#165000
1$
16
1H
1V
1Y
0r
0i
0W
1`
1b
0U
0^
1k
0X
0B
1F
1D
0<
1@
1>
0"
1*
1!
#170000
0$
06
0H
#175000
1$
16
1H
0V
0Y
1r
1i
1W
0`
0b
1U
1^
0k
1X
1B
0F
0D
1<
0@
0>
1"
0*
0!
#180000
0$
06
0H
#185000
1$
16
1H
1V
1Y
0r
0i
0W
1`
1b
0U
0^
1k
0X
0B
1F
1D
0<
1@
1>
0"
1*
1!
#190000
0$
06
0H
#195000
1$
16
1H
0V
0Y
1r
1i
1W
0`
0b
1U
1^
0k
1X
1B
0F
0D
1<
0@
0>
1"
0*
0!
#200000
0$
06
0H
#205000
1$
16
1H
1V
1Y
0r
0i
0W
1`
1b
0U
0^
1k
0X
0B
1F
1D
0<
1@
1>
0"
1*
1!
#210000
0$
06
0H
#215000
1$
16
1H
0V
0Y
1r
1i
1W
0`
0b
1U
1^
0k
1X
1B
0F
0D
1<
0@
0>
1"
0*
0!
#220000
0$
06
0H
#225000
1$
16
1H
1V
1Y
0r
0i
0W
1`
1b
0U
0^
1k
0X
0B
1F
1D
0<
1@
1>
0"
1*
1!
#230000
0$
0&
06
0:
0K
0H
1p
#235000
1$
16
1H
0V
0Y
1r
1i
1W
0`
0b
1Q
1^
0k
1X
1B
0F
0D
1<
0@
0>
1"
0*
0!
#240000
0$
06
0H
#245000
1$
16
1H
1R
1Y
0r
0h
1`
0Q
0^
0a
0c
0G
0E
0B
1D
0A
0?
0<
1>
0+
0)
0"
1!
#250000
0$
06
0H
#255000
1$
16
1H
0R
1S
0e
1h
0`
1M
0_
1a
1g
1E
0D
1C
1?
0>
1=
1)
0!
1#
#260000
0$
06
0H
#265000
1$
16
1H
1O
0S
1e
0j
1`
1b
0M
1_
0g
1F
1D
0C
1@
1>
0=
1*
1!
0#
#270000
0$
06
0H
#275000
1$
16
1H
0O
1P
0f
1j
0`
0a
1Q
0T
0_
1g
1l
0E
0D
1C
0?
0>
1=
0)
0!
1#
#280000
0$
06
0H
#285000
1$
16
1H
0P
1R
0h
1f
0Q
1T
1_
0b
1`
0g
0l
1D
0F
0C
1>
0@
0=
1!
0*
0#
#290000
0$
06
0H
#295000
1$
16
1H
0R
1S
0e
1h
0`
1M
0_
1a
1g
1E
0D
1C
1?
0>
1=
1)
0!
1#
#300000
0$
06
0H
#305000
1$
16
1H
1O
0S
1e
0j
1`
1b
0M
1_
0g
1F
1D
0C
1@
1>
0=
1*
1!
0#
#310000
0$
06
0H
#315000
1$
16
1H
0O
1P
0f
1j
0`
0a
1Q
0T
0_
1g
1l
0E
0D
1C
0?
0>
1=
0)
0!
1#
#320000
0$
06
0H
#325000
1$
16
1H
0P
1R
0h
1f
0Q
1T
1_
0b
1`
0g
0l
1D
0F
0C
1>
0@
0=
1!
0*
0#
#330000
0$
06
0H
#335000
1$
16
1H
0R
1S
0e
1h
0`
1M
0_
1a
1g
1E
0D
1C
1?
0>
1=
1)
0!
1#
#340000
0$
06
0H
#345000
1$
16
1H
1O
0S
1e
0j
1`
1b
0M
1_
0g
1F
1D
0C
1@
1>
0=
1*
1!
0#
#350000
0$
06
0H
#355000
1$
16
1H
0O
1P
0f
1j
0`
0a
1Q
0T
0_
1g
1l
0E
0D
1C
0?
0>
1=
0)
0!
1#
#360000
0$
06
0H
#365000
1$
16
1H
0P
1R
0h
1f
0Q
1T
1_
0b
1`
0g
0l
1D
0F
0C
1>
0@
0=
1!
0*
0#
#370000
0$
06
0H
#375000
1$
16
1H
0R
1S
0e
1h
0`
1M
0_
1a
1g
1E
0D
1C
1?
0>
1=
1)
0!
1#
#380000
0$
06
0H
#385000
1$
16
1H
1O
0S
1e
0j
1`
1b
0M
1_
0g
1F
1D
0C
1@
1>
0=
1*
1!
0#
#390000
0$
06
0H
#395000
1$
16
1H
0O
1P
0f
1j
0`
0a
1Q
0T
0_
1g
1l
0E
0D
1C
0?
0>
1=
0)
0!
1#
#400000
0$
06
0H
#405000
1$
16
1H
0P
1R
0h
1f
0Q
1T
1_
0b
1`
0g
0l
1D
0F
0C
1>
0@
0=
1!
0*
0#
#410000
0$
06
0H
#415000
1$
16
1H
0R
1S
0e
1h
0`
1M
0_
1a
1g
1E
0D
1C
1?
0>
1=
1)
0!
1#
#420000
0$
06
0H
#425000
1$
16
1H
1O
0S
1e
0j
1`
1b
0M
1_
0g
1F
1D
0C
1@
1>
0=
1*
1!
0#
#430000
0$
06
0H
#435000
1$
16
1H
0O
1P
0f
1j
0`
0a
1Q
0T
0_
1g
1l
0E
0D
1C
0?
0>
1=
0)
0!
1#
#440000
0$
06
0H
#445000
1$
16
1H
0P
1R
0h
1f
0Q
1T
1_
0b
1`
0g
0l
1D
0F
0C
1>
0@
0=
1!
0*
0#
#450000
0$
06
0H
#455000
1$
16
1H
0R
1S
0e
1h
0`
1M
0_
1a
1g
1E
0D
1C
1?
0>
1=
1)
0!
1#
#460000
0$
06
0H
#465000
1$
16
1H
1O
0S
1e
0j
1`
1b
0M
1_
0g
1F
1D
0C
1@
1>
0=
1*
1!
0#
#470000
0$
06
0H
#475000
1$
16
1H
0O
1P
0f
1j
0`
0a
1Q
0T
0_
1g
1l
0E
0D
1C
0?
0>
1=
0)
0!
1#
#480000
0$
0'
0(
06
08
09
0J
0L
0H
1q
1o
0Q
0X
#485000
1$
16
1H
0P
0Y
1r
1f
1_
0b
1^
1a
1c
0g
1G
1E
1B
0F
0C
1A
1?
1<
0@
0=
1+
1)
1"
0*
0#
#490000
0$
06
0H
#495000
1$
16
1H
#500000
0$
06
0H
#505000
1$
16
1H
#510000
0$
06
0H
#515000
1$
16
1H
#520000
0$
06
0H
#525000
1$
16
1H
#530000
0$
06
0H
#535000
1$
16
1H
#540000
0$
06
0H
#545000
1$
16
1H
#550000
0$
06
0H
#555000
1$
16
1H
#560000
0$
06
0H
#565000
1$
16
1H
#570000
0$
06
0H
#575000
1$
16
1H
#580000
0$
06
0H
#585000
1$
16
1H
#590000
0$
06
0H
#595000
1$
16
1H
#600000
0$
06
0H
#605000
1$
16
1H
#610000
0$
06
0H
#615000
1$
16
1H
#620000
0$
06
0H
#625000
1$
16
1H
#630000
0$
06
0H
#635000
1$
16
1H
#640000
0$
06
0H
#645000
1$
16
1H
#650000
0$
06
0H
#655000
1$
16
1H
#660000
0$
06
0H
#665000
1$
16
1H
#670000
0$
06
0H
#675000
1$
16
1H
#680000
0$
06
0H
#685000
1$
16
1H
#690000
0$
06
0H
#695000
1$
16
1H
#700000
0$
06
0H
#705000
1$
16
1H
#710000
0$
06
0H
#715000
1$
16
1H
#720000
0$
06
0H
#725000
1$
16
1H
#730000
0$
06
0H
#735000
1$
16
1H
#740000
0$
06
0H
#745000
1$
16
1H
#750000
0$
06
0H
#755000
1$
16
1H
#760000
0$
06
0H
#765000
1$
16
1H
#770000
0$
06
0H
#775000
1$
16
1H
#780000
0$
06
0H
#785000
1$
16
1H
#790000
0$
06
0H
#795000
1$
16
1H
#800000
0$
06
0H
#805000
1$
16
1H
#810000
0$
06
0H
#815000
1$
16
1H
#820000
0$
06
0H
#825000
1$
16
1H
#830000
0$
06
0H
#835000
1$
16
1H
#840000
0$
06
0H
#845000
1$
16
1H
#850000
0$
06
0H
#855000
1$
16
1H
#860000
0$
06
0H
#865000
1$
16
1H
#870000
0$
06
0H
#875000
1$
16
1H
#880000
0$
06
0H
#885000
1$
16
1H
#890000
0$
06
0H
#895000
1$
16
1H
#900000
0$
06
0H
#905000
1$
16
1H
#910000
0$
06
0H
#915000
1$
16
1H
#920000
0$
06
0H
#925000
1$
16
1H
#930000
0$
06
0H
#935000
1$
16
1H
#940000
0$
06
0H
#945000
1$
16
1H
#950000
0$
06
0H
#955000
1$
16
1H
#960000
0$
06
0H
#965000
1$
16
1H
#970000
0$
06
0H
#975000
1$
16
1H
#980000
0$
06
0H
#985000
1$
16
1H
#990000
0$
06
0H
#995000
1$
16
1H
